<?xml version="1.0" encoding="utf-8"?>
<!-- Generator: Adobe Illustrator 16.2.0, SVG Export Plug-In . SVG Version: 6.00 Build 0)  -->
<!DOCTYPE svg PUBLIC "-//W3C//DTD SVG 1.1//EN" "http://www.w3.org/Graphics/SVG/1.1/DTD/svg11.dtd">
<svg version="1.1" xmlns="http://www.w3.org/2000/svg" xmlns:xlink="http://www.w3.org/1999/xlink" x="0px" y="0px" width="612px"
	 height="783.071px" viewBox="0 0 612 783.071" enable-background="new 0 0 612 783.071" xml:space="preserve">
<g id="Layer_1" display="none">
</g>
<g id="Tech_Flat_Rate_Splash">
	<g>
		<g>
			<g>
				<g>
					<g>
						<path fill="#F9EF6B" d="M145.515,166.348c-1.218,0.21-0.754,0.357-0.934,0.435
							C146.661,166.342,145.439,166.295,145.515,166.348z"/>
						<polygon fill="#F9EF6B" points="147.298,164.625 147.067,164.867 149.242,163.348 						"/>
						<path fill="#F9EF6B" d="M143.145,165.334c-0.145,0.074-0.308,0.182-0.494,0.32c-0.211-0.363-0.422-0.727-0.705-1.211
							c0.886-0.131,2.164-0.576,3.454-1.245c1.293-0.663,2.631-1.472,3.807-2.024l0.469-0.146l1.042-0.893
							c-1.495,0.758-3.07,1.738-4.596,2.547c-1.521,0.821-3.018,1.422-4.196,1.679c0.298,0.513,0.542,0.933,0.786,1.353
							C142.874,165.571,143.014,165.449,143.145,165.334z"/>
						<path fill="#F9EF6B" d="M146.328,160.016c0.521-0.098-1.395,0.861,1.411-0.648l1.819,2.722
							c-0.087,0.068-0.246,0.19-0.417,0.324c0.193-0.116,0.25-0.151,0.363-0.22c0.019-0.014,0.037-0.027,0.087-0.064l-1.875-2.807
							C147.437,159.461,147.016,159.671,146.328,160.016z"/>
						<path fill="#F9EF6B" d="M149.503,162.193c-1.044,0.779-0.224,0.244,0.125-0.017l-1.943-2.909
							c-0.162,0.084-0.228,0.13,0.021,0.039l1.894,2.836C149.599,162.137,149.555,162.162,149.503,162.193z"/>
						<path fill="#F9EF6B" d="M140.838,162.919l1.935-1.141c-0.458,0.13-2.242,1.015-1.612,0.618
							C139.149,163.506,139.607,163.375,140.838,162.919z"/>
						<path fill="#F9EF6B" d="M139.069,164.147l1.011-0.581C139.882,163.624,139.603,163.752,139.069,164.147z"/>
						<path fill="#F9EF6B" d="M142.223,162.337l-2.143,1.229c0.317-0.088,0.405,0.012,0.989-0.554
							C140.942,163.211,141.327,162.887,142.223,162.337z"/>
						<path fill="#F9EF6B" d="M143.494,161.759c1.161-0.492,2.638-1.183,0.692-0.036
							C147.992,159.725,147.291,159.765,143.494,161.759z"/>
						<path fill="#F9EF6B" d="M143.475,164.518c-0.411,0.245-0.753,0.561-1.1,0.88c-0.111-0.185-0.223-0.37-0.336-0.565l0.218-0.035
							c0,0,1.34-0.521,1.329-0.551c-0.29,0.162-0.958,0.313-1.574,0.474c0.145,0.249,0.288,0.495,0.431,0.741
							c0.282-0.251,0.551-0.491,0.746-0.664C143.397,164.637,143.518,164.528,143.475,164.518z"/>
						<path fill="#F9EF6B" d="M146.003,157.598c-0.024,0.045,0.039,0.043,0.234-0.039l2.165,2.637
							c-0.167,0.055-0.639,0.374-0.791,0.411c0,0-0.085,0.087-0.213,0.22c-0.128,0.141-0.302,0.297-0.477,0.438
							c-0.352,0.295-0.704,0.59-0.704,0.59c0.332-0.228,0.785-0.508,1.203-0.832c0.418-0.346,0.802-0.666,1.007-0.803l-2.209-2.69
							C146.088,157.59,146.029,157.604,146.003,157.598z"/>
						<path fill="#F9EF6B" d="M147.611,160.606l0.578-0.605l-1.805-2.2l-1.479,1.061c0.739-0.475,1.244-0.799,1.527-0.98
							l10.105-6.484l-8.414,8.545C147.571,160.502,147.498,160.633,147.611,160.606z"/>
						<path fill="#F9EF6B" d="M138.901,164.732l3.504-2.129c-1.331,0.788-2.662,1.576-4.034,2.275
							c0.384,0.454,0.768,0.908,1.179,1.381l0.096-0.195l-0.136,0.17l-1.091-1.254L138.901,164.732z"/>
						<path fill="#F9EF6B" d="M138.004,162.215c0,0,0.272-0.17,0.544-0.34c0.271-0.183,0.542-0.364,0.542-0.364
							s-0.122,0.077-0.304,0.194c-0.184,0.119-0.428,0.274-0.672,0.411c-0.49,0.294-0.976,0.523-0.976,0.522
							c0,0,0.216-0.102,0.433-0.203C137.785,162.339,138.004,162.215,138.004,162.215z"/>
						<path fill="#F9EF6B" d="M139.363,164.556c-0.836,0.693,1.403-0.521,0.482,0.15c1.498-0.899,2.712-1.911,3.784-2.792
							C142.451,162.807,141.129,163.686,139.363,164.556z"/>
						<path fill="#F9EF6B" d="M145.385,160.24c-0.56,0.513-1.127,1.068-1.756,1.674C144.241,161.369,144.829,160.818,145.385,160.24
							z"/>
						<path fill="#F9EF6B" d="M141.317,161.041c-0.188,0.045-0.567,0.133-1.769,0.689c0,0,0.234-0.053,0.468-0.105
							c0.235-0.061,0.471-0.119,0.471-0.119C140.742,161.371,141.028,161.21,141.317,161.041z"/>
						<path fill="#F9EF6B" d="M140.521,161.496l-0.033,0.01c-0.902,0.493-1.534,0.77-1.803,0.893
							C138.916,162.29,139.472,162.059,140.521,161.496z"/>
						<path fill="#F9EF6B" d="M141.526,160.922c-0.077,0.043-0.134,0.076-0.209,0.119
							C141.409,161.016,141.46,160.994,141.526,160.922z"/>
						<path fill="#F9EF6B" d="M143.902,162.797c1.173-0.865,3.68-2.863,1.06-1.266C144.164,162.251,145.655,161.424,143.902,162.797
							z"/>
						<path fill="#F9EF6B" d="M142.705,160.562l2.257-1.363c-0.078-0.025-0.533,0.156,0.046-0.294L142.705,160.562z"/>
						<polygon fill="#F9EF6B" points="141.65,161.285 142.705,160.562 141.867,161.045 						"/>
						<path fill="#F9EF6B" d="M141.384,162.936c0.931-0.752,2.017-1.439,3.16-2.463c-1.265,1.049-2.645,1.875-3.927,2.712
							C140.472,163.349,139.977,163.839,141.384,162.936z"/>
						<path fill="#F9EF6B" d="M136.453,165.801c0.066-0.043,0.151-0.099,0.213-0.139
							C136.521,165.723,136.409,165.78,136.453,165.801z"/>
						<path fill="#F9EF6B" d="M134.381,165.441c-0.047,0.035-0.093,0.068-0.129,0.111c-0.469-0.662-0.938-1.324-1.407-1.99
							l0.023,0.002c0.011-0.019,0.019-0.035,0.035-0.055l-0.066,0.021l1.436,2.034L134.381,165.441z"/>
						<path fill="#F9EF6B" d="M140.371,163.279c-1.015,0.555-1.581,0.972-2.105,1.361c0.736-0.456,1.515-0.938,2.351-1.456
							C140.681,163.105,140.684,163.078,140.371,163.279z"/>
						<path fill="#F9EF6B" d="M140.467,159.434c0.53-0.285,1.128-0.607,1.756-0.947
							C141.686,158.734,140.604,159.271,140.467,159.434z"/>
						<path fill="#F9EF6B" d="M137.032,165.525c-0.047,0.032-0.091,0.061-0.142,0.096
							C137.239,165.478,137.187,165.479,137.032,165.525z"/>
						<path fill="#F9EF6B" d="M137.032,165.525c0.49-0.324,0.86-0.607,1.234-0.885c-0.591,0.364-1.135,0.711-1.6,1.021
							C136.797,165.605,136.933,165.557,137.032,165.525z"/>
						<path fill="#F9EF6B" d="M136.299,161.678c-0.003,0.285-1.758,1.461-3.075,3.183l-0.075-0.106
							c0.437-0.119,0.884-0.23,1.328-0.326c1.164-0.539,1.255-0.85,0.819-0.935c-0.219-0.048-0.569-0.043-0.992-0.011
							c-0.429-0.001-0.927,0.026-1.437,0.082c-0.003,0.009-0.006,0.017-0.016,0.027c0.36,0.511,0.841,1.191,1.368,1.939
							c-0.018-0.047-0.021-0.109,0.135-0.369c0.079-0.131,0.197-0.313,0.373-0.572c0.182-0.256,0.517-0.545,0.905-0.947
							c-0.161,0.107-0.467,0.341-0.831,0.619c-0.339,0.292-0.653,0.674-0.987,0.996c-0.292-0.414-0.584-0.828-0.841-1.192
							c1.131-0.269,2.006-0.437,0.931,0.014c-0.33,0.114-0.618,0.216-0.852,0.296c0.225,0.318,0.361,0.512,0.497,0.704
							c0.358-0.446,0.621-0.764,0.827-0.999c0.243-0.211,0.428-0.342,0.588-0.455c0.327-0.221,0.556-0.371,1.194-0.746
							c-0.634,0.311,0.131-0.44,1.072-1.168c0.921-0.746,1.97-1.49,1.535-1.479c0,0-0.645,0.409-1.267,0.854
							c-0.312,0.221-0.624,0.439-0.858,0.604c-0.236,0.161-0.379,0.29-0.379,0.29C136.169,161.951,137.039,161.254,136.299,161.678z
							"/>
						<path fill="#F9EF6B" d="M137.18,161.772l0.895-0.541c-1.053,0.552-1.843,0.917-3.289,1.336
							c-0.738,0.396-1.192,0.544-1.466,0.685c-0.274,0.133-0.372,0.205-0.417,0.258c0,0,0.289-0.09,0.723-0.224
							c0.437-0.11,1.009-0.352,1.583-0.592c1.144-0.493,2.265-1.128,2.265-1.128L137.18,161.772z"/>
						<path fill="#F9EF6B" d="M142.167,158.695c-0.603,0.661-2.728,2.125-1.25,1.502c2.434-1.553,1.925-1.396,3.028-2.186
							l1.143,1.542c-0.083,0.078-0.195,0.185-0.325,0.307c0.132-0.111,0.255-0.215,0.343-0.288l-1.172-1.582
							c-3.722,2.275,1.481-1.061-1.717,0.708c0.549-0.372,1.091-0.704,1.554-0.993l1.561,2.105
							c-0.295,0.249-0.542,0.457-0.785,0.662c0.285-0.219,0.565-0.434,0.818-0.627l-1.617-2.182c-0.54,0.291-1.04,0.563-1.521,0.822
							c0.043-0.02,0.073-0.033,0.108-0.05l0.02-0.014c0.001,0.001-0.003,0.005-0.002,0.007c0.21-0.092,0.284-0.114,0.056,0.002
							c-0.015,0.01-0.067,0.045-0.09,0.061C142.304,158.54,142.238,158.616,142.167,158.695c-1.295,0.752-0.233,0.07,0.149-0.203
							c0.009-0.019,0.037-0.049,0.034-0.063l-0.018,0.007c0,0-1.072,0.713-2.144,1.425c-1.06,0.707-2.114,1.37-2.114,1.37
							C139.008,160.73,140.117,160.017,142.167,158.695z"/>
						<path fill="#F9EF6B" d="M146.84,159.418c0.132-0.095,0.14-0.078,0.161-0.074C147.225,159.093,147.301,158.994,146.84,159.418z
							"/>
						<path fill="#F9EF6B" d="M145.629,159.707c0.271-0.209,0.464-0.438,1.326-0.965l0.425,0.518
							c-0.045,0.042-0.122,0.111-0.203,0.186c-0.843,0.691-0.076-0.088-0.178-0.102c-0.248,0.273-0.687,0.768-0.882,0.945
							c-0.091,0.1-0.104,0.143,0.027,0.08c0.134-0.059,0.41-0.229,0.86-0.63l0.253-0.283c0.056-0.049,0.112-0.099,0.172-0.149
							l2.963-2.574l-3.473,1.952c-1.786,1.005-3.982,2.091-3.713,1.866C143.829,160.422,144.358,160.268,145.629,159.707z"/>
						<path fill="#F9EF6B" d="M136.632,164.893c0,0,0.907-0.563,1.813-1.125c0.905-0.578,1.81-1.158,1.81-1.158l-1.98,0.947
							l0.159,0.051C136.313,164.793,136.844,164.656,136.632,164.893z"/>
						<path fill="#F9EF6B" d="M134.733,165.209l-0.085,0.496c0,0,0.24-0.431,0.48-0.861c0.342-0.428,0.684-0.854,0.684-0.854
							s-0.297,0.299-0.595,0.599C134.92,164.885,134.75,165.216,134.733,165.209z"/>
						<path fill="#F9EF6B" d="M138.674,162.092l-0.051,0.295c0,0,0.282-0.215,0.577-0.428c0.292-0.213,0.585-0.426,0.585-0.426
							L138.674,162.092z"/>
						<path fill="#F9EF6B" d="M95.873,159.227l-0.988,0.755C95.358,159.633,95.658,159.402,95.873,159.227z"/>
						<path fill="#F9EF6B" d="M95.908,156.425l-0.122,0.212C96.1,156.357,96.203,156.219,95.908,156.425z"/>
						<path fill="#F9EF6B" d="M125.412,159.016c1.732-0.579,3.754-1.213,3.44-1.344l-0.622,0.039
							C127.084,158.317,126.182,158.709,125.412,159.016z"/>
						<path fill="#F9EF6B" d="M99.866,161.648c-0.155,0.084-0.316,0.172-0.477,0.258c-0.297,0.346-0.577,0.663-0.799,0.968
							C98.95,162.487,99.383,162.063,99.866,161.648z"/>
						<path fill="#F9EF6B" d="M100.374,160.07c0,0,0.54-0.297,1.079-0.594c0.538-0.283,1.076-0.566,1.076-0.566
							C102.037,159.146,101.341,159.503,100.374,160.07z"/>
						<path fill="#F9EF6B" d="M89.563,156.021c-0.039-0.033,1.275-0.934,1.275-0.934c-1.121,0.537-1.392,0.74-1.412,0.818
							C89.4,155.979,89.613,155.918,89.563,156.021z"/>
						<path fill="#F9EF6B" d="M130.508,162.392c1.387-0.677,2.521-1.229,3.507-1.775
							C132.253,161.438,130.831,161.965,130.508,162.392z"/>
						<path fill="#F9EF6B" d="M97.494,155.121c-0.673,0.426-0.907,0.668-0.864,0.697C97.276,155.34,97.679,155.098,97.494,155.121z"
							/>
						<path fill="#F9EF6B" d="M138.02,157.936c-0.247,0.189-0.49,0.357-0.748,0.523c-0.97,0.783-1.996,1.46-3.257,2.157
							C135.307,160.004,136.817,159.178,138.02,157.936z"/>
						<path fill="#F9EF6B" d="M64.324,161.721c-0.123,0.055-0.267,0.119-0.378,0.169C63.925,161.938,64.088,161.853,64.324,161.721z
							"/>
						<path fill="#F9EF6B" d="M56.41,159.164c-0.147,0.105-0.327,0.234-0.612,0.439c-0.224-0.472-0.447-0.944-0.902-1.904
							c0.285-0.096,0.726-0.244,1.149-0.386c-0.236,0.063-0.577,0.168-1.152,0.376c0.165,0.347,0.538,1.135,0.911,1.922
							C55.939,159.512,56.16,159.35,56.41,159.164z"/>
						<path fill="#F9EF6B" d="M129.376,163.436C130.412,163.092,129.533,163.357,129.376,163.436L129.376,163.436z"/>
						<path fill="#F9EF6B" d="M134.799,162.181c-0.201,0.148-0.354,0.257-0.354,0.321
							C134.503,162.408,134.631,162.305,134.799,162.181z"/>
						<path fill="#F9EF6B" d="M130.56,158.925c-0.03,0.017-0.054,0.03-0.088,0.051C130.798,158.84,130.741,158.863,130.56,158.925z"
							/>
						<path fill="#F9EF6B" d="M130.976,163.012c-0.394,0.15-0.859,0.242-1.354,0.387
							C129.84,163.332,130.263,163.279,130.976,163.012z"/>
						<path fill="#F9EF6B" d="M130.728,162.99c0.357-0.138,0.638-0.246,0.905-0.348C131.746,162.552,131.623,162.574,130.728,162.99
							z"/>
						<path fill="#F9EF6B" d="M130.905,165.204c-0.181,0.209-0.264,0.418-0.394,0.595c-0.621-0.775-1.242-1.551-1.727-2.156
							c0.301-0.088,0.572-0.167,0.838-0.244c-0.209,0.049-0.299,0.063-0.246,0.037l-0.596,0.193l1.742,2.176
							C130.654,165.608,130.734,165.402,130.905,165.204z"/>
						<path fill="#F9EF6B" d="M75.488,159.355c0.068-0.039,0.146-0.084,0.221-0.127C76.635,158.465,76.212,158.777,75.488,159.355z"
							/>
						<path fill="#F9EF6B" d="M110.66,161.111c-0.042,0.047-0.064,0.073-0.102,0.115c0.047-0.04,0.104-0.097,0.149-0.128
							L110.66,161.111z"/>
						<path fill="#F9EF6B" d="M114.182,158.445c-1.338,1.204-2.291,1.713-3.475,2.653c0,0,0.412-0.123,0.809-0.217
							c0.403-0.083,0.793-0.151,0.793-0.151s0.456-0.594,0.936-1.162C113.714,159.006,114.182,158.445,114.182,158.445z"/>
						<path fill="#F9EF6B" d="M88.773,159.291l-2.603,1.431c2.915-2.265,4.789-3.521,2.517-2.288
							c0.029,0.271-0.888,0.999-2.251,1.917c-1.358,0.938-3.139,2.161-4.476,3.616l-5.477,5.959l7.326-3.172
							c0.953-0.413,1.806-0.794,2.411-1.123c0.58-0.369,0.932-0.654,0.937-0.813c0,0,0.471-0.201,0.942-0.401
							c0.471-0.202,0.914-0.441,0.913-0.441c-0.5,0.291-0.547,0.39-1.069,0.647c1.804-0.821,2.363-1.334,2.98-1.948
							c0.624-0.617,1.345-1.331,3.384-2.688c1.431-0.911,2.466-1.486,1.565-0.76c0,0,0.188-0.143,0.469-0.357
							c0.284-0.203,0.662-0.476,1.04-0.748c0.75-0.563,1.53-1.049,1.53-1.049c0.938-0.521,0.773-0.275-0.155,0.242
							c0.5-0.295,1-0.59,1.502-0.879l-1.397-2.088l-1.508,1.193l-1.589,1.139l0.023-0.043c-0.606,0.553-2.068,1.735-2.797,2.303
							c-1.297,0.734,0.576-0.48,0.207-0.346c0,0-0.648,0.488-1.297,0.975c-0.652,0.479-1.285,1.008-1.285,1.008
							c-1.207,0.622,0.898-1.15,2.787-2.327c-1.388,0.484-1.955,0.88-2.752,1.541c-0.401,0.334-0.87,0.724-1.507,1.253
							c-0.321,0.271-0.691,0.57-1.125,0.912c-0.417,0.373-0.897,0.789-1.46,1.26l-8.443,7.072l10.041-4.817
							c0.273-0.131,0.572-0.274,0.889-0.427l-0.851,0.508l-10.899,6.492l9.202-8.889c0.532-0.513,1.051-1.058,1.601-1.545
							c-0.613,0.32-1.2,0.789-1.843,1.305l-11.869,9.525l13.953-6.584c0.73-0.345,1.516-0.754,2.396-1.208
							c0.44-0.226,0.903-0.464,1.392-0.714c0.458-0.265,0.941-0.543,1.452-0.838c-0.192,0.086-0.676,0.334-1.248,0.625
							c-0.568,0.295-1.313,0.57-1.886,0.801c-1.168,0.449-1.824,0.605-0.292-0.355c0.457-0.225,0.989-0.489,1.596-0.846
							c0.572-0.386,1.226-0.856,1.976-1.446c0.169,0.213,1.685-0.872,3.551-2.126l0.066,0.389c0.495-0.359,0.85-0.633,1.122-0.853
							c0.277-0.191,0.47-0.341,0.635-0.478c0.332-0.273,0.554-0.494,1.131-0.907c0.566-0.304,1.031-0.536,1.413-0.712
							c-0.532-0.791-1.063-1.58-1.468-2.182c-1.091,0.771-1.508,0.896-2.012,1.023c-3.461,2.459,2.663-1.371-1.416,1.646
							c-1.526,0.961-2.871,1.83-4.23,2.852c-1.335,1.079-2.79,2.23-4.223,4.152c-0.052,0.051-0.1,0.1-0.116,0.115l-3.057,3.047
							l4.253-1.346c2.229-0.706-0.491,0.41,0.411,0.18l2.11-1.096c0.531-0.217,0.393-0.067,0.325,0.014
							c1.75-0.916,0.028-0.371,2.767-1.767c0.28-0.366,1.761-0.917,3.521-1.728c1.77-0.799,3.826-1.807,5.356-2.898
							c0.856-0.347-0.286,0.404,0.028,0.395c2.726-1.684,3.53-2.07,4.845-2.824c-0.255-0.363-0.508-0.723-1.085-1.545
							c-0.295,0.352-0.798,0.998-1.989,1.986c0,0-0.758,0.447-1.544,0.864c-0.795,0.417-1.591,0.833-1.591,0.833
							c1.201-0.57,1.119-0.35,0.44,0.234c-0.676,0.586-1.978,1.522-3.102,2.504c0.836-0.449,1.573-0.775,2.054-1.016
							c0,0-0.98,0.656-1.889,1.384c-0.926,0.714-1.694,1.554-1.695,1.554c-0.412,0.359-0.216-0.066,0.253-0.696
							c-0.209,0.245-0.419,0.462-0.555,0.655c-0.609,0.563-0.784,0.692-0.764,0.506c0.022-0.183,0.285-0.66,0.663-1.168
							c0.472-0.367,0.971-0.673,1.455-0.961c0.802-0.887,1.621-1.676,1.294-1.723c-0.238,0.212-0.728,0.563-1.254,0.982
							c0.219-0.234,0.353-0.398,0.213-0.34c-0.15,0.078-0.537,0.412-1.098,1.008c0,0-0.283,0.095-0.563,0.211
							c-0.28,0.127-0.56,0.254-0.56,0.254l-0.093,0.307c-0.705,0.682-1.358,1.471-1.849,2.408l-1.091,2.085l2.321-0.615l1.792-0.474
							l1.723-0.617c1.563-0.914,2.973-1.852,4.392-2.991c1.425-1.128,2.924-2.365,4.589-3.956c-0.094-0.102-0.188-0.204-0.285-0.311
							c-0.858,0.871-1.91,1.768-3.198,2.595c1.302-1.184,0.049-0.602-0.058-0.946c0.857-0.333,1.865-1.08,2.846-2.066
							c0.346,0.377,0.711,0.775,1.077,1.173c-1.215,1.128-2.67,2.378-4.311,3.419c1.623-1.061,1.367-0.689,0.991-0.359
							c1.207-0.898,2.339-1.893,3.497-2.854c-0.464-0.506-0.928-1.013-1.41-1.537c-0.474,0.441-0.881,0.938-1.429,1.346
							c-0.027-0.154-0.327-0.007-0.788,0.285c-0.48,0.285-1.143,0.691-1.892,1.093c0.686-0.087-0.262,0.576-1.666,1.556
							c-0.353,0.232-0.726,0.508-1.102,0.804c-0.379,0.288-0.771,0.573-1.117,0.925c-0.744,0.621-1.301,1.414-1.718,2l-1.192,1.677
							l1.91-0.649c0.038-0.012,0.064-0.021,0.091-0.031c0.057,0.038,0.055,0.093-0.058,0.174l-1.941,1.393l1.068-2.643
							c0.108-0.268,0.608-1.398,2.608-2.879c-0.716,0.375-1.233,0.91-1.694,1.334c-0.427,0.49-0.731,1.008-1.021,1.475l-1.552,2.503
							l2.561-1.059c1.307-0.54,2.372-1.163,4.277-1.881c-0.711,0.378-1.141,0.499-1.39,0.727c0.85-0.438,2.282-1.19,3.368-1.79
							c1.08-0.605,1.851-1.008,1.442-0.654l-0.677,0.418c1.655-0.961,3.799-2.436,5.953-3.739c2.147-1.331,4.389-2.311,6.058-2.715
							c-0.271-0.386-0.542-0.772-0.78-1.11c-0.611,1.106-1.38,1.742-1.442,1.983c-0.069-0.021,0.152-0.854,0.257-1.108
							c-0.774,1.109-1.995,2.111-3.14,3.156c-1.144,1.035-2.292,2.206-3.241,3.273c-0.019-0.143-0.038-0.285-0.018-0.258
							l0.115-0.244c-0.558,0.49,1.385,0.656,0.149,1.396l-1.773,1.061l0.812-2.379c0.128-0.377,0.436-1.039,1.166-1.77
							c-0.452,0.391-0.942,0.875-1.42,1.619l-1.608,2.501l2.89-0.745c0.46-0.119,0.977-0.26,1.563-0.436
							c0.586-0.174,1.248-0.367,1.953-0.686c-0.833,0.271-2.246,0.06-1.117-0.28c3.188-0.646,2.215-0.462,6.014-1.685
							c-1.2,0.458-0.168-0.728,1.664-1.559c-0.245,0.22,0.427,0.502-0.217,0.875c0,0,1.076-0.677,2.128-1.373
							c1.054-0.689,2.108-1.379,2.108-1.379c-1.07,0.648,0.037,0.578,1.116,0.25c-0.52,0.082,3.876-1.813,5.065-2.326l-1.974,0.672
							c0.874-0.35,1.586-0.666,2.185-0.957c-0.292-0.59-0.584-1.18-0.836-1.689c-2.721,1.766-3.206,2.6-7.39,4.604
							c0.549-0.409,1.167-1.474-1.452-0.263c-0.441,0.387-1.349,1.178-2.493,2.248c-1.13,1.063-2.536,2.439-3.531,4.059
							c-0.232-0.327-0.464-0.654-0.702-0.99c0.591-0.286,1.201-0.564,1.824-0.825c0,0.001,0.237-0.024,0.466-0.079
							s0.459-0.109,0.459-0.109s0.824-0.437,1.648-0.874c0.802-0.485,1.603-0.97,1.603-0.97c-1.033,0.875-3.213,2.548-5.719,3.773
							l-0.882,0.432l0.532-0.927c1.145-1.99,2.916-3.452,4.196-4.412c-0.977,0.493-1.129,0.56-1.396,0.681
							c-0.134,0.061-0.289,0.16-0.583,0.363c-0.297,0.193-0.727,0.512-1.383,1.076c-0.513,0.356-0.217-0.035,0.345-0.541
							c0.554-0.522,1.377-1.115,1.792-1.38c-1.415,0.896-2.837,1.921-4.026,3.432l-3.413,4.333l5.204-1.809
							c0.876-0.305,1.771-0.582,2.632-0.918c-0.236-0.114,1.095-0.773,2.352-1.512c1.258-0.744,2.467-1.527,2.258-1.6
							c-2.27,1.447-4.673,2.807-7.317,3.785l-0.5,0.186l-0.969-2.283l-0.02-0.047c0.013-0.002,0.023,0,0.005,0.036l1.476,2.083
							c-0.119-0.182,1-0.788,2.644-1.697c1.651-0.914,3.764-2.252,5.975-3.528c1.218-0.554-0.508,1.088-0.361,1.138
							c0.539-0.463,4.127-2.758,4.585-2.893l-1.789,1.281c2.146-1.14,3.374-2.33,5.678-3.316c-0.347-0.518-0.694-1.036-1.06-1.582
							c-0.348,0.277-0.731,0.564-1.153,0.854c-0.437,0.357-1.235,0.729-1.881,1.073c-0.688,0.312-1.251,0.584-1.281,0.732
							c1.827-0.604,2.929,0.265,1.961,1.251c-0.367,0.311-5.78,2.717-7.042,3.254c-0.933,0.369-0.408-0.186,0.173-0.766
							c0.587-0.555,1.222-1.121,0.403-0.833c-0.017,0.116-0.918,0.78-1.291,1.069c-0.574,0.297-0.503,0.16-0.584,0.135
							c-0.081-0.023-0.325,0.044-1.48,0.899c-0.029,0.104-0.199,0.276-0.439,0.477l-2.542,2.132l3.109-0.646
							c0.36-0.075,0.815-0.141,1.24-0.195c0.422-0.064,0.802-0.16,1.031-0.201c0.227-0.049,0.295-0.066,0.076-0.039
							c-0.223,0.006-0.714,0.143-1.647,0.16c1.387-0.236,2.098-0.442,2.871-0.646c0.774-0.202,1.598-0.467,3.066-1.145
							c-0.519,0.104,0.057-0.387,1.015-1.094c0.953-0.718,2.282-1.671,3.416-2.402c-0.088,0.164,0.499-0.03,0.781-0.128
							c3.229-1.862,5.554-3.003,8.305-3.753c-0.071-0.103-0.142-0.205-0.217-0.313c-0.801,1.045-1.886,1.966-3.247,2.882
							c-0.421,0.216-2.601,1.352-1.783,0.679c-0.594,0.43-1.121,0.869-2.508,1.639c-2.849,1.189,3.07-1.748,0.832-0.968
							c-0.043,0.306-3.512,2.162-5.284,3.69c0.388-0.078,1.466-0.834,2.759-1.615c1.286-0.791,2.739-1.674,3.679-2.291
							c0.123,0.203-0.614,0.896-1.966,1.873c-1.319,1-3.358,2.214-5.119,4.043c-0.014,0.013-0.027,0.025-0.037,0.035
							c-0.246-0.436-0.491-0.871-0.667-1.184c0.948-0.338,1.535-0.494,1.881-0.609c0.343-0.123,0.462-0.132,0.486-0.098
							c0.048,0.069-0.291,0.313,0.028,0.138c0.438-0.188,0.847-0.364,1.227-0.528c0.367-0.197,0.708-0.381,1.026-0.553
							c0.639-0.335,1.154-0.691,1.611-0.994c0.914-0.6,1.538-1.133,2.13-1.595c1.203-0.931,2.157-1.831,5.002-3.197l7.437-3.573
							l-6.322,5.146c-0.127,0.104-0.276,0.227-0.431,0.352c-2.353,1.509-0.467-0.381-1.086-0.162
							c0.336-0.273,0.631-0.559,0.918-0.818l0.639-0.576l-0.761,0.406c-2.414,1.287-3.92,2.074-5.673,3.162l2.534-1.426
							c-0.89,0.667-2.801,1.991-3.936,2.56c0.512-0.21,1.464-0.78,2.705-1.532c1.234-0.762,2.76-1.705,4.455-2.598l-0.092-0.131
							c-1.424,1.328-3.238,2.387-4.911,3.457c-1.684,1.057-3.265,2.131-4.367,3.307c-0.121,0.186-0.258,0.396-0.398,0.611
							c-0.123,0.225-0.232,0.461-0.335,0.668l-0.122,0.246l0.24-0.1c0.674-0.279,1.12-0.491,0.578-0.398
							c-0.209,0.071-0.418,0.143-0.628,0.209l0.104,0.131c0.2-0.375,0.423-0.736,0.69-1.073c0.819-0.689-0.172,0.44-0.44,1.202
							c-0.151-0.189-0.303-0.378-0.424-0.529c0.536-0.221,0.807-0.35-0.034-0.129c0.119,0.148,0.348,0.434,0.577,0.72
							c0.001,0.003,0.023-0.03,0.047-0.065l-0.036,0.07c-0.194-0.241-0.387-0.482-0.59-0.736c2.42-0.811,4.876-2.26,8.029-4.012
							l0.768-0.064c-0.117-0.032-2.153,1.066-3.009,1.635c1.275-0.805,5.077-2.481,6.232-3.813l-2.294,1.209
							c1.247-0.909,2.617-2.041,4.135-3.15l1.339,1.9c-1.072,0.863-2.241,1.646-3.429,2.284c0.732-0.231,0.894-0.343,1.15-0.507
							c0.258-0.182,0.604-0.328,1.74-0.889c-0.63,0.256-0.177-0.129,0.654-0.738l-1.558-2.209c-1.817,1.264-5.456,3.465-3.396,2.557
							c-2.233,0.891-3.555,2.062-6.41,3.046c0.126,0.038,1.057-0.22-1.354,0.788c-0.095,0.074-0.336,0.219-0.49,0.31
							c-0.075,0.026-0.102,0.036-0.166,0.06c0.05-0.016,0.088-0.027,0.138-0.043c-0.098,0.06-0.106,0.066,0.052-0.016
							c0.592-0.191,1.084-0.328,1.301-0.348c-0.306,0.203-0.829,0.474-1.453,0.774c-0.625,0.296-1.374,0.517-2.093,0.785
							c0.373,0.466,0.741,0.926,1.11,1.386c0.46-0.941,1.302-1.75,1.73-2.189c1.224-0.938-0.413,0.508,0.312,0.068
							c0,0,0.091-0.092,0.228-0.23c0.146-0.133,0.341-0.313,0.535-0.49c0.41-0.349,0.82-0.697,0.82-0.697
							c0.299,0.081,3.824-1.98,0.713,0.205l2.915-1.877c0.902-0.521,1.976-1.199,2.965-2.103l8.948-8.171l-10.787,5.576
							c-1.106,0.572-2.143,1.172-2.863,1.691c-1.458,0.832-3.352,2.438-2.267,1.516c0,0-0.279,0.187-0.697,0.466
							c-0.419,0.282-0.977,0.654-1.536,0.998c-0.558,0.359-1.118,0.703-1.545,0.93c-0.425,0.239-0.708,0.398-0.708,0.398
							l-0.07-0.034c-0.578,0.289-1.171,0.515-1.759,0.789c-0.596,0.229-1.205,0.41-1.814,0.631c0.419,0.744,0.844,1.498,1.269,2.251
							c1.279-1.305,2.998-2.415,4.865-3.456c1.871-1.061,3.907-2.016,5.987-3.363c0.856-0.708,1.734-1.48,2.615-2.699l2.355-3.256
							l-3.786,1.191c-0.954,0.301-2.06,0.66-3.306,1.205l-0.653,0.057c-2.196,1.096-6.316,3.27-7.043,3.918
							c-1.646,0.459-5.462,2.803-8.94,3.103c0.42,1.099,0.831,2.174,1.242,3.249c1.392-1.055,2.852-1.949,4.005-2.531l-0.007-0.322
							c1.211-0.657,2.43-1.319,3.713-2.081c1.275-0.794,2.649-1.648,4.042-2.925l-0.336-0.044c0.297-0.29,0.621-0.591,0.972-0.905
							l4.799-4.314l-5.924,2.637c-2.808,1.248-6.478,3.272-9.982,5.322c0.228-0.248,1.263-0.807,2.023-1.198
							c-2.944,1.38-5.752,3.181-8.737,4.24c0.459,0.648,0.915,1.292,1.371,1.937c0.577-0.861,1.42-1.633,2.314-2.289
							c0.895-0.661,1.868-1.205,2.845-1.637c1.046-0.68,1.89-1.051,2.712-1.385c-0.105,0.052-0.198,0.103-0.275,0.149
							c0.117-0.056,0.29-0.14,0.467-0.226c0.526-0.203,1.069-0.412,1.655-0.639c-0.512,0.172-0.991,0.348-1.402,0.518
							c0.878-0.431,2.222-1.088,3.531-1.789l0.689-0.033c0.107-0.057,0.195-0.103,0.307-0.162c1.365-0.576,0.999-0.647,0.207-0.475
							c0.653-0.377,1.243-0.752,1.683-1.082c0.206-0.037,0.436-0.119,0.691-0.236l-0.949-1.917
							c-0.646,0.199-1.431,0.587-2.227,0.946c-0.793,0.363-1.573,0.734-2.273,0.839c-0.831,0.622-6.568,3.403-7.079,4.12
							c-0.071-0.035-0.473,0.119,0.239-0.217c-0.747,0.327-1.498,0.635-2.227,0.928c-0.729,0.295-1.418,0.642-2.081,0.93
							l-0.759-0.093c0,0-0.196,0.101-0.49,0.253c-0.296,0.145-0.684,0.373-1.091,0.529c-0.813,0.345-1.625,0.689-1.625,0.689
							c-0.214,0.034-0.414,0.066-0.539,0.086c0.278,0.381,0.472,0.646,0.667,0.914c0.488-0.619,0.933-0.913,1.057-0.928
							c0.14-0.01-0.082,0.266-0.435,0.965c0.505-0.914,1.201-1.477,1.7-1.9c0.528-0.419,0.932-0.699,1.324-0.969
							c0.391-0.271,0.771-0.522,1.275-0.897c0.496-0.382,1.152-0.843,1.961-1.72l-0.023,0.322c0.473-0.43,1.009-1.041,1.398-1.774
							l0.8-1.509l-1.561,0.427c-1.247,0.341-2.425,0.811-3.032,0.964c-1.31,0.329-3.794,1.598-6.567,3.418
							c-2.787,1.762-6.05,4.019-9.599,4.842c0.342,0.49,0.683,0.978,1.022,1.465c1.514-2.066,4.041-3.385,6.204-4.636
							c-0.844,0.188-0.148-0.219,0.869-0.78c0.504-0.307,1.095-0.655,1.601-1.017c0.496-0.394,0.92-0.763,1.115-1.011l-1.402-1.527
							c-0.085,0.102-0.126,0.18-0.121,0.238c-0.501,0.209-1.5,0.916-0.485-0.09c-1.681,1.481-3.127,2.4-4.424,3.174
							c-1.292,0.795-2.458,1.426-3.755,2.282c-0.522,0.082,0.759-0.624,0.312-0.508c-0.153,0.091-0.452,0.284-0.776,0.448
							c-0.327,0.152-0.673,0.295-0.9,0.338c-0.446,0.071,0.548-0.342,1.146-0.699c-0.795,0.361-1.453,0.647-1.989,0.879
							c-0.54,0.203-0.959,0.387-1.289,0.553c0.599,0.719,1.101,1.322,1.603,1.925c0.276-0.949,0.283-1.296,0.153-1.626
							c1.626-1.534,2.626-2.127,3.886-3.324c0.785-0.316,2.015-0.919-0.397,0.677c0.522-0.347,1.935-1.167,3.508-2.104
							c1.568-0.932,3.25-2.123,4.126-3.125l3.363-3.844l-4.392,2.379c-0.639,0.346-1.03,0.594-1.03,0.684
							c-0.521,0.135-2.114,1.009-2.474,1.264c-3.312,1.735-3.589,1.912-6.77,3.675l0.915-0.427
							c-1.058,1.059-2.604,1.549-5.212,2.846l0.058-0.074c-0.849,0.338-1.515,0.603-2.048,0.814
							c-0.539,0.193-0.943,0.338-1.265,0.453c-0.64,0.236-0.941,0.375-1.314,0.531c0.232,0.33,0.482,0.686,0.732,1.041
							c0.428-0.451,0.838-1.211,3.237-2.904l-0.448,0.004c0.058-0.416,1.268-1.25,2.896-2.18c1.626-0.928,3.661-2.047,5.138-3.381
							c0,0-0.291,0.215-0.604,0.386c-0.308,0.179-0.616,0.356-0.616,0.356c0.604-0.5,1.426-1.097,2.357-1.697l4.864-3.135
							l-5.579,2.074c-0.878,0.326-1.814,0.674-2.685,0.997c-0.438,0.167-0.871,0.323-1.253,0.495
							c-0.368,0.186-0.705,0.367-0.995,0.545c-0.413,0.221,0.562-0.484,1.11-0.859c-4.898,2.799-0.439,0.703-3.858,3.059
							c-0.733,0.259,0.537-0.937-1.767,0.55c-0.325,0.142-0.896,0.63-1.665,1.087c-0.766,0.49-1.709,1.094-2.707,1.731
							c0.497,0.701,1.005,1.419,1.514,2.136c1.38-1.558,3.305-3.015,4.876-3.86c-0.766,0.337-1.535,0.675-0.017-0.474
							c1.799-1.264,4.911-2.776,7.055-4.594l-1.285-1.922c-0.773,0.455-1.458,0.904-1.977,1.334
							c-0.344,0.168-0.483,0.217-0.517,0.193c-1.918,1.312-5.956,4.327-6.957,5.23c-1.117,0.149-3.862,2.12-6.742,3.246
							c0.32,0.482,0.637,0.959,0.953,1.438c1.026-1.113,2.18-2.104,3.153-2.714c0.936-0.638,1.631-0.968,1.729-0.782
							c0,0,0.363-0.238,0.908-0.596c0.549-0.369,1.284-0.843,2.003-1.4c0.737-0.502,1.405-1.172,1.925-1.623
							c0.484-0.512,0.781-0.889,0.781-0.889l-0.063,0.208c0.23-0.267,0.45-0.52,0.638-0.735l4.639-5.354l-6.111,3.751
							c-3.254,1.997-4.334,2.937-5.466,3.843c-0.903,0.45-0.306,0.016-0.258-0.064c-2.331,1.334-3.849,1.902-5.094,2.512
							c0.385,0.586,0.744,1.131,1.102,1.676c0.718-0.645,1.322-1.242,2.035-1.94c0.779-0.629,1.604-1.442,2.827-2.387l0.62-0.06
							c0.252-0.201,0.791-0.536,1.53-0.975c0.751-0.406,1.743-0.801,2.83-1.309c-0.396-0.478-0.809-0.978-1.223-1.478
							c-0.826,1.089-2.055,2.212-3.454,3.235c-1.426,0.98-2.941,1.961-4.447,2.707c0.041-0.055,0.132-0.156,0.551-0.395
							c-1.346,0.756-2.933,1.343-4.526,1.65c0.396,0.522,0.795,1.049,1.194,1.574c0.778-1.451,2.617-2.588,4.273-3.574
							c1.688-1,3.35-1.936,4.574-3.09l-1.633-2.078c-1.04,0.781-1.813,1.441-2.19,1.979c0,0-0.947,0.684-1.894,1.366
							c-0.955,0.671-1.93,1.311-1.93,1.311c5.209-3.063-0.538,0.856,1.676-0.292c-2.006,1.334-5.548,2.707-2.98,1.309l0.427-0.172
							c0.337-0.498-1.311,0.403-3.109,1.19c-1.796,0.829-3.761,1.28-3.711,1.06c-0.383,0.102-0.75,0.111-1.12,0.164
							c0.221,0.532,0.438,1.057,0.655,1.581c3.791-3.413,8.037-6.22,12.203-9.072l-1.011-1.766
							c-2.648,1.217-4.877,2.827-7.139,4.229c-2.238,1.392-4.534,2.687-6.825,3.06c0.308,0.719,0.608,1.42,0.908,2.12
							c0.585-0.403,1.156-0.796,1.726-1.188l-1.297,0.4l3.204-2.193c0.892-0.502,1.303-0.514-0.974,1.047
							c1.328-0.635,3.686-2.805,3.722-2.92c4.675-2.891-1.532,1.583-0.114,0.664l1.891-1.29l-0.458,0.245
							c1.456-1.164,1.493-1.402,4.316-3.244c0.301-0.184,0.532-0.316,0.691-0.4l7.984-4.24l-8.828,2.533
							c-1.04,0.299-0.49-0.039-1.178,0.207c-0.005-0.029-0.288,0.063-1.261,0.467c0,0-0.075,0.029-0.207,0.08
							c-0.126,0.06-0.306,0.146-0.522,0.248c-0.432,0.207-1.008,0.482-1.584,0.759c-0.577,0.274-1.108,0.604-1.527,0.827
							c-0.413,0.23-0.688,0.383-0.688,0.383l1.908-0.707c-1.876,1.215-4.053,2.355-1.911,1.484c-1.92,0.67-6.928,4.201-11.495,5.859
							c0.297,0.518,0.584,1.019,0.871,1.52c2.626-2.171,5.169-3.852,5.876-4.311c1.721-1.462,3.516-2.85,5.267-4.776l3.742-4.12
							l-4.697,3.057c-0.753,0.49-1.543,1.004-2.377,1.547c0.408-0.212,0.765-0.332,0.696-0.169
							c-0.064,0.169-0.583,0.591-1.988,1.372c0.314-0.622-0.973,0.066-2.717,0.912c-1.733,0.862-3.916,1.916-5.206,2.271
							c1.125-0.369-0.918,0.684-2.798,1.729c-1.87,1.077-3.56,2.12-1.823,1.425c-2.38,1.33-0.291-0.177-2.156,0.769
							c-0.391,0.267-0.787,0.538-1.197,0.817c0.451,0.469,0.924,0.96,1.396,1.451c1.384-1.974,3.648-3.668,6.09-5.195
							c2.46-1.541,5.171-2.938,7.933-4.443c-0.385-0.674-0.776-1.358-1.168-2.043c-0.87,0.523-1.745,1.049-2.623,1.577
							c-0.056,0.147,1.162-0.401-0.224,0.595c0,0-0.962,0.418-1.924,0.836c-0.96,0.417-1.921,0.822-1.921,0.822
							c-1.339,0.747-0.97,1.219-3.647,2.158c0.395-0.09,0.991-0.226,0.065,0.233c-0.882,0.378-1.766,0.756-2.652,1.136l1.025,1.328
							c1.982-2.418,4.936-4.15,7.736-6.152l-1.184-1.479c-1.315,1.182-2.67,2.313-4.111,3.287c-1.437,0.963-2.986,1.787-4.567,2.102
							l0.88,1.395c1.128-1.599,2.94-2.8,4.518-4.486l5.372-5.744l-6.507,4.431c-1.961,1.335-3.916,2.608-6.043,3.154l1.188,1.034
							c0.066-0.445,0.77-1.148,1.529-1.7c0.771-0.594,1.636-1.103,2.529-1.911l5.145-4.656l-6.416,2.854
							c-1.231,0.549-2.389,1.193-3.46,1.608c1.882-0.735,0.688-0.067-0.679,0.547c0.911-0.343,0.075,0.247,0.301,0.298
							c-0.462,0.121-0.925,0.242-1.381,0.392c0.22,0.459,0.44,0.919,0.654,1.37l4.28-2.623c0.217-0.273,0.754-0.705,1.443-1.214
							l-1.034-1.491c-0.771,0.51-1.709,1.091-2.559,1.542c-0.851,0.474-1.625,0.728-2.055,0.958c0.405,0.554,0.64,0.875,0.876,1.197
							c0.092-0.143,0.141-0.25,0.151-0.322c-0.073,0.093-0.146,0.186-0.223,0.277l-0.783-1.072c0.475-0.211,0.958-0.343,1.421-0.604
							c-1.12,0.683-0.201,0.623,1.048,0.25c1.234-0.382,2.707-1.01,2.672-0.669c0.089-0.072,0.179-0.146,0.274-0.224
							c-0.242-0.349-0.484-0.698-0.751-1.083c-1.341,1.177-3.45,2.307-5.782,3.767l-3.787,2.369l4.518-0.828
							c2.171-0.398,3.989-1.674,5.617-2.76c0.015-0.006,0.029-0.012,0.03-0.01c-0.333-0.473-0.664-0.941-0.833-1.182
							c-0.363,0.271-0.249,0.106-0.097-0.096c0.302,0.428,0.645,0.914,0.988,1.4c-0.243,0.179-0.553,0.395-0.264,0.314
							c0.096-0.071,0.193-0.145,0.306-0.228c-0.341-0.482-0.681-0.965-1.098-1.556c-0.297,0.419-0.788,0.866-1.468,1.401
							c-0.339,0.271-0.728,0.563-1.164,0.929c-0.43,0.375-0.934,0.789-1.385,1.527c0,0,0.169-0.4,0.176-0.389
							c-0.294,0.41-0.51,0.945-0.568,1.367l-0.19,1.399l1.327-0.409c2.87-0.883,4.775-2.275,6.576-3.418
							c-0.415-0.48-0.83-0.961-1.242-1.437c-1.324,1.409-3.111,2.448-4.788,4.559l-1.755,2.209l2.848-0.476
							c1.98-0.33,3.929-1.293,5.97-2.666l-0.728,0.184c1.696-1.128,2.058-1.353,2.839-1.894c0.752-0.901-0.311,0.024-1.473,0.886
							c-1.164,0.863-2.453,1.612-1.667,0.863c0.952-0.371,2.809-1.658,4.655-3.309l-1.193-1.49c-1.657,1.15-3.541,2.396-5.063,3.571
							c-1.539,1.151-2.66,2.317-3.196,2.688c-0.051,0.061-0.098,0.119-0.112,0.135l-3.664,4.404l5.204-2.409
							c2.5-1.157-1.022,0.13,1.72-1.123l0.815-0.191l0.615-0.519c1.798-0.893,2.781-1.205,2.919-1.113
							c-0.439,0.217-1.207,0.691-1.664,0.951c2.44-1.02,6.359-3.668,7.137-4.059l-2.563,1.393c1.394-0.847,2.847-1.729,4.346-2.639
							l-1.22-2.133c-2.514,1.402-5.19,2.84-7.742,4.494c-2.533,1.67-5.033,3.495-6.851,5.981l-3.553,4.858l5.09-3.262
							c1.034-0.663,1.977-1.377,2.973-1.964l-0.583,0.185c5.147-3.152,4.309-2.136,10.209-5.332l-0.202,0.142
							c0.566-0.374,1.238-0.788,1.973-1.215c0.726-0.448,1.507-0.927,2.312-1.386c-0.705,0.484,0.041,0.172,0.699-0.184
							c0.66-0.35,1.271-0.663,0.367,0.033c0.684-0.492,1.241-0.893,1.696-1.219c-0.611-0.681-1.221-1.359-1.511-1.684
							c-1.189,1.37-1.521,1.664-1.786,2.001c-0.266,0.341-0.509,0.694-1.885,2.005l-0.926,0.422
							c-1.081,1.028-1.142,1.148-3.817,3.172c2.113-1.793-1.921,1.029,0.432-1.01c-0.581,0.371-1.126,0.744-1.641,1.101
							c-0.501,0.39-0.977,0.759-1.428,1.109l-6.499,5.051l7.583-3.161c1.108-0.463,2.135-0.838,2.979-1.317
							c0.843-0.48,1.631-0.882,2.301-1.317c1.371-0.84,2.515-1.52,3.757-1.979c1.222-1.087-0.112-0.363-1.573,0.508
							c-1.472,0.857-3.107,1.821-2.344,1.314c-1.407,0.595,2.117-1.699,3.995-2.827c0.96-0.563,1.854-0.942,3.131-1.438
							c0.64-0.241,1.347-0.596,2.235-0.926c0.44-0.178,0.915-0.379,1.433-0.61c0.522-0.216,1.106-0.397,1.732-0.646
							c-0.502,0.188-0.521,0.242-1.02,0.428c0.625-0.186,1.22-0.415,1.825-0.666c-0.336-0.679-0.671-1.357-1.013-2.047
							c-1.167,0.818-2.346,1.726-3.889,2.552c-1.008,1.089-2.797,1.813-2.898,2.442c0,0,0.264-0.189,0.66-0.473
							c0.397-0.274,0.926-0.641,1.456-1.006c1.059-0.73,2.117-1.461,2.117-1.461c-1.184,0.852-2.274,1.764-3.59,2.77
							c-1.307,1.044-2.825,2.18-4.889,3.459c0.256-0.287,1.373-1.205,2.152-1.826c-1.245,0.703-2.196,1.63-3.487,2.362
							c0.077-0.571,5.148-3.747,7.561-5.722c-1.357,0.633-4.751,3.639-3.71,2.324c-0.982,1.156-2.602,2.111-4.409,3.33l-5.113,3.447
							l5.998-1.381c0.654-0.15,1.34-0.316,2.027-0.527c0.636-0.289,1.291-0.6,1.919-0.971c0.005,0.006-0.128,0.351-0.128,0.351
							c0.294-0.141,0.686-0.426,1.159-0.711c0.472-0.288,0.997-0.605,1.472-0.909c0,0-0.379,0.354-0.803,0.677
							c-0.425,0.325-0.849,0.65-0.849,0.65c2.723-1.77,5.33-3.057,7.692-4.653c-2.549,1.578-2.891,1.771-2.864,1.607
							c0.021-0.139,0.414-0.554-0.743,0.088c3.519-2.603,4.357-2.652,5.692-3.093c-0.422-0.738-0.845-1.476-1.295-2.263
							c-1.015,0.511-2.335,1.191-5.317,3.412c0.928-0.723,3.657-2.408,2.243-1.258c-1.361,0.918-3.196,2.066-4.08,2.59
							c-4.544,3.545,0.869-0.318-0.979,1.3c-1.767,0.905-2.111,1.891-3.962,3.566l-2.272,2.058l2.945-0.432l0.021-0.002l0.035,0.268
							c1.878-0.133,2.766-0.539,3.32-0.748c0.537-0.24,0.708-0.369,0.85-0.503c0.271-0.287,0.525-0.427,3.215-1.675
							c0,0-0.519,0.367-1.037,0.735c-0.537,0.354-1.073,0.707-1.073,0.707s0.711-0.344,1.397-0.715
							c0.69-0.366,1.358-0.76,1.358-0.76l-0.421,0.577c2.873-1.817,3.763-2.332,6.555-4.052c-0.663,0.231-0.064-0.458,1.758-1.784
							c-0.346-0.441-0.691-0.881-1.066-1.357c-0.181,0.154-0.369,0.333-0.602,0.506c-0.784,0.491-0.629,0.272-0.637,0.24
							c-0.027-0.041-0.182,0.1-1.869,1.184c0.664-0.639,1.434-1.301,2.795-2.112c0.008-0.02,0.021-0.044,0.066-0.095
							c0.199,0.254,0.841,1.072,1.521,1.938c-0.135,0.187-0.578,0.579-0.672,0.737c0.266-0.15,0.544-0.318,0.835-0.501
							c-0.609-0.776-1.219-1.552-1.876-2.39c-1.339,1.061-3.515,2.402-4.589,3.125c0.496-0.309,1.083-0.658,1.396-0.809
							c0,0-1.208,0.834-2.424,1.807c-0.606,0.48-1.198,1.016-1.618,1.463c-0.426,0.436-0.676,0.783-0.676,0.783
							c-0.751,0.774-0.309,0.029,0.224-0.633c-0.556,0.609-0.972,1.183-1.362,2.049l-1.102,2.445l2.404-0.726
							c0.489-0.147,1.064-0.314,1.797-0.507c-0.339,0.268-0.276,0.447-1.725,0.918l-3.285,1.067l1.533-3.379
							c0.152-0.336,0.368-0.797,0.712-1.262c-0.276,0.374-0.515,0.806-0.731,1.253l-1.554,3.213l3.33-0.866
							c1.645-0.428,3.173-0.989,4.57-1.74c0.193-0.05,0.932-0.278,1.495-0.532c0.567-0.244,1.01-0.424,0.692-0.197
							c0.542-0.272,1.117-0.594,1.681-1.008c0.574-0.396,1.175-0.816,1.748-1.344c0.29-0.253,0.585-0.511,0.884-0.772
							c0.28-0.296,0.564-0.596,0.851-0.898c0.591-0.558,1.087-1.353,1.615-2.058l4.067-5.434l-5.932,3.18
							c-1.055,0.565-2.172,1.06-3.194,1.602c-0.167,0.154-0.525,0.426-1.279,0.936c-2.25,1.352-4.218,2.76-6.269,4.646l-7.367,6.777
							l9.074-4.181c0.657-0.303,1.329-0.623,2.019-0.969c0.343-0.174,0.698-0.347,1.045-0.541c0.33-0.213,0.666-0.432,1.011-0.654
							c0,0,0.631-0.248,1.262-0.498c0.645-0.244,1.243-0.517,1.243-0.517c3.021-2.009-3.267,1.47,1.755-1.87
							c3.492-2.329,1.504-0.542,2.806-1.226c0.039-0.03,0.079-0.06,0.127-0.097c-0.665-0.723-1.33-1.447-2.157-2.347
							c-0.266,0.358-0.528,0.813-0.916,1.29c-0.44,0.447-0.878,0.98-1.509,1.455c-1.177,1.004-2.753,1.939-4.457,2.908
							C86.91,160.436,87.821,159.972,88.773,159.291z M90.074,164.205c-0.482,0.311-1.267,0.846-1.935,1.23l-9.682,5.592
							l8.126-7.786c0.316-0.303,0.608-0.552,0.82-0.671c-0.195,0.33-0.404,0.594-0.647,0.843l-6.512,6.677l7.79-4.873
							C88.566,164.883,89.189,164.631,90.074,164.205z M97.935,165.604c-0.335,0.155-0.793,0.306-1.334,0.451l-1.443,0.386
							l0.734-1.238c0.233-0.394,0.488-0.842,0.852-1.227c-0.276,0.365-0.504,0.805-0.762,1.268l-0.584,1.05l1.179-0.335
							C97.001,165.838,97.454,165.719,97.935,165.604z M139.469,158.535c0.026-0.029,0.045-0.051,0.067-0.076
							c0.208-0.169,0.381-0.309,0.522-0.422l8.813-7.123l-10.335,4.977c-0.819,0.395-0.631,0.305-0.003-0.008l10.304-5.119
							l-8.773,7.279C139.897,158.182,139.694,158.35,139.469,158.535z M136.02,160.833c-0.319,0.251-0.273,0.266-0.111,0.206
							c0.198-0.211,0.954-0.688,1.835-1.273C137.462,159.873,136.995,160.137,136.02,160.833z M83.166,153.391l0.779-0.22
							C82.272,153.887,82.723,153.643,83.166,153.391z"/>
						<path fill="#F9EF6B" d="M100.289,160.27c0.233-0.104,0.318-0.098,0.395-0.086C100.949,159.965,100.926,159.905,100.289,160.27
							z"/>
						<path fill="#F9EF6B" d="M89.347,156.209l0.121-0.07c0.057-0.055,0.084-0.092,0.096-0.117L89.347,156.209z"/>
						<path fill="#F9EF6B" d="M120.475,161.242c0.74-0.412,1.17-0.59,1.464-0.692C121.947,160.48,121.584,160.577,120.475,161.242z"
							/>
						<path fill="#F9EF6B" d="M139.671,157.949l-2.076,1.422c1.016-0.668,1.412-0.85,1.953-1.15
							C139.465,158.199,139.012,158.389,139.671,157.949z"/>
						<path fill="#F9EF6B" d="M138.431,162.547c0.308-0.211,0.685-0.393,0.979-0.617l-0.151-0.055
							C137.901,162.684,136.976,163.307,138.431,162.547z"/>
						<path fill="#F9EF6B" d="M142.133,157.404c0.146,0.039,0.535-0.172,1.071-0.52l0.687,0.975
							c-0.551,0.373-1.245,0.932-2.019,1.413l0.272-0.169c-0.225,0.439,0.723-0.148,1.879-1.07l-0.938-1.331
							C142.783,156.926,142.458,157.164,142.133,157.404z"/>
						<path fill="#F9EF6B" d="M141.52,159.5c-0.468,0.31-0.953,0.588-1.423,0.855C139.981,160.568,140.69,160.047,141.52,159.5z"/>
						<path fill="#F9EF6B" d="M132.101,163.731c-0.62,0.457-0.154,0.532-0.53,0.745c-0.188,0.381,0.595-0.516,1.255-1.131
							c0.315-0.31,0.569-0.551,0.511-0.553C133.285,162.794,132.894,163.026,132.101,163.731z"/>
						<polygon fill="#F9EF6B" points="143.311,157.539 143.602,157.48 143.472,157.297 143.064,157.354 142.353,158.093 
							143.524,157.377 143.539,157.397 						"/>
						<path fill="#F9EF6B" d="M131.513,164.1c0,0,0.662-0.25,1.325-0.502c0.646-0.293,1.292-0.587,1.292-0.587
							c-0.06-0.024,0.252-0.206,0.637-0.423c-0.789,0.373-1.603,0.795-2.241,1.049C131.891,163.893,131.467,164.074,131.513,164.1z"
							/>
						<path fill="#F9EF6B" d="M134.768,162.588c0.796-0.441,1.556-0.859,1.967-1.16
							C136.314,161.686,135.388,162.198,134.768,162.588z"/>
						<path fill="#F9EF6B" d="M140.543,159.452l-0.739,0.41c0,0-0.426,0.269-0.853,0.536c-0.429,0.263-0.858,0.525-0.858,0.525
							s0.62-0.355,1.229-0.729C139.933,159.823,140.543,159.452,140.543,159.452z"/>
						<path fill="#F9EF6B" d="M125.723,163.974c-0.102,0.036-0.204,0.071-0.307,0.104l0.242,0.43
							c0.643-0.641,1.339-1.238,2.092-1.771c0.215-0.248-0.546,0.145-1.415,0.909c-0.247,0.243-0.542,0.563-0.752,0.785
							c-0.053-0.095-0.106-0.188-0.14-0.249C125.788,164.041,125.976,163.945,125.723,163.974z"/>
						<path fill="#F9EF6B" d="M134.449,160.462c-0.747,0.399-0.828,0.376-1.28,0.55l0.103,0.348L134.449,160.462z"/>
						<path fill="#F9EF6B" d="M126.279,164.691c-0.063,0.043-0.318,0.15-0.638,0.278l-2.565,1.03l1.936-2.146
							c0.393-0.437,0.945-0.98,1.119-1.143c0.177-0.155-0.107-0.064-1.247,1.013l-2.682,2.534l3.483-1.111
							c0.023-0.008,0.057-0.019,0.092-0.029C126.08,164.924,129.132,163.871,126.279,164.691z"/>
						<polygon fill="#F9EF6B" points="125.179,159.713 124.485,160.092 124.857,160.541 						"/>
						<path fill="#F9EF6B" d="M126.705,155.17c-3.356,1.455-0.622,0.686-3.713,1.969c-0.726,0.492,2.533-1.049,1.776-0.559
							C126.721,155.504,127.771,155.064,126.705,155.17z"/>
						<path fill="#F9EF6B" d="M124.768,156.58c-0.311,0.176-0.64,0.363-0.992,0.564C124.345,156.835,124.608,156.682,124.768,156.58
							z"/>
						<path fill="#F9EF6B" d="M57.91,154.943c0,0-0.127,0.074-0.313,0.148c-0.186,0.079-0.434,0.186-0.682,0.291
							c-0.498,0.237-0.969,0.303-0.97,0.326c0,0,0.322-0.063,0.644-0.125c0.333-0.111,0.665-0.221,0.665-0.221
							S57.909,154.963,57.91,154.943z"/>
						<path fill="#F9EF6B" d="M57.646,156.833c0.005-0.005,0.143-0.009,0.322-0.046c0.173-0.033,0.346-0.066,0.346-0.066
							c0.002-0.019,0.226-0.281,0.46-0.677c0.219-0.384,0.438-0.769,0.438-0.769c-0.198,0.242-0.503,0.651-0.804,0.941
							C58.118,156.479,57.795,156.75,57.646,156.833z"/>
						<path fill="#F9EF6B" d="M96.127,161.238l0.099-0.171c-0.356,0.122-0.799,0.405-1.759,1.025L96.127,161.238z"/>
						<polygon fill="#F9EF6B" points="93.625,161.209 94.086,160.898 93.044,161.219 						"/>
						<path fill="#F9EF6B" d="M93.264,159.535c0.594-0.361,1.235-0.793,1.862-1.205c-0.929-1.012-1.859-2.022-2.751-2.994
							c-0.223,0.262-0.44,0.518-0.646,0.759c0.225-0.284,0.448-0.53,0.662-0.747c0.955,1.039,1.84,2.002,2.725,2.966
							C93.732,159.105,92.884,159.378,93.264,159.535z"/>
					</g>
				</g>
			</g>
		</g>
	</g>
</g>
<g id="Tech_ROs_List">
</g>
<g id="How_my_pay_works">
</g>
<g id="Pay_Calc" display="none">
</g>
<g id="Admin-Main">
	<path fill="none" stroke="#000000" stroke-miterlimit="10" d="M39.856,42.75c123.254,0,246.231-2,369.321-2
		c32.514,0,65.121,0.353,97.539,0.668c8.871,0.086,17.59,0.686,26.486,0.666c4.732-0.011,9.307,0.436,14.004,0.682
		c3.246,0.17,10.984,0.819,10.65-0.016"/>
	<path fill="none" stroke="#000000" stroke-miterlimit="10" d="M37.001,75.001c153.537,0,307.09-2.667,460.579-2.667
		c19.788,0,39.638-0.434,59.42,0.05c-1.339-0.206-2.671-0.444-3.998-0.716"/>
	<path fill="none" stroke="#000000" stroke-miterlimit="10" d="M55.112,74.085c0,209.45,2.666,418.925,2.666,628.31
		c0,26.996,0.435,54.074-0.049,81.06c0.205-1.825,0.444-3.643,0.716-5.454"/>
	<path fill="none" stroke="#000000" stroke-miterlimit="10" d="M168,261.223c0,47.715,0.525,95.435,0.525,143.135
		c0,6.15,0.457,12.319-0.051,18.468c0.215-0.417,0.467-0.831,0.752-1.243"/>
	<path fill="none" stroke="#000000" stroke-miterlimit="10" d="M300.538,258.481c0,47.715,0.386,98.176,0.386,145.876
		c0,6.15,0.457,12.319-0.051,18.468c0.215-0.417,0.467-0.831,0.752-1.243"/>
	<path fill="none" stroke="#000000" stroke-miterlimit="10" d="M144.692,73.334c0,209.451,2.666,418.925,2.666,628.31
		c0,26.996,0.435,54.074-0.049,81.06c0.205-1.825,0.444-3.643,0.716-5.454"/>
	<path fill="none" stroke="#000000" stroke-miterlimit="10" d="M85,10.5c-0.151,6.392-1,13.24-1,20c0,3.113-0.309,6.403,0,9.5
		c0.202,2.028,0.836,6.774,1.5,6"/>
	<path fill="none" stroke="#000000" stroke-miterlimit="10" d="M167.878,157.909c-0.151,6.392-0.565,9.165-0.495,15.925
		c0.029,2.695,0.098,3.334,0.341,5.474c0.186,1.63-0.062,2.536-0.001,3.648"/>
	<path fill="none" stroke="#000000" stroke-miterlimit="10" d="M538.335,156.243c-0.15,6.392-0.564,9.165-0.494,15.925
		c0.028,2.695,0.097,3.334,0.34,5.474c0.186,1.63-0.062,2.536,0,3.648"/>
	<path fill="none" stroke="#000000" stroke-miterlimit="10" d="M96.5,9.5c0,10.486-2.166,26.379,1.5,35"/>
	<path fill="none" stroke="#000000" stroke-miterlimit="10" d="M85,46.5c1.075-2.29,3.267-5.721,5.5-6.5"/>
	<path fill="none" stroke="#000000" stroke-miterlimit="10" d="M90,39.5c3.481,0.598,6.767,3.123,9,7"/>
	<path fill="none" stroke="#000000" stroke-width="0.7262" stroke-miterlimit="10" d="M55.112,79.499
		c29.931,0,59.852,0.5,89.884,0.5c-0.745,0-1.489,0-2.235,0"/>
	<path fill="none" stroke="#000000" stroke-width="0.7262" stroke-miterlimit="10" d="M55.112,94.859
		c29.931,0,59.852,0.5,89.884,0.5c-0.745,0-1.489,0-2.235,0"/>
	<path fill="none" stroke="#000000" stroke-width="0.7262" stroke-miterlimit="10" d="M55.112,151.105
		c29.931,0,59.852,0.5,89.884,0.5c-0.745,0-1.489,0-2.235,0"/>
	<path fill="none" stroke="#000000" stroke-width="0.7262" stroke-miterlimit="10" d="M55.112,166.466
		c29.931,0,59.852,0.5,89.884,0.5c-0.745,0-1.489,0-2.235,0"/>
	<text transform="matrix(1 0 0 1 60.5 90.5)" font-family="'Journal'" font-size="10">your dashboard</text>
	<text transform="matrix(1 0 0 1 169 109.5)" font-family="'Journal'" font-size="14">Admin SEttings</text>
	<text transform="matrix(1 0 0 1 60.5 161)" font-family="'Journal'" font-size="10">Team Pay</text>
	<text transform="matrix(1 0 0 1 66.5 104.5)" font-family="'Journal'" font-size="10">Logout</text>
	
		<text transform="matrix(1 0 0 1 66.5 177.8057)" fill="#F9EF6B" stroke="#F9EF6B" stroke-width="0.25" stroke-miterlimit="10" font-family="'Journal'" font-size="10">Admin Settings</text>
	<text transform="matrix(1 0 0 1 66.5 190.9688)" font-family="'Journal'" font-size="10">All pay-period ROs</text>
	<text transform="matrix(1 0 0 1 65.4849 204.6201)" font-family="'Journal'" font-size="10">How the pay-scale works</text>
	<text transform="matrix(1 0 0 1 66.5 115.8359)" font-family="'Journal'" font-size="10">Checkout</text>
	<path fill="none" stroke="#000000" stroke-width="0.7262" stroke-miterlimit="10" d="M145.333,151.789
		c-0.268,0.279,2.441,1.867,3.602,3.008c1.246,1.227,2.566,2.746,3.121,4.27c0.422-0.039,0.451,0.131,0.611,0.39"/>
	<path fill="none" stroke="#000000" stroke-width="0.7262" stroke-miterlimit="10" d="M145,166.789
		c2.589-2.248,4.582-5.855,7.333-7.666"/>
	<path fill="none" stroke="#000000" stroke-miterlimit="10" d="M60,17.5c0.386,4.41-2.454,17.334-5.5,19.5"/>
	<path fill="none" stroke="#000000" stroke-miterlimit="10" d="M57.5,20c3.374-1.643,6.955-3.002,10.413-3.436
		c1.245,5.459-5.402,9.801-9.91,8.584c0.482-0.252,0.982-0.468,1.497-0.648"/>
	<path fill="none" stroke="#000000" stroke-miterlimit="10" d="M59.5,24.5c4.218-0.973,5.219,1.907,7.611,4.5
		c3.261,3.533,6.511,5.537,11.389,6"/>
	<path fill="none" stroke="#000000" stroke-miterlimit="10" d="M167.5,158.373c1.981,0.921,5.511,0.5,8.077,0.5
		c11.334,0,22.639-0.521,33.959-0.498c21.567,0.041,43.362-0.198,64.914-1.113c41.705-1.77,83.631-0.889,125.399-0.889
		c29.243,0,58.551,0.719,87.639,1c13.864,0.134,28.47,0.838,42.012-0.5c2.243-0.222,4.477-0.702,6.828-0.611
		c-1.516-0.464-3.237-0.602-4.828-0.389"/>
	<path fill="none" stroke="#000000" stroke-miterlimit="10" d="M167.5,182.124c1.981,0.921,5.511,0.5,8.077,0.5
		c11.334,0,22.639-0.521,33.959-0.498c21.567,0.041,43.362-0.198,64.914-1.113c41.705-1.77,83.631-0.889,125.399-0.889
		c29.243,0,58.551,0.719,87.639,1c13.864,0.134,28.47,0.838,42.012-0.5c2.243-0.222,4.477-0.702,6.828-0.611
		c-1.516-0.464-3.237-0.602-4.828-0.389"/>
	<text transform="matrix(1 0 0 1 168.25 121.5488)" font-family="'Journal'" font-size="12">Team / Employee assignments</text>
	<text transform="matrix(1 0 0 1 168.25 148.0488)" font-family="'Journal'" font-size="12">Unassigned Techs</text>
	<text transform="matrix(1 0 0 1 168.25 244.4561)" font-family="'Journal'" font-size="12">Main Shop Teams</text>
	<text transform="matrix(1 0 0 1 175.9771 296.3252)" font-family="'Journal'" font-size="11.5716">John T - Lead</text>
	<text transform="matrix(1 0 0 1 174.25 173.207)" font-family="'Journal'" font-size="12">Ben Dover</text>
	<text transform="matrix(1 0 0 1 174.5742 273.1729)" font-family="'Journal'" font-size="12.6235">Team 1 - J. Tarrow</text>
	<text transform="matrix(1 0 0 1 174.5742 409.2715)" font-family="'Journal'" font-size="12.6235">Gross Pool</text>
	<text transform="matrix(1 0 0 1 242.1792 407.7715)" opacity="0.5" font-family="'Journal'" font-size="12.6235">17.2%</text>
	<text transform="matrix(1 0 0 1 257.1465 297.3252)" opacity="0.5" font-family="'Journal'" font-size="11">34%</text>
	<text transform="matrix(1 0 0 1 256.5083 319.1904)" opacity="0.5" font-family="'Journal'" font-size="11">22%</text>
	<text transform="matrix(1 0 0 1 256.5083 342.0244)" opacity="0.5" font-family="'Journal'" font-size="11">22%</text>
	<text transform="matrix(1 0 0 1 256.5083 364.9219)" opacity="0.5" font-family="'Journal'" font-size="11">22%</text>
	<g>
		<text transform="matrix(1 0 0 1 531.7891 28.3066)" font-family="'MyriadPro-Regular'" font-size="9">Admin pages</text>
	</g>
	<text transform="matrix(1 0 0 1 488.7324 171.6953)" font-family="'Journal'" font-size="11.8941">Edit / Assign</text>
	<g>
		<path fill="none" stroke="#000000" stroke-width="0.75" stroke-miterlimit="10" d="M484.352,177.629c6.124,0-0.913-0.019,5.213,0
			c5.697,0.018,11.284,0.339,16.965,0.07c14.649-0.692,18.061-0.595,23.143-0.595"/>
		<path fill="none" stroke="#000000" stroke-width="0.75" stroke-miterlimit="10" d="M484.524,160.619
			c1.77-0.07,1.95,0.156,8.076,0.176c3.633,0.01,6.216,0.016,13.975-0.352c3.264-0.154,17.591-0.725,22.684-0.5"/>
		<path fill="none" stroke="#000000" stroke-width="0.6646" stroke-miterlimit="10" d="M484.627,160.387
			c0,6.493-0.856,10.443,0.063,16.703c0.267,0.578,0.095-0.303,0.262-0.491"/>
		<path fill="none" stroke="#000000" stroke-width="0.6646" stroke-miterlimit="10" d="M529.532,159.727
			c1.102,7.781,0.057,12.604,0.263,17.634"/>
	</g>
	<path fill="none" stroke="#000000" stroke-miterlimit="10" d="M167.878,189.909c-0.151,6.392-0.565,9.165-0.495,15.925
		c0.029,2.695,0.098,3.334,0.341,5.474c0.186,1.63-0.062,2.536-0.001,3.648"/>
	<path fill="none" stroke="#000000" stroke-miterlimit="10" d="M538.335,188.243c-0.15,6.392-0.564,9.165-0.494,15.925
		c0.028,2.695,0.097,3.334,0.34,5.474c0.186,1.63-0.062,2.536,0,3.648"/>
	<path fill="none" stroke="#000000" stroke-miterlimit="10" d="M167.5,190.373c1.981,0.921,5.511,0.5,8.077,0.5
		c11.334,0,22.639-0.521,33.959-0.498c21.567,0.041,43.362-0.198,64.914-1.113c41.705-1.77,83.631-0.889,125.399-0.889
		c29.243,0,58.551,0.719,87.639,1c13.864,0.134,28.47,0.838,42.012-0.5c2.243-0.222,4.477-0.702,6.828-0.611
		c-1.516-0.464-3.237-0.602-4.828-0.389"/>
	<path fill="none" stroke="#000000" stroke-miterlimit="10" d="M167.5,214.124c1.981,0.921,5.511,0.5,8.077,0.5
		c11.334,0,22.639-0.521,33.959-0.498c21.567,0.041,43.362-0.198,64.914-1.113c41.705-1.77,83.631-0.889,125.399-0.889
		c29.243,0,58.551,0.719,87.639,1c13.864,0.134,28.47,0.838,42.012-0.5c2.243-0.222,4.477-0.702,6.828-0.611
		c-1.516-0.464-3.237-0.602-4.828-0.389"/>
	<text transform="matrix(1 0 0 1 174.25 205.207)" font-family="'Journal'" font-size="12">Nicholas Cage</text>
	<text transform="matrix(1 0 0 1 488.7324 203.6953)" font-family="'Journal'" font-size="11.8941">Edit / Assign</text>
	<g>
		<path fill="none" stroke="#000000" stroke-width="0.75" stroke-miterlimit="10" d="M484.352,209.629c6.124,0-0.913-0.019,5.213,0
			c5.697,0.018,11.284,0.339,16.965,0.07c14.649-0.692,18.061-0.595,23.143-0.595"/>
		<path fill="none" stroke="#000000" stroke-width="0.75" stroke-miterlimit="10" d="M484.524,192.619
			c1.77-0.07,1.95,0.156,8.076,0.176c3.633,0.01,6.216,0.016,13.975-0.352c3.264-0.154,17.591-0.725,22.684-0.5"/>
		<path fill="none" stroke="#000000" stroke-width="0.6646" stroke-miterlimit="10" d="M484.627,192.387
			c0,6.493-0.856,10.443,0.063,16.703c0.267,0.578,0.095-0.303,0.262-0.491"/>
		<path fill="none" stroke="#000000" stroke-width="0.6646" stroke-miterlimit="10" d="M529.532,191.727
			c1.102,7.781,0.057,12.604,0.263,17.634"/>
	</g>
	<g>
		<path fill="none" stroke="#000000" stroke-width="0.75" stroke-miterlimit="10" d="M237.632,413.123c4.112,0-0.613-0.02,3.5,0
			c3.826,0.019,7.578,0.356,11.392,0.073c9.837-0.728,12.128-0.625,15.54-0.625"/>
		<path fill="none" stroke="#000000" stroke-width="0.75" stroke-miterlimit="10" d="M237.748,395.229
			c1.188-0.074,1.31,0.164,5.424,0.185c2.439,0.011,4.173,0.017,9.383-0.37c2.192-0.162,11.813-0.762,15.232-0.525"/>
		<path fill="none" stroke="#000000" stroke-width="0.6646" stroke-miterlimit="10" d="M237.922,394.984
			c0,6.831-0.901,10.986,0.065,17.571c0.28,0.608,0.1-0.318,0.275-0.517"/>
		<path fill="none" stroke="#000000" stroke-width="0.6646" stroke-miterlimit="10" d="M268.482,394.29
			c1.158,8.186,0.06,13.26,0.276,18.55"/>
	</g>
	<g>
		<path fill="none" stroke="#000000" stroke-width="0.75" stroke-miterlimit="10" d="M278.461,298.77c1.229,0-0.184-0.011,1.047,0
			c1.144,0.01,2.266,0.193,3.406,0.04c2.942-0.396,3.627-0.339,4.647-0.339"/>
		<path fill="none" stroke="#000000" stroke-width="0.75" stroke-miterlimit="10" d="M278.495,289.06
			c0.354-0.04,0.392,0.089,1.622,0.101c0.729,0.005,1.248,0.008,2.807-0.201c0.655-0.088,3.533-0.413,4.555-0.285"/>
		<path fill="none" stroke="#000000" stroke-width="0.75" stroke-miterlimit="10" d="M278.516,288.927
			c0,3.706-0.172,5.961,0.014,9.534c0.053,0.331,0.019-0.173,0.052-0.28"/>
		<path fill="none" stroke="#000000" stroke-width="0.75" stroke-miterlimit="10" d="M287.533,288.55
			c0.222,4.442,0.012,7.195,0.053,10.066"/>
		<path fill="none" stroke="#000000" stroke-width="0.75" stroke-miterlimit="10" d="M283.014,293.818
			c2.474-1.388,4.657-4.115,7.364-4.908"/>
	</g>
	<g>
		<path fill="none" stroke="#000000" stroke-width="0.75" stroke-miterlimit="10" d="M278.461,320.933c1.229,0-0.184-0.011,1.047,0
			c1.144,0.01,2.266,0.192,3.406,0.04c2.942-0.396,3.627-0.34,4.647-0.34"/>
		<path fill="none" stroke="#000000" stroke-width="0.75" stroke-miterlimit="10" d="M278.495,311.223
			c0.354-0.041,0.392,0.089,1.622,0.101c0.729,0.005,1.248,0.008,2.807-0.202c0.655-0.087,3.533-0.412,4.555-0.284"/>
		<path fill="none" stroke="#000000" stroke-width="0.75" stroke-miterlimit="10" d="M278.516,311.09
			c0,3.706-0.172,5.961,0.014,9.534c0.053,0.331,0.019-0.173,0.052-0.28"/>
		<path fill="none" stroke="#000000" stroke-width="0.75" stroke-miterlimit="10" d="M287.533,310.713
			c0.222,4.441,0.012,7.195,0.053,10.066"/>
		<path fill="none" stroke="#000000" stroke-width="0.75" stroke-miterlimit="10" d="M283.014,315.981
			c2.474-1.388,4.657-4.115,7.364-4.908"/>
	</g>
	<g>
		<path fill="none" stroke="#000000" stroke-width="0.75" stroke-miterlimit="10" d="M278.461,343.798c1.229,0-0.184-0.01,1.047,0
			c1.144,0.011,2.266,0.193,3.406,0.04c2.942-0.396,3.627-0.339,4.647-0.339"/>
		<path fill="none" stroke="#000000" stroke-width="0.75" stroke-miterlimit="10" d="M278.495,334.088
			c0.354-0.04,0.392,0.09,1.622,0.101c0.729,0.005,1.248,0.009,2.807-0.201c0.655-0.087,3.533-0.413,4.555-0.284"/>
		<path fill="none" stroke="#000000" stroke-width="0.75" stroke-miterlimit="10" d="M278.516,333.955
			c0,3.707-0.172,5.962,0.014,9.535c0.053,0.33,0.019-0.173,0.052-0.281"/>
		<path fill="none" stroke="#000000" stroke-width="0.75" stroke-miterlimit="10" d="M287.533,333.578
			c0.222,4.442,0.012,7.195,0.053,10.066"/>
		<path fill="none" stroke="#000000" stroke-width="0.75" stroke-miterlimit="10" d="M283.014,338.848
			c2.474-1.388,4.657-4.115,7.364-4.908"/>
	</g>
	<g>
		<path fill="none" stroke="#000000" stroke-width="0.75" stroke-miterlimit="10" d="M278.461,367.366c1.229,0-0.184-0.01,1.047,0
			c1.144,0.011,2.266,0.193,3.406,0.04c2.942-0.396,3.627-0.339,4.647-0.339"/>
		<path fill="none" stroke="#000000" stroke-width="0.75" stroke-miterlimit="10" d="M278.495,357.656
			c0.354-0.04,0.392,0.09,1.622,0.101c0.729,0.005,1.248,0.009,2.807-0.201c0.655-0.087,3.533-0.413,4.555-0.284"/>
		<path fill="none" stroke="#000000" stroke-width="0.75" stroke-miterlimit="10" d="M278.516,357.523
			c0,3.707-0.172,5.962,0.014,9.535c0.053,0.33,0.019-0.173,0.052-0.281"/>
		<path fill="none" stroke="#000000" stroke-width="0.75" stroke-miterlimit="10" d="M287.533,357.146
			c0.222,4.442,0.012,7.195,0.053,10.066"/>
		<path fill="none" stroke="#000000" stroke-width="0.75" stroke-miterlimit="10" d="M283.014,362.416
			c2.474-1.388,4.657-4.115,7.364-4.908"/>
	</g>
	<g>
		<path fill="none" stroke="#000000" stroke-width="0.75" stroke-miterlimit="10" d="M278.461,408.624c1.229,0-0.184-0.01,1.047,0
			c1.144,0.011,2.266,0.193,3.406,0.04c2.942-0.396,3.627-0.339,4.647-0.339"/>
		<path fill="none" stroke="#000000" stroke-width="0.75" stroke-miterlimit="10" d="M278.495,398.914
			c0.354-0.04,0.392,0.09,1.622,0.101c0.729,0.005,1.248,0.009,2.807-0.201c0.655-0.087,3.533-0.413,4.555-0.284"/>
		<path fill="none" stroke="#000000" stroke-width="0.75" stroke-miterlimit="10" d="M278.516,398.781
			c0,3.707-0.172,5.962,0.014,9.535c0.053,0.33,0.019-0.173,0.052-0.281"/>
		<path fill="none" stroke="#000000" stroke-width="0.75" stroke-miterlimit="10" d="M287.533,398.404
			c0.222,4.442,0.012,7.195,0.053,10.066"/>
		<path fill="none" stroke="#000000" stroke-width="0.75" stroke-miterlimit="10" d="M283.014,403.674
			c2.474-1.388,4.657-4.115,7.364-4.908"/>
	</g>
	<path fill="none" stroke="#000000" stroke-miterlimit="10" d="M168,261.554c44.227,0,88.752-4.288,133.012-2.024"/>
	<path fill="none" stroke="#000000" stroke-miterlimit="10" d="M168,279.666c44.227,0,88.752-4.287,133.012-2.024"/>
	<path fill="none" stroke="#000000" stroke-miterlimit="10" d="M168,387.53c44.227,0,88.752-4.288,133.012-2.024"/>
	<path fill="none" stroke="#000000" stroke-miterlimit="10" d="M168,423.706c44.227,0,88.752-4.288,133.012-2.024"/>
	<g>
		<path fill="none" stroke="#000000" stroke-width="0.8292" stroke-miterlimit="10" d="M170.923,285.031
			c41.061,0,82.107,0.525,123.308,0.525c-1.021,0-2.043,0-3.066,0"/>
		<path fill="none" stroke="#000000" stroke-width="0.8292" stroke-miterlimit="10" d="M170.923,301.189
			c41.061,0,82.107,0.526,123.308,0.526c-1.021,0-2.043,0-3.066,0"/>
		<path fill="none" stroke="#000000" stroke-width="0.8292" stroke-miterlimit="10" d="M171.099,284.592c0,5.609,0,11.221,0,16.831"
			/>
		<path fill="none" stroke="#000000" stroke-width="0.8292" stroke-miterlimit="10" d="M293.709,285.294c0,5.61,0,11.222,0,16.831"
			/>
	</g>
	<text transform="matrix(1 0 0 1 175.9771 319.1904)" font-family="'Journal'" font-size="11.5716">Joe R</text>
	<g>
		<path fill="none" stroke="#000000" stroke-width="0.8292" stroke-miterlimit="10" d="M170.923,307.896
			c41.061,0,82.107,0.526,123.308,0.526c-1.021,0-2.043,0-3.066,0"/>
		<path fill="none" stroke="#000000" stroke-width="0.8292" stroke-miterlimit="10" d="M170.923,324.056
			c41.061,0,82.107,0.525,123.308,0.525c-1.021,0-2.043,0-3.066,0"/>
		<path fill="none" stroke="#000000" stroke-width="0.8292" stroke-miterlimit="10" d="M171.099,307.457c0,5.61,0,11.222,0,16.831"
			/>
		<path fill="none" stroke="#000000" stroke-width="0.8292" stroke-miterlimit="10" d="M293.709,308.16c0,5.609,0,11.221,0,16.831"
			/>
	</g>
	<text transform="matrix(1 0 0 1 175.9771 342.0566)" font-family="'Journal'" font-size="11.5716">Ben S</text>
	<g>
		<path fill="none" stroke="#000000" stroke-width="0.8292" stroke-miterlimit="10" d="M170.923,330.763
			c41.061,0,82.107,0.526,123.308,0.526c-1.021,0-2.043,0-3.066,0"/>
		<path fill="none" stroke="#000000" stroke-width="0.8292" stroke-miterlimit="10" d="M170.923,346.921
			c41.061,0,82.107,0.526,123.308,0.526c-1.021,0-2.043,0-3.066,0"/>
		<path fill="none" stroke="#000000" stroke-width="0.8292" stroke-miterlimit="10" d="M171.099,330.323c0,5.609,0,11.221,0,16.831"
			/>
		<path fill="none" stroke="#000000" stroke-width="0.8292" stroke-miterlimit="10" d="M293.709,331.025c0,5.61,0,11.222,0,16.832"
			/>
	</g>
	<text transform="matrix(1 0 0 1 175.9771 364.9219)" font-family="'Journal'" font-size="11.5716">Kenny G</text>
	<g>
		<path fill="none" stroke="#000000" stroke-width="0.8292" stroke-miterlimit="10" d="M170.923,353.628
			c41.061,0,82.107,0.526,123.308,0.526c-1.021,0-2.043,0-3.066,0"/>
		<path fill="none" stroke="#000000" stroke-width="0.8292" stroke-miterlimit="10" d="M170.923,369.787
			c41.061,0,82.107,0.525,123.308,0.525c-1.021,0-2.043,0-3.066,0"/>
		<path fill="none" stroke="#000000" stroke-width="0.8292" stroke-miterlimit="10" d="M171.099,353.188c0,5.61,0,11.222,0,16.831"
			/>
		<path fill="none" stroke="#000000" stroke-width="0.8292" stroke-miterlimit="10" d="M293.709,353.892c0,5.609,0,11.221,0,16.831"
			/>
	</g>
	<path fill="none" stroke="#000000" stroke-miterlimit="10" d="M334.5,261.223c0,47.715,0.525,95.435,0.525,143.135
		c0,6.15,0.457,12.319-0.051,18.468c0.215-0.417,0.467-0.831,0.752-1.243"/>
	<path fill="none" stroke="#000000" stroke-miterlimit="10" d="M467.038,258.481c0,47.715,0.386,98.176,0.386,145.876
		c0,6.15,0.457,12.319-0.051,18.468c0.215-0.417,0.467-0.831,0.752-1.243"/>
	<text transform="matrix(1 0 0 1 342.4766 296.3252)" font-family="'Journal'" font-size="11.5716">Peter F - Lead</text>
	<text transform="matrix(1 0 0 1 341.0742 273.1729)" font-family="'Journal'" font-size="12.6235">Team 2 - P. Freely</text>
	<text transform="matrix(1 0 0 1 341.0742 409.2715)" font-family="'Journal'" font-size="12.6235">Gross Pool</text>
	<text transform="matrix(1 0 0 1 408.6797 407.7715)" opacity="0.5" font-family="'Journal'" font-size="12.6235">20%</text>
	<text transform="matrix(1 0 0 1 423.6465 297.3252)" opacity="0.5" font-family="'Journal'" font-size="11">34%</text>
	<text transform="matrix(1 0 0 1 422.4805 319.1904)" opacity="0.5" font-family="'Journal'" font-size="11">33%</text>
	<text transform="matrix(1 0 0 1 422.4805 342.0244)" opacity="0.5" font-family="'Journal'" font-size="11">33%</text>
	<g>
		<path fill="none" stroke="#000000" stroke-width="0.75" stroke-miterlimit="10" d="M404.132,413.123c4.112,0-0.612-0.02,3.501,0
			c3.826,0.019,7.577,0.356,11.392,0.073c9.837-0.728,12.128-0.625,15.54-0.625"/>
		<path fill="none" stroke="#000000" stroke-width="0.75" stroke-miterlimit="10" d="M404.248,395.229
			c1.188-0.074,1.31,0.164,5.424,0.185c2.438,0.011,4.173,0.017,9.383-0.37c2.191-0.162,11.813-0.762,15.232-0.525"/>
		<path fill="none" stroke="#000000" stroke-width="0.6646" stroke-miterlimit="10" d="M404.422,394.984
			c0,6.831-0.901,10.986,0.065,17.571c0.28,0.608,0.1-0.318,0.275-0.517"/>
		<path fill="none" stroke="#000000" stroke-width="0.6646" stroke-miterlimit="10" d="M434.982,394.29
			c1.158,8.186,0.059,13.26,0.275,18.55"/>
	</g>
	<g>
		<path fill="none" stroke="#000000" stroke-width="0.75" stroke-miterlimit="10" d="M444.961,298.77c1.229,0-0.184-0.011,1.047,0
			c1.144,0.01,2.266,0.193,3.406,0.04c2.942-0.396,3.627-0.339,4.647-0.339"/>
		<path fill="none" stroke="#000000" stroke-width="0.75" stroke-miterlimit="10" d="M444.995,289.06
			c0.354-0.04,0.392,0.089,1.622,0.101c0.729,0.005,1.248,0.008,2.807-0.201c0.655-0.088,3.533-0.413,4.555-0.285"/>
		<path fill="none" stroke="#000000" stroke-width="0.75" stroke-miterlimit="10" d="M445.016,288.927
			c0,3.706-0.172,5.961,0.014,9.534c0.053,0.331,0.019-0.173,0.052-0.28"/>
		<path fill="none" stroke="#000000" stroke-width="0.75" stroke-miterlimit="10" d="M454.033,288.55
			c0.222,4.442,0.012,7.195,0.053,10.066"/>
		<path fill="none" stroke="#000000" stroke-width="0.75" stroke-miterlimit="10" d="M449.514,293.818
			c2.474-1.388,4.657-4.115,7.364-4.908"/>
	</g>
	<g>
		<path fill="none" stroke="#000000" stroke-width="0.75" stroke-miterlimit="10" d="M444.961,320.933c1.229,0-0.184-0.011,1.047,0
			c1.144,0.01,2.266,0.192,3.406,0.04c2.942-0.396,3.627-0.34,4.647-0.34"/>
		<path fill="none" stroke="#000000" stroke-width="0.75" stroke-miterlimit="10" d="M444.995,311.223
			c0.354-0.041,0.392,0.089,1.622,0.101c0.729,0.005,1.248,0.008,2.807-0.202c0.655-0.087,3.533-0.412,4.555-0.284"/>
		<path fill="none" stroke="#000000" stroke-width="0.75" stroke-miterlimit="10" d="M445.016,311.09
			c0,3.706-0.172,5.961,0.014,9.534c0.053,0.331,0.019-0.173,0.052-0.28"/>
		<path fill="none" stroke="#000000" stroke-width="0.75" stroke-miterlimit="10" d="M454.033,310.713
			c0.222,4.441,0.012,7.195,0.053,10.066"/>
		<path fill="none" stroke="#000000" stroke-width="0.75" stroke-miterlimit="10" d="M449.514,315.981
			c2.474-1.388,4.657-4.115,7.364-4.908"/>
	</g>
	<g>
		<path fill="none" stroke="#000000" stroke-width="0.75" stroke-miterlimit="10" d="M444.961,343.798c1.229,0-0.184-0.01,1.047,0
			c1.144,0.011,2.266,0.193,3.406,0.04c2.942-0.396,3.627-0.339,4.647-0.339"/>
		<path fill="none" stroke="#000000" stroke-width="0.75" stroke-miterlimit="10" d="M444.995,334.088
			c0.354-0.04,0.392,0.09,1.622,0.101c0.729,0.005,1.248,0.009,2.807-0.201c0.655-0.087,3.533-0.413,4.555-0.284"/>
		<path fill="none" stroke="#000000" stroke-width="0.75" stroke-miterlimit="10" d="M445.016,333.955
			c0,3.707-0.172,5.962,0.014,9.535c0.053,0.33,0.019-0.173,0.052-0.281"/>
		<path fill="none" stroke="#000000" stroke-width="0.75" stroke-miterlimit="10" d="M454.033,333.578
			c0.222,4.442,0.012,7.195,0.053,10.066"/>
		<path fill="none" stroke="#000000" stroke-width="0.75" stroke-miterlimit="10" d="M449.514,338.848
			c2.474-1.388,4.657-4.115,7.364-4.908"/>
	</g>
	<g>
		<path fill="none" stroke="#000000" stroke-width="0.75" stroke-miterlimit="10" d="M444.961,408.624c1.229,0-0.184-0.01,1.047,0
			c1.144,0.011,2.266,0.193,3.406,0.04c2.942-0.396,3.627-0.339,4.647-0.339"/>
		<path fill="none" stroke="#000000" stroke-width="0.75" stroke-miterlimit="10" d="M444.995,398.914
			c0.354-0.04,0.392,0.09,1.622,0.101c0.729,0.005,1.248,0.009,2.807-0.201c0.655-0.087,3.533-0.413,4.555-0.284"/>
		<path fill="none" stroke="#000000" stroke-width="0.75" stroke-miterlimit="10" d="M445.016,398.781
			c0,3.707-0.172,5.962,0.014,9.535c0.053,0.33,0.019-0.173,0.052-0.281"/>
		<path fill="none" stroke="#000000" stroke-width="0.75" stroke-miterlimit="10" d="M454.033,398.404
			c0.222,4.442,0.012,7.195,0.053,10.066"/>
		<path fill="none" stroke="#000000" stroke-width="0.75" stroke-miterlimit="10" d="M449.514,403.674
			c2.474-1.388,4.657-4.115,7.364-4.908"/>
	</g>
	<path fill="none" stroke="#000000" stroke-miterlimit="10" d="M333.65,261.554c44.227,0,88.752-4.288,133.012-2.024"/>
	<path fill="none" stroke="#000000" stroke-miterlimit="10" d="M334.5,279.666c44.227,0,88.752-4.287,133.012-2.024"/>
	<path fill="none" stroke="#000000" stroke-miterlimit="10" d="M334.5,387.53c44.227,0,88.752-4.288,133.012-2.024"/>
	<path fill="none" stroke="#000000" stroke-miterlimit="10" d="M334.5,423.706c44.227,0,88.752-4.288,133.012-2.024"/>
	<g>
		<path fill="none" stroke="#000000" stroke-width="0.8292" stroke-miterlimit="10" d="M337.423,285.031
			c41.061,0,82.107,0.525,123.308,0.525c-1.021,0-2.043,0-3.066,0"/>
		<path fill="none" stroke="#000000" stroke-width="0.8292" stroke-miterlimit="10" d="M337.423,301.189
			c41.061,0,82.107,0.526,123.308,0.526c-1.021,0-2.043,0-3.066,0"/>
		<path fill="none" stroke="#000000" stroke-width="0.8292" stroke-miterlimit="10" d="M337.599,284.592c0,5.609,0,11.221,0,16.831"
			/>
		<path fill="none" stroke="#000000" stroke-width="0.8292" stroke-miterlimit="10" d="M460.209,285.294c0,5.61,0,11.222,0,16.831"
			/>
	</g>
	<text transform="matrix(1 0 0 1 342.4766 319.1904)" font-family="'Journal'" font-size="11.5716">Dick L</text>
	<g>
		<path fill="none" stroke="#000000" stroke-width="0.8292" stroke-miterlimit="10" d="M337.423,307.896
			c41.061,0,82.107,0.526,123.308,0.526c-1.021,0-2.043,0-3.066,0"/>
		<path fill="none" stroke="#000000" stroke-width="0.8292" stroke-miterlimit="10" d="M337.423,324.056
			c41.061,0,82.107,0.525,123.308,0.525c-1.021,0-2.043,0-3.066,0"/>
		<path fill="none" stroke="#000000" stroke-width="0.8292" stroke-miterlimit="10" d="M337.599,307.457c0,5.61,0,11.222,0,16.831"
			/>
		<path fill="none" stroke="#000000" stroke-width="0.8292" stroke-miterlimit="10" d="M460.209,308.16c0,5.609,0,11.221,0,16.831"
			/>
	</g>
	<text transform="matrix(1 0 0 1 342.4766 342.0566)" font-family="'Journal'" font-size="11.5716">Jack A</text>
	<g>
		<path fill="none" stroke="#000000" stroke-width="0.8292" stroke-miterlimit="10" d="M337.423,330.763
			c41.061,0,82.107,0.526,123.308,0.526c-1.021,0-2.043,0-3.066,0"/>
		<path fill="none" stroke="#000000" stroke-width="0.8292" stroke-miterlimit="10" d="M337.423,346.921
			c41.061,0,82.107,0.526,123.308,0.526c-1.021,0-2.043,0-3.066,0"/>
		<path fill="none" stroke="#000000" stroke-width="0.8292" stroke-miterlimit="10" d="M337.599,330.323c0,5.609,0,11.221,0,16.831"
			/>
		<path fill="none" stroke="#000000" stroke-width="0.8292" stroke-miterlimit="10" d="M460.209,331.025c0,5.61,0,11.222,0,16.832"
			/>
	</g>
	<path fill="none" stroke="#000000" stroke-miterlimit="10" d="M168,441.223c0,47.715,0.525,95.435,0.525,143.135
		c0,6.15,0.457,12.319-0.051,18.468c0.215-0.417,0.467-0.831,0.752-1.243"/>
	<path fill="none" stroke="#000000" stroke-miterlimit="10" d="M300.538,438.481c0,47.715,0.386,98.176,0.386,145.876
		c0,6.15,0.457,12.319-0.051,18.468c0.215-0.417,0.467-0.831,0.752-1.243"/>
	<text transform="matrix(1 0 0 1 175.9771 476.3252)" font-family="'Journal'" font-size="11.5716">John T - Lead</text>
	<text transform="matrix(1 0 0 1 174.5742 453.1729)" font-family="'Journal'" font-size="12.6235">Team 1 - J. Tarrow</text>
	<text transform="matrix(1 0 0 1 174.5742 589.2715)" font-family="'Journal'" font-size="12.6235">Gross Pool</text>
	<text transform="matrix(1 0 0 1 242.1792 587.7715)" opacity="0.5" font-family="'Journal'" font-size="12.6235">17.2%</text>
	<text transform="matrix(1 0 0 1 257.1465 477.3252)" opacity="0.5" font-family="'Journal'" font-size="11">34%</text>
	<text transform="matrix(1 0 0 1 256.5083 499.1904)" opacity="0.5" font-family="'Journal'" font-size="11">22%</text>
	<text transform="matrix(1 0 0 1 256.5083 522.0244)" opacity="0.5" font-family="'Journal'" font-size="11">22%</text>
	<text transform="matrix(1 0 0 1 256.5083 544.9219)" opacity="0.5" font-family="'Journal'" font-size="11">22%</text>
	<g>
		<path fill="none" stroke="#000000" stroke-width="0.75" stroke-miterlimit="10" d="M237.632,593.123c4.112,0-0.613-0.02,3.5,0
			c3.826,0.019,7.578,0.356,11.392,0.073c9.837-0.728,12.128-0.625,15.54-0.625"/>
		<path fill="none" stroke="#000000" stroke-width="0.75" stroke-miterlimit="10" d="M237.748,575.229
			c1.188-0.074,1.31,0.164,5.424,0.185c2.439,0.011,4.173,0.017,9.383-0.37c2.192-0.162,11.813-0.762,15.232-0.525"/>
		<path fill="none" stroke="#000000" stroke-width="0.6646" stroke-miterlimit="10" d="M237.922,574.984
			c0,6.831-0.901,10.986,0.065,17.571c0.28,0.608,0.1-0.318,0.275-0.517"/>
		<path fill="none" stroke="#000000" stroke-width="0.6646" stroke-miterlimit="10" d="M268.482,574.29
			c1.158,8.186,0.06,13.26,0.276,18.55"/>
	</g>
	<g>
		<path fill="none" stroke="#000000" stroke-width="0.75" stroke-miterlimit="10" d="M278.461,478.77c1.229,0-0.184-0.011,1.047,0
			c1.144,0.01,2.266,0.193,3.406,0.04c2.942-0.396,3.627-0.339,4.647-0.339"/>
		<path fill="none" stroke="#000000" stroke-width="0.75" stroke-miterlimit="10" d="M278.495,469.06
			c0.354-0.04,0.392,0.089,1.622,0.101c0.729,0.005,1.248,0.008,2.807-0.201c0.655-0.088,3.533-0.413,4.555-0.285"/>
		<path fill="none" stroke="#000000" stroke-width="0.75" stroke-miterlimit="10" d="M278.516,468.927
			c0,3.706-0.172,5.961,0.014,9.534c0.053,0.331,0.019-0.173,0.052-0.28"/>
		<path fill="none" stroke="#000000" stroke-width="0.75" stroke-miterlimit="10" d="M287.533,468.55
			c0.222,4.442,0.012,7.195,0.053,10.066"/>
		<path fill="none" stroke="#000000" stroke-width="0.75" stroke-miterlimit="10" d="M283.014,473.818
			c2.474-1.388,4.657-4.115,7.364-4.908"/>
	</g>
	<g>
		<path fill="none" stroke="#000000" stroke-width="0.75" stroke-miterlimit="10" d="M278.461,500.933c1.229,0-0.184-0.011,1.047,0
			c1.144,0.01,2.266,0.192,3.406,0.04c2.942-0.396,3.627-0.34,4.647-0.34"/>
		<path fill="none" stroke="#000000" stroke-width="0.75" stroke-miterlimit="10" d="M278.495,491.223
			c0.354-0.041,0.392,0.089,1.622,0.101c0.729,0.005,1.248,0.008,2.807-0.202c0.655-0.087,3.533-0.412,4.555-0.284"/>
		<path fill="none" stroke="#000000" stroke-width="0.75" stroke-miterlimit="10" d="M278.516,491.09
			c0,3.706-0.172,5.961,0.014,9.534c0.053,0.331,0.019-0.173,0.052-0.28"/>
		<path fill="none" stroke="#000000" stroke-width="0.75" stroke-miterlimit="10" d="M287.533,490.713
			c0.222,4.441,0.012,7.195,0.053,10.066"/>
		<path fill="none" stroke="#000000" stroke-width="0.75" stroke-miterlimit="10" d="M283.014,495.981
			c2.474-1.388,4.657-4.115,7.364-4.908"/>
	</g>
	<g>
		<path fill="none" stroke="#000000" stroke-width="0.75" stroke-miterlimit="10" d="M278.461,523.798c1.229,0-0.184-0.01,1.047,0
			c1.144,0.011,2.266,0.193,3.406,0.04c2.942-0.396,3.627-0.339,4.647-0.339"/>
		<path fill="none" stroke="#000000" stroke-width="0.75" stroke-miterlimit="10" d="M278.495,514.088
			c0.354-0.04,0.392,0.09,1.622,0.101c0.729,0.005,1.248,0.009,2.807-0.201c0.655-0.087,3.533-0.413,4.555-0.284"/>
		<path fill="none" stroke="#000000" stroke-width="0.75" stroke-miterlimit="10" d="M278.516,513.955
			c0,3.707-0.172,5.962,0.014,9.535c0.053,0.33,0.019-0.173,0.052-0.281"/>
		<path fill="none" stroke="#000000" stroke-width="0.75" stroke-miterlimit="10" d="M287.533,513.578
			c0.222,4.442,0.012,7.195,0.053,10.066"/>
		<path fill="none" stroke="#000000" stroke-width="0.75" stroke-miterlimit="10" d="M283.014,518.848
			c2.474-1.388,4.657-4.115,7.364-4.908"/>
	</g>
	<g>
		<path fill="none" stroke="#000000" stroke-width="0.75" stroke-miterlimit="10" d="M278.461,547.366c1.229,0-0.184-0.01,1.047,0
			c1.144,0.011,2.266,0.193,3.406,0.04c2.942-0.396,3.627-0.339,4.647-0.339"/>
		<path fill="none" stroke="#000000" stroke-width="0.75" stroke-miterlimit="10" d="M278.495,537.656
			c0.354-0.04,0.392,0.09,1.622,0.101c0.729,0.005,1.248,0.009,2.807-0.201c0.655-0.087,3.533-0.413,4.555-0.284"/>
		<path fill="none" stroke="#000000" stroke-width="0.75" stroke-miterlimit="10" d="M278.516,537.523
			c0,3.707-0.172,5.962,0.014,9.535c0.053,0.33,0.019-0.173,0.052-0.281"/>
		<path fill="none" stroke="#000000" stroke-width="0.75" stroke-miterlimit="10" d="M287.533,537.146
			c0.222,4.442,0.012,7.195,0.053,10.066"/>
		<path fill="none" stroke="#000000" stroke-width="0.75" stroke-miterlimit="10" d="M283.014,542.416
			c2.474-1.388,4.657-4.115,7.364-4.908"/>
	</g>
	<g>
		<path fill="none" stroke="#000000" stroke-width="0.75" stroke-miterlimit="10" d="M278.461,588.624c1.229,0-0.184-0.01,1.047,0
			c1.144,0.011,2.266,0.193,3.406,0.04c2.942-0.396,3.627-0.339,4.647-0.339"/>
		<path fill="none" stroke="#000000" stroke-width="0.75" stroke-miterlimit="10" d="M278.495,578.914
			c0.354-0.04,0.392,0.09,1.622,0.101c0.729,0.005,1.248,0.009,2.807-0.201c0.655-0.087,3.533-0.413,4.555-0.284"/>
		<path fill="none" stroke="#000000" stroke-width="0.75" stroke-miterlimit="10" d="M278.516,578.781
			c0,3.707-0.172,5.962,0.014,9.535c0.053,0.33,0.019-0.173,0.052-0.281"/>
		<path fill="none" stroke="#000000" stroke-width="0.75" stroke-miterlimit="10" d="M287.533,578.404
			c0.222,4.442,0.012,7.195,0.053,10.066"/>
		<path fill="none" stroke="#000000" stroke-width="0.75" stroke-miterlimit="10" d="M283.014,583.674
			c2.474-1.388,4.657-4.115,7.364-4.908"/>
	</g>
	<path fill="none" stroke="#000000" stroke-miterlimit="10" d="M168,441.554c44.227,0,88.752-4.288,133.012-2.024"/>
	<path fill="none" stroke="#000000" stroke-miterlimit="10" d="M168,459.666c44.227,0,88.752-4.287,133.012-2.024"/>
	<path fill="none" stroke="#000000" stroke-miterlimit="10" d="M168,567.53c44.227,0,88.752-4.288,133.012-2.024"/>
	<path fill="none" stroke="#000000" stroke-miterlimit="10" d="M168,603.706c44.227,0,88.752-4.288,133.012-2.024"/>
	<g>
		<path fill="none" stroke="#000000" stroke-width="0.8292" stroke-miterlimit="10" d="M170.923,465.031
			c41.061,0,82.107,0.525,123.308,0.525c-1.021,0-2.043,0-3.066,0"/>
		<path fill="none" stroke="#000000" stroke-width="0.8292" stroke-miterlimit="10" d="M170.923,481.189
			c41.061,0,82.107,0.526,123.308,0.526c-1.021,0-2.043,0-3.066,0"/>
		<path fill="none" stroke="#000000" stroke-width="0.8292" stroke-miterlimit="10" d="M171.099,464.592c0,5.609,0,11.221,0,16.831"
			/>
		<path fill="none" stroke="#000000" stroke-width="0.8292" stroke-miterlimit="10" d="M293.709,465.294c0,5.61,0,11.222,0,16.831"
			/>
	</g>
	<text transform="matrix(1 0 0 1 175.9771 499.1904)" font-family="'Journal'" font-size="11.5716">Joe R</text>
	<g>
		<path fill="none" stroke="#000000" stroke-width="0.8292" stroke-miterlimit="10" d="M170.923,487.896
			c41.061,0,82.107,0.526,123.308,0.526c-1.021,0-2.043,0-3.066,0"/>
		<path fill="none" stroke="#000000" stroke-width="0.8292" stroke-miterlimit="10" d="M170.923,504.056
			c41.061,0,82.107,0.525,123.308,0.525c-1.021,0-2.043,0-3.066,0"/>
		<path fill="none" stroke="#000000" stroke-width="0.8292" stroke-miterlimit="10" d="M171.099,487.457c0,5.61,0,11.222,0,16.831"
			/>
		<path fill="none" stroke="#000000" stroke-width="0.8292" stroke-miterlimit="10" d="M293.709,488.16c0,5.609,0,11.221,0,16.831"
			/>
	</g>
	<text transform="matrix(1 0 0 1 175.9771 522.0566)" font-family="'Journal'" font-size="11.5716">Ben S</text>
	<g>
		<path fill="none" stroke="#000000" stroke-width="0.8292" stroke-miterlimit="10" d="M170.923,510.763
			c41.061,0,82.107,0.526,123.308,0.526c-1.021,0-2.043,0-3.066,0"/>
		<path fill="none" stroke="#000000" stroke-width="0.8292" stroke-miterlimit="10" d="M170.923,526.921
			c41.061,0,82.107,0.526,123.308,0.526c-1.021,0-2.043,0-3.066,0"/>
		<path fill="none" stroke="#000000" stroke-width="0.8292" stroke-miterlimit="10" d="M171.099,510.323c0,5.609,0,11.221,0,16.831"
			/>
		<path fill="none" stroke="#000000" stroke-width="0.8292" stroke-miterlimit="10" d="M293.709,511.025c0,5.61,0,11.222,0,16.832"
			/>
	</g>
	<text transform="matrix(1 0 0 1 175.9771 544.9219)" font-family="'Journal'" font-size="11.5716">Kenny G</text>
	<g>
		<path fill="none" stroke="#000000" stroke-width="0.8292" stroke-miterlimit="10" d="M170.923,533.628
			c41.061,0,82.107,0.526,123.308,0.526c-1.021,0-2.043,0-3.066,0"/>
		<path fill="none" stroke="#000000" stroke-width="0.8292" stroke-miterlimit="10" d="M170.923,549.787
			c41.061,0,82.107,0.525,123.308,0.525c-1.021,0-2.043,0-3.066,0"/>
		<path fill="none" stroke="#000000" stroke-width="0.8292" stroke-miterlimit="10" d="M171.099,533.188c0,5.61,0,11.222,0,16.831"
			/>
		<path fill="none" stroke="#000000" stroke-width="0.8292" stroke-miterlimit="10" d="M293.709,533.892c0,5.609,0,11.221,0,16.831"
			/>
	</g>
	<path fill="none" stroke="#000000" stroke-miterlimit="10" d="M334.5,441.223c0,47.715,0.525,95.435,0.525,143.135
		c0,6.15,0.457,12.319-0.051,18.468c0.215-0.417,0.467-0.831,0.752-1.243"/>
	<path fill="none" stroke="#000000" stroke-miterlimit="10" d="M467.038,438.481c0,47.715,0.386,98.176,0.386,145.876
		c0,6.15,0.457,12.319-0.051,18.468c0.215-0.417,0.467-0.831,0.752-1.243"/>
	<text transform="matrix(1 0 0 1 342.4766 476.3252)" font-family="'Journal'" font-size="11.5716">Peter F - Lead</text>
	<text transform="matrix(1 0 0 1 341.0742 453.1729)" font-family="'Journal'" font-size="12.6235">Team 2 - P. Freely</text>
	<text transform="matrix(1 0 0 1 341.0742 589.2715)" font-family="'Journal'" font-size="12.6235">Gross Pool</text>
	<text transform="matrix(1 0 0 1 408.6797 587.7715)" opacity="0.5" font-family="'Journal'" font-size="12.6235">20%</text>
	<text transform="matrix(1 0 0 1 423.6465 477.3252)" opacity="0.5" font-family="'Journal'" font-size="11">34%</text>
	<text transform="matrix(1 0 0 1 422.4805 499.1904)" opacity="0.5" font-family="'Journal'" font-size="11">33%</text>
	<text transform="matrix(1 0 0 1 422.4805 522.0244)" opacity="0.5" font-family="'Journal'" font-size="11">33%</text>
	<g>
		<path fill="none" stroke="#000000" stroke-width="0.75" stroke-miterlimit="10" d="M404.132,593.123c4.112,0-0.612-0.02,3.501,0
			c3.826,0.019,7.577,0.356,11.392,0.073c9.837-0.728,12.128-0.625,15.54-0.625"/>
		<path fill="none" stroke="#000000" stroke-width="0.75" stroke-miterlimit="10" d="M404.248,575.229
			c1.188-0.074,1.31,0.164,5.424,0.185c2.438,0.011,4.173,0.017,9.383-0.37c2.191-0.162,11.813-0.762,15.232-0.525"/>
		<path fill="none" stroke="#000000" stroke-width="0.6646" stroke-miterlimit="10" d="M404.422,574.984
			c0,6.831-0.901,10.986,0.065,17.571c0.28,0.608,0.1-0.318,0.275-0.517"/>
		<path fill="none" stroke="#000000" stroke-width="0.6646" stroke-miterlimit="10" d="M434.982,574.29
			c1.158,8.186,0.059,13.26,0.275,18.55"/>
	</g>
	<g>
		<path fill="none" stroke="#000000" stroke-width="0.75" stroke-miterlimit="10" d="M444.961,478.77c1.229,0-0.184-0.011,1.047,0
			c1.144,0.01,2.266,0.193,3.406,0.04c2.942-0.396,3.627-0.339,4.647-0.339"/>
		<path fill="none" stroke="#000000" stroke-width="0.75" stroke-miterlimit="10" d="M444.995,469.06
			c0.354-0.04,0.392,0.089,1.622,0.101c0.729,0.005,1.248,0.008,2.807-0.201c0.655-0.088,3.533-0.413,4.555-0.285"/>
		<path fill="none" stroke="#000000" stroke-width="0.75" stroke-miterlimit="10" d="M445.016,468.927
			c0,3.706-0.172,5.961,0.014,9.534c0.053,0.331,0.019-0.173,0.052-0.28"/>
		<path fill="none" stroke="#000000" stroke-width="0.75" stroke-miterlimit="10" d="M454.033,468.55
			c0.222,4.442,0.012,7.195,0.053,10.066"/>
		<path fill="none" stroke="#000000" stroke-width="0.75" stroke-miterlimit="10" d="M449.514,473.818
			c2.474-1.388,4.657-4.115,7.364-4.908"/>
	</g>
	<g>
		<path fill="none" stroke="#000000" stroke-width="0.75" stroke-miterlimit="10" d="M444.961,500.933c1.229,0-0.184-0.011,1.047,0
			c1.144,0.01,2.266,0.192,3.406,0.04c2.942-0.396,3.627-0.34,4.647-0.34"/>
		<path fill="none" stroke="#000000" stroke-width="0.75" stroke-miterlimit="10" d="M444.995,491.223
			c0.354-0.041,0.392,0.089,1.622,0.101c0.729,0.005,1.248,0.008,2.807-0.202c0.655-0.087,3.533-0.412,4.555-0.284"/>
		<path fill="none" stroke="#000000" stroke-width="0.75" stroke-miterlimit="10" d="M445.016,491.09
			c0,3.706-0.172,5.961,0.014,9.534c0.053,0.331,0.019-0.173,0.052-0.28"/>
		<path fill="none" stroke="#000000" stroke-width="0.75" stroke-miterlimit="10" d="M454.033,490.713
			c0.222,4.441,0.012,7.195,0.053,10.066"/>
		<path fill="none" stroke="#000000" stroke-width="0.75" stroke-miterlimit="10" d="M449.514,495.981
			c2.474-1.388,4.657-4.115,7.364-4.908"/>
	</g>
	<g>
		<path fill="none" stroke="#000000" stroke-width="0.75" stroke-miterlimit="10" d="M444.961,523.798c1.229,0-0.184-0.01,1.047,0
			c1.144,0.011,2.266,0.193,3.406,0.04c2.942-0.396,3.627-0.339,4.647-0.339"/>
		<path fill="none" stroke="#000000" stroke-width="0.75" stroke-miterlimit="10" d="M444.995,514.088
			c0.354-0.04,0.392,0.09,1.622,0.101c0.729,0.005,1.248,0.009,2.807-0.201c0.655-0.087,3.533-0.413,4.555-0.284"/>
		<path fill="none" stroke="#000000" stroke-width="0.75" stroke-miterlimit="10" d="M445.016,513.955
			c0,3.707-0.172,5.962,0.014,9.535c0.053,0.33,0.019-0.173,0.052-0.281"/>
		<path fill="none" stroke="#000000" stroke-width="0.75" stroke-miterlimit="10" d="M454.033,513.578
			c0.222,4.442,0.012,7.195,0.053,10.066"/>
		<path fill="none" stroke="#000000" stroke-width="0.75" stroke-miterlimit="10" d="M449.514,518.848
			c2.474-1.388,4.657-4.115,7.364-4.908"/>
	</g>
	<g>
		<path fill="none" stroke="#000000" stroke-width="0.75" stroke-miterlimit="10" d="M444.961,588.624c1.229,0-0.184-0.01,1.047,0
			c1.144,0.011,2.266,0.193,3.406,0.04c2.942-0.396,3.627-0.339,4.647-0.339"/>
		<path fill="none" stroke="#000000" stroke-width="0.75" stroke-miterlimit="10" d="M444.995,578.914
			c0.354-0.04,0.392,0.09,1.622,0.101c0.729,0.005,1.248,0.009,2.807-0.201c0.655-0.087,3.533-0.413,4.555-0.284"/>
		<path fill="none" stroke="#000000" stroke-width="0.75" stroke-miterlimit="10" d="M445.016,578.781
			c0,3.707-0.172,5.962,0.014,9.535c0.053,0.33,0.019-0.173,0.052-0.281"/>
		<path fill="none" stroke="#000000" stroke-width="0.75" stroke-miterlimit="10" d="M454.033,578.404
			c0.222,4.442,0.012,7.195,0.053,10.066"/>
		<path fill="none" stroke="#000000" stroke-width="0.75" stroke-miterlimit="10" d="M449.514,583.674
			c2.474-1.388,4.657-4.115,7.364-4.908"/>
	</g>
	<path fill="none" stroke="#000000" stroke-miterlimit="10" d="M334.5,441.554c44.227,0,88.752-4.288,133.012-2.024"/>
	<path fill="none" stroke="#000000" stroke-miterlimit="10" d="M334.5,459.666c44.227,0,88.752-4.287,133.012-2.024"/>
	<path fill="none" stroke="#000000" stroke-miterlimit="10" d="M334.5,567.53c44.227,0,88.752-4.288,133.012-2.024"/>
	<path fill="none" stroke="#000000" stroke-miterlimit="10" d="M334.5,603.706c44.227,0,88.752-4.288,133.012-2.024"/>
	<g>
		<path fill="none" stroke="#000000" stroke-width="0.8292" stroke-miterlimit="10" d="M337.423,465.031
			c41.061,0,82.107,0.525,123.308,0.525c-1.021,0-2.043,0-3.066,0"/>
		<path fill="none" stroke="#000000" stroke-width="0.8292" stroke-miterlimit="10" d="M337.423,481.189
			c41.061,0,82.107,0.526,123.308,0.526c-1.021,0-2.043,0-3.066,0"/>
		<path fill="none" stroke="#000000" stroke-width="0.8292" stroke-miterlimit="10" d="M337.599,464.592c0,5.609,0,11.221,0,16.831"
			/>
		<path fill="none" stroke="#000000" stroke-width="0.8292" stroke-miterlimit="10" d="M460.209,465.294c0,5.61,0,11.222,0,16.831"
			/>
	</g>
	<text transform="matrix(1 0 0 1 342.4766 499.1904)" font-family="'Journal'" font-size="11.5716">Dick L</text>
	<g>
		<path fill="none" stroke="#000000" stroke-width="0.8292" stroke-miterlimit="10" d="M337.423,487.896
			c41.061,0,82.107,0.526,123.308,0.526c-1.021,0-2.043,0-3.066,0"/>
		<path fill="none" stroke="#000000" stroke-width="0.8292" stroke-miterlimit="10" d="M337.423,504.056
			c41.061,0,82.107,0.525,123.308,0.525c-1.021,0-2.043,0-3.066,0"/>
		<path fill="none" stroke="#000000" stroke-width="0.8292" stroke-miterlimit="10" d="M337.599,487.457c0,5.61,0,11.222,0,16.831"
			/>
		<path fill="none" stroke="#000000" stroke-width="0.8292" stroke-miterlimit="10" d="M460.209,488.16c0,5.609,0,11.221,0,16.831"
			/>
	</g>
	<text transform="matrix(1 0 0 1 342.4766 522.0566)" font-family="'Journal'" font-size="11.5716">Jack A</text>
	<g>
		<path fill="none" stroke="#000000" stroke-width="0.8292" stroke-miterlimit="10" d="M337.423,510.763
			c41.061,0,82.107,0.526,123.308,0.526c-1.021,0-2.043,0-3.066,0"/>
		<path fill="none" stroke="#000000" stroke-width="0.8292" stroke-miterlimit="10" d="M337.423,526.921
			c41.061,0,82.107,0.526,123.308,0.526c-1.021,0-2.043,0-3.066,0"/>
		<path fill="none" stroke="#000000" stroke-width="0.8292" stroke-miterlimit="10" d="M337.599,510.323c0,5.609,0,11.221,0,16.831"
			/>
		<path fill="none" stroke="#000000" stroke-width="0.8292" stroke-miterlimit="10" d="M460.209,511.025c0,5.61,0,11.222,0,16.832"
			/>
	</g>
</g>
<g id="Admin-Edit_Employee">
</g>
<g id="Team_Totals">
</g>
<g id="Shop_Totals" display="none">
</g>
<g id="Team_Lead_ALL">
</g>
</svg>
