=CONCATENATE("insert into dmf_data values('",$B$35,"',",$E$36,"','2014',",E37,",",201409,");")



start with full copy from KPI's sheet, generate insert for Sep, copy over sep with oct, etc etc etc , then copy honda over gm



insert into dfm_data values('Rydell Chev GF','eLead Contact %','Jan','2014',0.74,201501);


-- this is close, first cut worked,
xif cell is blank return 0
xdecode year with formula
decode yearmonth with formula - nope, send a 0, then update in sql
xreplace Dec. in spreadsheet with Dec

=CONCATENATE("insert into dfm_data values('",$B$35,"','",A37,"','",$E$36,"','2014',",E37,",",201501,");")


if cell is blank return 0
=CONCATENATE("insert into dfm_data values('",$B$35,"','",A37,"','",$E$36,"','2014',",IF(ISBLANK(E37),0,E37),",",201501,");")

decode year with formula
=CONCATENATE("insert into dfm_data values('",$B$35,"','",A37,"','",$E$36,"',",IF($E$36="Jan",2015,2014),IF(ISBLANK(E37),0,E37),",",201501,");")
need comma after if
=CONCATENATE("insert into dfm_data values('",$B$35,"','",A37,"','",$E$36,"',",IF($E$36="Jan",2015,2014),",",IF(ISBLANK(E37),0,E37),",",201501,");")
now will ads insert this integer into a text field
nope, need ticks
=CONCATENATE("insert into dfm_data values('",$B$35,"','",A37,"','",$E$36,"',","'",IF($E$36="Jan",2015,2014),"',",IF(ISBLANK(E37),0,E37),",",201501,");")

