Last Name,First Name,User ID,Hire Date,Request Status,Scheduled Date,Hours,Allocation Type,Currently With,Started On,Last Sent,Filed On,Form Title,view,,
Hastings,Dawn,163096,01/06/1986,Approved,12/26/2014,8.00,Paid Time Off,-,9/12/2014,-,9/12/2014,Time Off Request,view,,
Miller,Kim,196341,08/18/2008,Approved,12/26/2014,8.00,Paid Time Off,-,9/12/2014,-,9/12/2014,Time Off Request,view,,
Hastings,Dawn,163096,01/06/1986,Approved,12/24/2014,8.00,Paid Time Off,-,9/12/2014,-,9/12/2014,Time Off Request,view,,
Miller,Kim,196341,08/18/2008,Approved,12/24/2014,8.00,Paid Time Off,-,9/12/2014,-,9/12/2014,Time Off Request,view,,
Miller,Kim,196341,08/18/2008,Approved,12/15/2014,8.00,Paid Time Off,-,9/12/2014,-,9/12/2014,Time Off Request,view,,
Miller,Kim,196341,08/18/2008,Approved,12/12/2014,8.00,Paid Time Off,-,9/12/2014,-,9/12/2014,Time Off Request,view,,
Hastings,Dawn,163096,01/06/1986,Approved,12/9/2014,8.00,Paid Time Off,-,9/12/2014,-,9/12/2014,Time Off Request,view,,
Hastings,Dawn,163096,01/06/1986,Approved,12/8/2014,8.00,Paid Time Off,-,9/12/2014,-,9/12/2014,Time Off Request,view,,
Hastings,Dawn,163096,01/06/1986,Approved,11/28/2014,8.00,Paid Time Off,-,9/12/2014,-,9/12/2014,Time Off Request,view,,
Miller,Kim,196341,08/18/2008,Approved,11/28/2014,8.00,Paid Time Off,-,9/12/2014,-,9/12/2014,Time Off Request,view,,
Berg,Stephen,113000,11/13/1972,Approved,11/28/2014,8.00,Paid Time Off,-,9/12/2014,-,9/12/2014,Time Off Request,view,,
Berg,Stephen,113000,11/13/1972,Approved,11/27/2014,8.00,Paid Time Off,-,9/12/2014,-,9/12/2014,Time Off Request,view,,
Berg,Stephen,113000,11/13/1972,Approved,11/26/2014,8.00,Paid Time Off,-,9/12/2014,-,9/12/2014,Time Off Request,view,,
Berg,Stephen,113000,11/13/1972,Approved,11/25/2014,8.00,Paid Time Off,-,9/12/2014,-,9/12/2014,Time Off Request,view,,
Miller,Kim,196341,08/18/2008,Approved,11/21/2014,8.00,Paid Time Off,-,9/12/2014,-,9/12/2014,Time Off Request,view,,
Miller,Kim,196341,08/18/2008,Approved,11/14/2014,8.00,Paid Time Off,-,9/12/2014,-,9/12/2014,Time Off Request,view,,
Cochran,Michelle,126200,01/24/2011,Approved,11/12/2014,8.00,Unpaid Time Off,-,9/12/2014,-,9/12/2014,Time Off Request,view,,
Cochran,Michelle,126200,01/24/2011,Approved,11/11/2014,8.00,Unpaid Time Off,-,9/12/2014,-,9/12/2014,Time Off Request,view,,
Cochran,Michelle,126200,01/24/2011,Approved,11/10/2014,8.00,Unpaid Time Off,-,9/12/2014,-,9/12/2014,Time Off Request,view,,
Cochran,Michelle,126200,01/24/2011,Approved,11/9/2014,8.00,Unpaid Time Off,-,9/12/2014,-,9/12/2014,Time Off Request,view,,
Cochran,Michelle,126200,01/24/2011,Approved,11/8/2014,8.00,Unpaid Time Off,-,9/12/2014,-,9/12/2014,Time Off Request,view,,
Cochran,Michelle,126200,01/24/2011,Approved,11/7/2014,8.00,Unpaid Time Off,-,9/12/2014,-,9/12/2014,Time Off Request,view,,
Cochran,Michelle,126200,01/24/2011,Approved,11/6/2014,8.00,Unpaid Time Off,-,9/12/2014,-,9/12/2014,Time Off Request,view,,
Cochran,Michelle,126200,01/24/2011,Approved,10/29/2014,8.00,Unpaid Time Off,-,9/12/2014,-,9/12/2014,Time Off Request,view,,
Cochran,Michelle,126200,01/24/2011,Approved,10/28/2014,8.00,Unpaid Time Off,-,9/12/2014,-,9/12/2014,Time Off Request,view,,
Cochran,Michelle,126200,01/24/2011,Approved,10/27/2014,8.00,Unpaid Time Off,-,9/12/2014,-,9/12/2014,Time Off Request,view,,
Cochran,Michelle,126200,01/24/2011,Approved,10/26/2014,8.00,Unpaid Time Off,-,9/12/2014,-,9/12/2014,Time Off Request,view,,
Cochran,Michelle,126200,01/24/2011,Approved,10/25/2014,8.00,Unpaid Time Off,-,9/12/2014,-,9/12/2014,Time Off Request,view,,
Cochran,Michelle,126200,01/24/2011,Approved,10/24/2014,8.00,Unpaid Time Off,-,9/12/2014,-,9/12/2014,Time Off Request,view,,
Cochran,Michelle,126200,01/24/2011,Approved,10/23/2014,8.00,Unpaid Time Off,-,9/12/2014,-,9/12/2014,Time Off Request,view,,
Cochran,Michelle,126200,01/24/2011,Approved,10/22/2014,8.00,Unpaid Time Off,-,9/12/2014,-,9/12/2014,Time Off Request,view,,
Cochran,Michelle,126200,01/24/2011,Approved,10/21/2014,8.00,Unpaid Time Off,-,9/12/2014,-,9/12/2014,Time Off Request,view,,
Miller,Kim,196341,08/18/2008,Approved,10/20/2014,8.00,Paid Time Off,-,9/12/2014,-,9/12/2014,Time Off Request,view,,
Cochran,Michelle,126200,01/24/2011,Approved,10/20/2014,8.00,Unpaid Time Off,-,9/12/2014,-,9/12/2014,Time Off Request,view,,
Roehrich,Nickolas,1117950,08/25/2014,Approved,10/18/2014,9.00,Unpaid Time Off,-,9/15/2014,-,9/16/2014,Time Off Request,view,,
Rath,Alexander,1114350,02/04/2013,Approved,10/17/2014,8.00,Paid Time Off,-,9/16/2014,-,9/16/2014,Time Off Request,view,,
Miller,Kim,196341,08/18/2008,Approved,10/17/2014,8.00,Paid Time Off,-,9/12/2014,-,9/12/2014,Time Off Request,view,,
Walior,Susan,1147062,03/03/1997,Approved,10/13/2014,8.00,Paid Time Off,-,9/15/2014,-,9/15/2014,Time Off Request,view,,
Rath,Alexander,1114350,02/04/2013,Approved,10/10/2014,8.00,Paid Time Off,-,9/16/2014,-,9/16/2014,Time Off Request,view,,
Berg,Stephen,113000,11/13/1972,Approved,10/10/2014,8.00,Paid Time Off,-,9/12/2014,-,9/12/2014,Time Off Request,view,,
Berg,Stephen,113000,11/13/1972,Approved,10/9/2014,8.00,Paid Time Off,-,9/12/2014,-,9/12/2014,Time Off Request,view,,
Berg,Stephen,113000,11/13/1972,Approved,10/8/2014,8.00,Paid Time Off,-,9/12/2014,-,9/12/2014,Time Off Request,view,,
Telken,Wyatt,1135710,07/20/2011,Approved,10/8/2014,4.00,Unpaid Time Off,-,9/17/2014,-,9/17/2014,Time Off Request,view,,
Berg,Stephen,113000,11/13/1972,Approved,10/7/2014,8.00,Paid Time Off,-,9/12/2014,-,9/12/2014,Time Off Request,view,,
Berg,Stephen,113000,11/13/1972,Approved,10/6/2014,8.00,Paid Time Off,-,9/12/2014,-,9/12/2014,Time Off Request,view,,
McCoy,Blake,193180,03/11/2013,Approved,10/3/2014,8.00,Paid Time Off,-,9/17/2014,-,9/17/2014,Time Off Request,view,,
Miller,Kim,196341,08/18/2008,Approved,10/3/2014,8.00,Paid Time Off,-,9/12/2014,-,9/12/2014,Time Off Request,view,,
Berg,Stephen,113000,11/13/1972,Approved,10/3/2014,8.00,Paid Time Off,-,9/12/2014,-,9/12/2014,Time Off Request,view,,
Telken,Wyatt,1135710,07/20/2011,Approved,10/2/2014,4.00,Unpaid Time Off,-,9/17/2014,-,9/17/2014,Time Off Request,view,,
Telken,Wyatt,1135710,07/20/2011,Approved,10/1/2014,4.00,Unpaid Time Off,-,9/17/2014,-,9/17/2014,Time Off Request,view,,
Richardson,Darrick,1116800,04/11/2011,Approved,9/25/2014,5.00,Unpaid Time Off,-,9/16/2014,-,9/16/2014,Time Off Request,view,,
Richardson,Darrick,1116800,04/11/2011,Approved,9/24/2014,5.00,Unpaid Time Off,-,9/16/2014,-,9/16/2014,Time Off Request,view,,
Richardson,Darrick,1116800,04/11/2011,Approved,9/23/2014,6.00,Unpaid Time Off,-,9/16/2014,-,9/16/2014,Time Off Request,view,,
Welli,Gulled,1148010,07/20/2011,Approved,9/22/2014,8.00,Paid Time Off,-,9/15/2014,-,9/15/2014,Time Off Request,view,,
Neumann,Andrew,1102195,12/10/2012,Approved,9/19/2014,8.00,Paid Time Off,-,9/11/2014,-,9/15/2014,Time Off Request,view,,
Walior,Susan,1147062,03/03/1997,Approved,9/19/2014,8.00,Paid Time Off,-,9/15/2014,-,9/15/2014,Time Off Request,view,,
Neumann,Andrew,1102195,12/10/2012,Approved,9/18/2014,8.00,Paid Time Off,-,9/11/2014,-,9/15/2014,Time Off Request,view,,
Bertsch,Jared,113410,08/31/2013,Approved,9/17/2014,4.00,Unpaid Time Off,-,9/15/2014,-,9/15/2014,Time Off Request,view,,
Crane,Aubrey,128120,01/14/2013,Pending,9/16/2014,6.50,Absent,-,9/16/2014,-,9/16/2014,Absent/Tardiness Report,view,,
Hepola,James,164920,11/15/2010,Pending,9/16/2014,2.00,Absent,-,9/17/2014,-,9/17/2014,Absent/Tardiness Report,view,,
McCoy,Blake,193180,03/11/2013,Pending,9/15/2014,8.00,Absent,-,9/16/2014,-,9/16/2014,Absent/Tardiness Report,view,,
Stallmo,Richard,1130700,09/16/2009,Approved,9/15/2014,8.00,Paid Time Off,-,9/11/2014,-,9/12/2014,Time Off Request,view,,
Shumaker,Martin,1126060,07/01/2013,Approved,9/12/2014,8.00,Paid Time Off,Martin Shumaker,9/11/2014,9/11/2014,-,Time Off Request,view,,
,,,,,,,,,,,,,,,
