<?xml version="1.0" standalone="no"?>
<!DOCTYPE svg PUBLIC "-//W3C//DTD SVG 1.1//EN" "http://www.w3.org/Graphics/SVG/1.1/DTD/svg11.dtd" >
<svg xmlns="http://www.w3.org/2000/svg">
<metadata></metadata>
<defs>
<font id="arimobold_italic" horiz-adv-x="1139" >
<font-face units-per-em="2048" ascent="1638" descent="-410" />
<missing-glyph horiz-adv-x="569" />
<glyph horiz-adv-x="2048" />
<glyph horiz-adv-x="2048" />
<glyph unicode="&#xd;" horiz-adv-x="2048" />
<glyph unicode=" "  horiz-adv-x="569" />
<glyph unicode="&#x09;" horiz-adv-x="569" />
<glyph unicode="&#xa0;" horiz-adv-x="569" />
<glyph unicode="!" horiz-adv-x="682" d="M79 0l52 270h288l-52 -270h-288zM193 426l160 983h294l-224 -983h-230z" />
<glyph unicode="&#x22;" horiz-adv-x="971" d="M219 898l72 511h273l-126 -511h-219zM645 898l72 511h275l-128 -511h-219z" />
<glyph unicode="#" d="M65 381v149h188l70 332h-207v148h238l84 385h153l-82 -385h307l84 385h156l-84 -385h164v-148h-197l-69 -332h215v-149h-246l-82 -381h-156l80 381h-307l-80 -381h-153l79 381h-155zM407 530h309l70 332h-307z" />
<glyph unicode="$" d="M-11 366l262 42q14 -177 194 -177l73 388q-180 45 -277 140t-97 229q0 123 62.5 213.5t186.5 141.5t279 51l24 126l110 -4l-27 -130q162 0 263.5 -79t114.5 -218l-261 -57q-14 77 -54.5 117.5t-100.5 40.5l-67 -353q209 -50 307.5 -138.5t98.5 -224.5q0 -213 -141 -327.5 t-423 -125.5l-33 -173h-112l32 175q-176 0 -289 93.5t-125 249.5zM412 1006q0 -49 32.5 -81.5t121.5 -61.5l67 331q-99 0 -160 -53t-61 -135zM554 231q115 0 185.5 49t70.5 133q0 77 -44 117.5t-139 62.5z" />
<glyph unicode="%" horiz-adv-x="1821" d="M112 841q0 89 24 174q84 406 410 406q150 0 229.5 -79.5t79.5 -228.5q0 -82 -26 -178q-29 -137 -90 -227t-144.5 -137t-187.5 -47q-142 0 -218.5 84t-76.5 233zM289 0l1086 1409h199l-1088 -1409h-197zM325 827q0 -142 86 -142q79 0 127.5 64.5t74.5 195.5q28 109 28 186 q0 139 -96 139q-78 0 -123 -60t-71 -184.5t-26 -198.5zM1021 302q0 89 24 174q84 406 410 406q150 0 229.5 -79.5t79.5 -228.5q0 -82 -26 -178q-29 -137 -90 -227t-144.5 -137t-187.5 -47q-142 0 -218.5 84t-76.5 233zM1234 288q0 -142 86 -142q79 0 127.5 64.5t74.5 195.5 q28 109 28 186q0 139 -96 139q-78 0 -123 -60t-71 -184.5t-26 -198.5z" />
<glyph unicode="&#x26;" horiz-adv-x="1479" d="M49 354q0 309 426 457q-15 48 -25 111t-10 115q0 172 114.5 276t313.5 104q159 0 247.5 -67.5t88.5 -189.5q0 -91 -45.5 -161.5t-131 -129t-291.5 -142.5q43 -119 81 -190t91 -142q133 142 234 365l187 -83q-45 -104 -120 -217.5t-158 -198.5q75 -64 184 -64q63 0 111 16 l-39 -203q-66 -22 -139 -22q-174 0 -305 117q-71 -55 -123 -77.5t-121 -35t-155 -12.5q-201 0 -308 96.5t-107 277.5zM304 360q0 -85 52 -137.5t137 -52.5q63 0 125 22.5t107 56.5q-124 164 -200 382q-124 -56 -172.5 -122t-48.5 -149zM667 1041q0 -81 20 -145 q142 54 192 85.5t75.5 70.5t25.5 90t-33.5 78t-91.5 27q-85 0 -136.5 -55t-51.5 -151z" />
<glyph unicode="'" horiz-adv-x="487" d="M198 898l73 511h272l-126 -511h-219z" />
<glyph unicode="(" horiz-adv-x="682" d="M74 296q0 363 132 666t387 522h281q-524 -500 -524 -1204q0 -399 147 -705h-275q-148 316 -148 721z" />
<glyph unicode=")" horiz-adv-x="682" d="M-180 -425q525 513 525 1234q0 170 -40 351t-109 324h265q161 -320 161 -691q0 -375 -134 -686t-387 -532h-281z" />
<glyph unicode="*" horiz-adv-x="797" d="M88 1042l68 197l239 -104l-18 274h215l-18 -274l235 104l68 -197l-250 -61l186 -213l-184 -121l-146 252l-149 -252l-186 123l190 211z" />
<glyph unicode="+" horiz-adv-x="1196" d="M125 569v224h399v408h226v-408h402v-224h-402v-408h-226v408h-399z" />
<glyph unicode="," horiz-adv-x="569" d="M-20 -317q78 78 129.5 161t65.5 156h-129l59 305h289l-47 -239q-23 -120 -66 -211.5t-116 -171.5h-185z" />
<glyph unicode="-" horiz-adv-x="682" d="M56 409l47 244h520l-47 -244h-520z" />
<glyph unicode="." horiz-adv-x="569" d="M46 0l59 305h289l-59 -305h-289z" />
<glyph unicode="/" horiz-adv-x="569" d="M-76 -41l587 1525h238l-583 -1525h-242z" />
<glyph unicode="0" d="M85 454q0 139 44.5 344t123.5 346t195 213.5t276 72.5q395 0 395 -466q0 -115 -38 -299q-144 -685 -603 -685q-200 0 -296.5 117.5t-96.5 356.5zM358 415q0 -214 139 -214q117 0 187.5 107.5t116 346.5t45.5 322q0 233 -152 233q-86 0 -139.5 -47t-91 -151.5t-71.5 -309 t-34 -287.5z" />
<glyph unicode="1" d="M33 0l43 231h349l179 921l-381 -214l47 242l396 229h270l-230 -1178h323l-44 -231h-952z" />
<glyph unicode="2" d="M-32 0l37 195q49 85 113 156t139.5 135.5t256.5 190.5q148 104 202 158t83.5 110t29.5 118q0 143 -162 143q-88 0 -142 -44t-81 -140l-266 59q53 179 181 264t328 85q210 0 320.5 -87.5t110.5 -259.5q0 -96 -42 -183t-126.5 -168.5t-273.5 -208.5q-132 -90 -210.5 -158 t-122.5 -134h654l-44 -231h-985z" />
<glyph unicode="3" d="M16 343l282 38q11 -90 63 -132.5t163 -42.5q104 0 162.5 56t58.5 154q0 186 -220 186h-107l44 227h73q149 0 222.5 58t73.5 164q0 72 -38.5 113.5t-118.5 41.5q-186 0 -237 -184l-267 52q102 356 515 356q203 0 317 -91t114 -253q0 -156 -97 -251t-264 -110l-1 -4 q135 -21 205.5 -99.5t70.5 -203.5q0 -124 -65 -225.5t-183 -157t-271 -55.5q-226 0 -352.5 93t-142.5 270z" />
<glyph unicode="4" d="M-34 286l41 207l717 916h370l-178 -913h188l-42 -210h-188l-54 -286h-268l54 286h-640zM259 496h389l102 524q18 90 50 186q-46 -78 -117 -170z" />
<glyph unicode="5" d="M20 329l283 45q18 -93 65.5 -130.5t141.5 -37.5q125 0 196.5 76.5t71.5 203.5q0 105 -49.5 163t-139.5 58q-123 0 -202 -91h-274l203 793h847l-43 -231h-594l-87 -334q18 16 42.5 32t55.5 29t70 21t87 8q167 0 268.5 -113t101.5 -303q0 -161 -70.5 -283.5t-202.5 -188.5 t-305 -66q-199 0 -318.5 88.5t-147.5 260.5z" />
<glyph unicode="6" d="M95 487q0 269 83.5 486.5t233 337t333.5 119.5q180 0 283.5 -83.5t121.5 -240.5l-266 -41q-14 73 -51 108t-103 35q-115 0 -200 -115t-124 -347q53 72 134.5 116.5t184.5 44.5q164 0 258.5 -100t94.5 -274q0 -151 -70 -279t-194.5 -201t-280.5 -73q-210 0 -324 133 t-114 374zM369 429q0 -105 49 -167t140 -62q107 0 170.5 81.5t63.5 217.5q0 97 -47.5 149t-130.5 52q-67 0 -124 -34t-89 -96t-32 -141z" />
<glyph unicode="7" d="M143 1178l45 231h1031l-44 -223l-162 -194q-259 -306 -374 -523t-167 -469h-298q35 182 103.5 335.5t162 293.5t209 273.5t244.5 275.5h-750z" />
<glyph unicode="8" d="M27 360q0 147 94.5 245t264.5 132v4q-92 41 -139.5 121.5t-47.5 189.5q0 177 137 277t371 100q199 0 314 -91.5t115 -246.5q0 -140 -85.5 -234t-230.5 -114l-1 -4q111 -33 170.5 -114t59.5 -193q0 -208 -148.5 -330t-407.5 -122q-222 0 -344 100.5t-122 279.5zM317 377 q0 -95 53.5 -147t149.5 -52q108 0 174 72t66 194q0 95 -53 145.5t-146 50.5q-116 0 -180 -71t-64 -192zM476 1020q0 -87 45 -133.5t127 -46.5q94 0 148.5 59.5t54.5 164.5q0 168 -172 168q-95 0 -149 -55.5t-54 -156.5z" />
<glyph unicode="9" d="M48 311l274 48q29 -157 176 -157q233 0 319 451q-65 -77 -139 -113.5t-178 -36.5q-161 0 -257 107t-96 283q0 149 71 273.5t196.5 194t277.5 69.5q200 0 319 -128.5t119 -344.5q0 -172 -48.5 -364.5t-135.5 -332t-205 -210t-262 -70.5q-182 0 -293 86t-138 245zM432 900 q0 -85 48 -137.5t131 -52.5q114 0 179 80t65 219q0 87 -50 144t-127 57q-114 0 -180 -84t-66 -226z" />
<glyph unicode=":" horiz-adv-x="682" d="M89 0l55 281h288l-55 -281h-288zM235 752l55 282h288l-55 -282h-288z" />
<glyph unicode="&#x3c;" horiz-adv-x="1196" d="M124 516v322l1027 391v-228l-833 -325l833 -324v-227z" />
<glyph unicode="=" horiz-adv-x="1196" d="M123 291v221h1027v-221h-1027zM123 842v223h1027v-223h-1027z" />
<glyph unicode="&#x3e;" horiz-adv-x="1196" d="M124 125v227l832 324l-832 325v228l1027 -391v-322z" />
<glyph unicode="?" horiz-adv-x="1251" d="M184 1048q117 382 561 382q214 0 339 -94t125 -261q0 -90 -37.5 -161t-105.5 -131.5t-225 -147.5q-78 -51 -106.5 -78t-45.5 -58t-23 -73h-267q14 77 45 134.5t79.5 104t166.5 119.5q69 43 114.5 76t72.5 63.5t38 61.5t11 70q0 63 -48 104.5t-149 41.5q-227 0 -279 -193z M309 0l52 270h289l-52 -270h-289z" />
<glyph unicode="@" horiz-adv-x="1997" d="M150 491q0 283 126.5 512t349.5 355t499 126q243 0 421 -90.5t271.5 -255.5t93.5 -383q0 -182 -63.5 -332t-175.5 -234.5t-242 -84.5q-92 0 -141.5 45.5t-49.5 126.5q0 37 6 67h-6q-50 -105 -148.5 -172t-201.5 -67q-157 0 -243.5 101.5t-86.5 283.5q0 163 64.5 306 t179 224.5t256.5 81.5q195 0 264 -174h6l39 152h156l-117 -506q-37 -172 -37 -240q0 -50 23.5 -71t54.5 -21q80 0 153 69.5t115.5 186t42.5 256.5q0 175 -76.5 309.5t-220.5 207.5t-335 73q-240 0 -423 -105t-287.5 -303t-104.5 -444q0 -195 79.5 -342.5t223.5 -223 t338 -75.5q294 0 589 155l62 -122q-168 -95 -328.5 -136t-329.5 -41q-236 0 -415.5 95.5t-280 276t-100.5 413.5zM725 491q0 -114 48.5 -180t148.5 -66q66 0 128.5 42t111.5 121.5t75.5 181t26.5 161.5q0 95 -59.5 155t-153.5 60t-168.5 -62.5t-116 -177t-41.5 -235.5z" />
<glyph unicode="A" horiz-adv-x="1479" d="M-42 0l787 1409h348l238 -1409h-292l-55 360h-537l-195 -360h-294zM566 582h395l-67 452q-18 135 -18 158q-21 -64 -98 -212z" />
<glyph unicode="B" horiz-adv-x="1479" d="M36 0l274 1409h584q251 0 380 -82.5t129 -243.5q0 -137 -82.5 -224.5t-241.5 -120.5q136 -23 212.5 -105.5t76.5 -201.5q0 -211 -156.5 -321t-470.5 -110h-705zM373 219h328q209 0 290 50.5t81 167.5q0 90 -68 138t-222 48h-330zM494 841h294q175 0 248.5 46t73.5 151 q0 80 -57 116t-191 36h-301z" />
<glyph unicode="C" horiz-adv-x="1479" d="M100 569q0 252 105 450.5t293.5 304.5t428.5 106q230 0 377.5 -98.5t198.5 -293.5l-274 -71q-29 107 -111 169t-200 62q-242 0 -379.5 -168t-137.5 -457q0 -173 85.5 -267.5t244.5 -94.5q266 0 418 258l227 -117q-210 -372 -665 -372q-191 0 -329.5 72t-210 205.5 t-71.5 311.5z" />
<glyph unicode="D" horiz-adv-x="1479" d="M36 0l274 1409h424q333 0 510 -155t177 -447q0 -236 -99 -417t-287 -285.5t-421 -104.5h-578zM375 228h230q160 0 283.5 68.5t190 197.5t66.5 300q0 189 -105.5 288t-303.5 99h-176z" />
<glyph unicode="E" horiz-adv-x="1366" d="M36 0l273 1409h1108l-44 -228h-813l-69 -354h752l-44 -228h-752l-72 -371h854l-45 -228h-1148z" />
<glyph unicode="F" horiz-adv-x="1251" d="M36 0l273 1409h986l-44 -228h-691l-85 -436h668l-44 -228h-668l-101 -517h-294z" />
<glyph unicode="G" horiz-adv-x="1593" d="M100 583q0 250 104.5 444t296 298.5t441.5 104.5q228 0 381.5 -103t206.5 -288l-282 -78q-29 113 -112 175t-210 62q-159 0 -279 -75t-184 -213t-64 -318q0 -178 95.5 -279.5t269.5 -101.5q108 0 210 26t174 70l46 228h-342l39 208h614l-105 -568q-156 -107 -312 -150.5 t-348 -43.5q-300 0 -470 158.5t-170 443.5z" />
<glyph unicode="H" horiz-adv-x="1479" d="M36 0l273 1409h295l-109 -561h626l109 561h284l-274 -1409h-284l118 604h-626l-118 -604h-294z" />
<glyph unicode="I" horiz-adv-x="569" d="M36 0l273 1409h295l-274 -1409h-294z" />
<glyph unicode="J" d="M25 379l267 58q46 -226 207 -226q54 0 91 24t61 68t42 137l143 738h-281l44 231h575l-193 -986q-45 -231 -165 -337t-336 -106q-190 0 -303.5 96t-151.5 303z" />
<glyph unicode="K" horiz-adv-x="1479" d="M36 0l273 1409h295l-130 -639l760 639h369l-747 -616l465 -793h-326l-355 640l-211 -123l-101 -517h-292z" />
<glyph unicode="L" horiz-adv-x="1251" d="M36 0l273 1409h295l-229 -1181h756l-45 -228h-1050z" />
<glyph unicode="M" horiz-adv-x="1706" d="M36 0l274 1409h395l88 -788l25 -276q36 80 67 145t464 919h393l-274 -1409h-262l172 884q26 130 74 322l-69 -151q-79 -174 -114 -239l-412 -816h-210l-94 819q-31 291 -40 387q-28 -244 -43 -319l-172 -887h-262z" />
<glyph unicode="N" horiz-adv-x="1479" d="M36 0l274 1409h350l377 -1141l12 82q11 83 29 174l174 885h262l-274 -1409h-356l-374 1131q-23 -162 -38 -239l-174 -892h-262z" />
<glyph unicode="O" horiz-adv-x="1593" d="M100 573q0 235 105.5 438.5t292.5 311t430 107.5q293 0 462 -155.5t169 -423.5q0 -247 -105.5 -450.5t-294.5 -312t-432 -108.5q-193 0 -335.5 72t-217 206.5t-74.5 314.5zM400 581q0 -184 90 -276.5t251 -92.5t275 75t176.5 223t62.5 317q0 176 -87.5 273t-253.5 97 q-162 0 -276 -75t-176 -226t-62 -315z" />
<glyph unicode="P" horiz-adv-x="1366" d="M36 0l273 1409h541q246 0 382.5 -112t136.5 -310q0 -225 -153.5 -358t-410.5 -133h-377l-98 -496h-294zM471 723h289q155 0 232.5 58t77.5 190q0 102 -64 155.5t-184 53.5h-262z" />
<glyph unicode="Q" horiz-adv-x="1593" d="M100 573q0 235 105.5 438.5t292.5 311t430 107.5q293 0 462 -155.5t169 -423.5q0 -106 -20 -202q-27 -135 -84.5 -246.5t-141.5 -196t-192.5 -139t-238.5 -75.5q19 -98 64.5 -142t134.5 -44q80 0 150 14l-45 -195q-72 -25 -169 -25q-197 0 -303.5 94t-129.5 297 q-118 19 -208.5 69.5t-152 126t-92.5 173.5t-31 213zM400 581q0 -184 90 -276.5t251 -92.5t275 75t176.5 223t62.5 317q0 176 -87.5 273t-253.5 97q-162 0 -276 -75t-176 -226t-62 -315z" />
<glyph unicode="R" horiz-adv-x="1479" d="M36 0l274 1409h651q159 0 272.5 -49t172.5 -140t59 -214q0 -165 -108.5 -280t-294.5 -143l274 -583h-326l-230 534h-346l-103 -534h-295zM479 764h393q145 0 219.5 58.5t74.5 166.5q0 93 -63.5 142t-178.5 49h-364z" />
<glyph unicode="S" horiz-adv-x="1366" d="M25 365l289 49q21 -111 93.5 -162t212.5 -51q345 0 345 199q0 80 -60 126.5t-238 91.5q-184 49 -272.5 102t-135 129.5t-46.5 187.5q0 177 157 285t416 108q238 0 382 -86.5t177 -252.5l-288 -67q-22 90 -95.5 143.5t-191.5 53.5q-124 0 -195 -46.5t-71 -127.5 q0 -47 26 -80t76 -57.5t198 -64.5q159 -44 235 -82.5t121.5 -86.5t69.5 -110t24 -143q0 -216 -166 -329.5t-488 -113.5q-267 0 -407 94.5t-168 290.5z" />
<glyph unicode="T" horiz-adv-x="1251" d="M145 1181l44 228h1206l-44 -228h-456l-230 -1181h-295l230 1181h-455z" />
<glyph unicode="U" horiz-adv-x="1479" d="M119 431q0 44 7.5 105.5t15.5 98.5l148 774h295l-153 -810q-18 -87 -18 -172q0 -103 73 -159.5t201 -56.5q165 0 250.5 76t119.5 254l168 868h295l-171 -879q-55 -281 -220 -415.5t-458 -134.5q-264 0 -408.5 117.5t-144.5 333.5z" />
<glyph unicode="V" horiz-adv-x="1366" d="M171 1409h305l114 -905q16 -147 22 -266q47 106 75.5 167t513.5 1004h308l-772 -1409h-339z" />
<glyph unicode="W" horiz-adv-x="1933" d="M150 1409h280l36 -815q7 -168 7 -346l57 144l76 185l355 832h316l42 -1161q27 73 78.5 204.5t390.5 956.5h291l-638 -1409h-350l-27 812l-4 220l-1 84q-60 -160 -91.5 -239t-373.5 -877h-355z" />
<glyph unicode="X" horiz-adv-x="1366" d="M-94 0l652 736l-338 673h309l224 -471l402 471h313l-600 -677l367 -732h-307l-253 532l-455 -532h-314z" />
<glyph unicode="Y" horiz-adv-x="1366" d="M172 1409h292l259 -605l474 605h323l-684 -831l-112 -578h-294l112 578z" />
<glyph unicode="Z" horiz-adv-x="1251" d="M-48 0l40 209l927 969h-663l45 231h1014l-40 -205l-930 -973h782l-45 -231h-1130z" />
<glyph unicode="[" horiz-adv-x="682" d="M-54 -425l370 1909h542l-37 -190h-276l-297 -1528h276l-37 -191h-541z" />
<glyph unicode="\" horiz-adv-x="569" d="M111 1485h238l183 -1526h-243z" />
<glyph unicode="]" horiz-adv-x="682" d="M-174 -425l37 191h277l297 1528h-278l37 190h542l-371 -1909h-541z" />
<glyph unicode="^" horiz-adv-x="1196" d="M85 514l391 895h322l393 -895h-229l-326 752l-324 -752h-227z" />
<glyph unicode="_" d="M-120 -172h1177v-78h-1177v78z" />
<glyph unicode="`" horiz-adv-x="682" d="M289 1459l8 43h258l195 -288l-6 -31h-148z" />
<glyph unicode="a" d="M10 278q0 185 127.5 279.5t413.5 99.5l191 3q21 95 21 131q0 128 -127 128q-94 0 -140 -36.5t-63 -105.5l-263 31q34 144 153.5 219t317.5 75q207 0 303.5 -73t96.5 -222q0 -37 -24 -157l-71 -353q-8 -45 -8 -72q0 -24 10 -37t23 -19t26 -7.5t20 -1.5q30 0 62 7l-14 -155 q-42 -16 -85 -19t-88 -3q-100 0 -154 42t-54 111q0 37 5 64h-6q-84 -130 -166 -178.5t-200 -48.5q-140 0 -223.5 83.5t-83.5 214.5zM297 325q0 -70 39.5 -109.5t106.5 -39.5q83 0 151 64.5t95 170.5l22 92h-162q-117 -2 -184.5 -48t-67.5 -130z" />
<glyph unicode="b" horiz-adv-x="1251" d="M35 0q5 15 19.5 82t29.5 141l246 1261h281l-84 -427q-28 -144 -32 -144h4q56 84 145.5 136.5t210.5 52.5q159 0 248 -94.5t89 -259.5v-14q0 -188 -62 -379.5t-174.5 -283t-286.5 -91.5q-125 0 -203 52t-110 146h-2l-28 -111l-20 -67h-271zM407 401q0 -107 53 -167.5 t148 -60.5q101 0 158 62.5t95 212t38 246.5q0 105 -35.5 159t-128.5 54q-126 0 -201.5 -88t-109.5 -265q-17 -93 -17 -153z" />
<glyph unicode="c" d="M63 405q0 195 79 366t210.5 251t327.5 80q189 0 302 -95.5t127 -265.5l-284 -23q-11 191 -167 191q-107 0 -167.5 -73.5t-109.5 -260.5q-23 -115 -23 -168q0 -234 178 -234q83 0 137 52.5t86 155.5l271 -50q-107 -351 -510 -351q-220 0 -338.5 112.5t-118.5 312.5z" />
<glyph unicode="d" horiz-adv-x="1251" d="M58 354q0 191 64 374t179.5 278.5t278.5 95.5q256 0 314 -198h5q2 20 8 60t18 102l84 418h277l-238 -1253q-20 -112 -29 -231h-281q0 63 15 160h-4q-71 -93 -153.5 -137t-203.5 -44q-154 0 -244 102t-90 273zM355 393q0 -221 160 -221q81 0 139 34.5t99 106t65 179.5 t24 189q0 120 -47 174.5t-141 54.5q-102 0 -166.5 -69t-98.5 -202t-34 -246z" />
<glyph unicode="e" d="M63 418q0 207 72 362.5t204.5 238.5t306.5 83q209 0 322.5 -107.5t113.5 -303.5q0 -99 -24 -215h-700q-7 -38 -7 -89q0 -106 46.5 -162.5t137.5 -56.5q147 0 213 169l245 -74q-75 -159 -186 -221t-291 -62q-213 0 -333 115.5t-120 322.5zM391 663h431l3 56 q0 107 -49.5 156t-129.5 49q-96 0 -161.5 -66.5t-93.5 -194.5z" />
<glyph unicode="f" horiz-adv-x="682" d="M74 0l174 892h-158l37 190h158l22 113q30 155 124.5 222t266.5 67q73 0 155 -17l-36 -181q-11 2 -43 6t-53 4q-67 0 -97 -32t-43 -97l-16 -85h213l-37 -190h-213l-174 -892h-280z" />
<glyph unicode="g" horiz-adv-x="1251" d="M-7 -142l283 30q27 -127 188 -127q110 0 171 59t95 207q20 96 31 174h-2q-63 -89 -110.5 -128t-107 -60t-136.5 -21q-155 0 -247.5 100t-92.5 264q0 201 63.5 385.5t175 272t282.5 87.5q118 0 203 -56t112 -152h2q6 29 24.5 105t23.5 84h265l-19 -83l-30 -146l-165 -843 q-47 -233 -182 -334t-389 -101q-199 0 -306 69t-132 214zM359 396q0 -199 173 -199q89 0 162 67t112.5 182.5t39.5 239.5q0 104 -52 163.5t-146 59.5q-76 0 -125.5 -32t-84 -103.5t-57 -188t-22.5 -189.5z" />
<glyph unicode="h" horiz-adv-x="1251" d="M35 0l286 1484h280l-79 -405l-39 -182h3q75 104 165.5 154t207.5 50q152 0 229 -73t77 -211q0 -25 -7 -79.5t-14 -84.5l-127 -653h-279l118 595q26 124 26 165q0 129 -152 129q-101 0 -187 -82t-108 -201l-118 -606h-282z" />
<glyph unicode="i" horiz-adv-x="569" d="M35 0l210 1082h281l-211 -1082h-280zM282 1277l41 207h281l-41 -207h-281z" />
<glyph unicode="j" horiz-adv-x="569" d="M-220 -406l36 188l58 -4q67 0 98.5 34.5t49.5 127.5l223 1142h281l-236 -1210q-29 -144 -116.5 -220.5t-227.5 -76.5q-95 0 -166 19zM283 1277l40 207h281l-40 -207h-281z" />
<glyph unicode="k" d="M35 0l288 1484h281l-167 -850l465 448h322l-473 -422l275 -660h-298l-188 497l-140 -75l-85 -422h-280z" />
<glyph unicode="l" horiz-adv-x="569" d="M35 0l288 1484h281l-289 -1484h-280z" />
<glyph unicode="m" horiz-adv-x="1821" d="M35 0l166 851q20 95 39 231h272q0 -11 -10.5 -77.5t-17.5 -107.5h3q77 116 151.5 160t176.5 44q124 0 196 -59.5t86 -172.5q80 125 162.5 178.5t191.5 53.5q138 0 211.5 -73t73.5 -211q0 -64 -21 -164l-128 -653h-279l122 627q18 90 18 139v5q-3 121 -126 121 q-91 0 -158 -77t-93 -208l-119 -607h-279l123 635q17 91 17 136q0 121 -126 121q-88 0 -156.5 -75.5t-95.5 -212.5l-118 -604h-282z" />
<glyph unicode="n" horiz-adv-x="1251" d="M35 0l166 851q16 79 38 231h268q0 -9 -9.5 -84t-14.5 -101h3q75 104 165.5 154t207.5 50q152 0 229 -73t77 -211q0 -25 -7 -79.5t-14 -84.5l-127 -653h-279l118 595q26 124 26 165q0 129 -152 129q-101 0 -187 -82t-108 -201l-118 -606h-282z" />
<glyph unicode="o" horiz-adv-x="1251" d="M63 419q0 201 79.5 356t226.5 240.5t335 85.5q235 0 358 -109.5t123 -308.5q0 -207 -81.5 -368t-231 -248t-337.5 -87q-218 0 -345 117.5t-127 321.5zM358 431q0 -259 208 -259q112 0 177.5 56.5t103 171.5t44.5 262q0 247 -208 247q-114 0 -181.5 -60t-105.5 -182.5 t-38 -235.5z" />
<glyph unicode="p" horiz-adv-x="1251" d="M-45 -425l243 1258l20 110l19 139h275q0 -14 -7.5 -77.5t-15.5 -91.5h4q72 100 154.5 144.5t200.5 44.5q159 0 248 -94.5t89 -259.5q0 -202 -62 -393.5t-174.5 -283t-286.5 -91.5q-125 0 -203 52t-110 146h-2q-7 -62 -32 -188l-80 -415h-280zM400 401q0 -107 53 -167.5 t148 -60.5q102 0 161 64t93 206t34 251q0 106 -38.5 159.5t-122.5 53.5q-126 0 -201.5 -88t-109.5 -265q-17 -93 -17 -153z" />
<glyph unicode="q" horiz-adv-x="1251" d="M59 348q0 196 64 379t180 279t277 96q130 0 201 -45.5t112 -153.5h5q25 123 47 179h270q-8 -27 -30 -133t-267 -1374h-281l85 432l36 156h-4q-75 -98 -159.5 -141t-200.5 -43q-152 0 -243.5 98t-91.5 271zM356 386q0 -104 40.5 -159t121.5 -55q127 0 202 88.5t107 266.5 q16 88 16 153q0 230 -174 230q-110 0 -176 -64.5t-101.5 -200.5t-35.5 -259z" />
<glyph unicode="r" horiz-adv-x="797" d="M35 0l161 830q24 120 42 252h268l-22 -172l-8 -49h4q73 134 144 187.5t163 53.5q47 0 103 -14l-46 -235q-69 15 -114 15q-123 0 -200.5 -87t-112.5 -267l-101 -514h-281z" />
<glyph unicode="s" d="M23 271l251 36q21 -75 77 -108t166 -33q109 0 165.5 35t56.5 101q0 52 -41.5 79.5t-182.5 57.5q-199 45 -280.5 124.5t-81.5 205.5q0 160 125.5 245t358.5 85q206 0 307 -70.5t125 -217.5l-251 -29q-17 69 -66 100t-134 31q-205 0 -205 -120q0 -33 20 -55t57 -38t178 -49 q182 -41 257 -117t75 -200q0 -174 -128.5 -264t-374.5 -90q-201 0 -317 71t-157 220z" />
<glyph unicode="t" horiz-adv-x="682" d="M86 892l37 190h162l137 254h176l-48 -254h202l-35 -190h-205l-104 -535q-11 -56 -11 -89q0 -46 23.5 -68.5t63.5 -22.5q32 0 108 13l-32 -182q-81 -24 -184 -24q-124 0 -192 58.5t-68 166.5q0 71 16 157l102 526h-148z" />
<glyph unicode="u" horiz-adv-x="1251" d="M85 265q0 25 7 80.5t14 83.5l127 653h279l-118 -595q-26 -123 -26 -165q0 -129 152 -129q101 0 186.5 81t108.5 202l118 606h282l-166 -851q-16 -79 -38 -231h-268q0 9 9.5 84t14.5 101h-3q-76 -107 -166.5 -155.5t-206.5 -48.5q-152 0 -229 73t-77 211z" />
<glyph unicode="v" d="M110 1082h289l71 -605q4 -30 13 -138t9 -131q61 143 122 266l316 608h302l-610 -1082h-336z" />
<glyph unicode="w" horiz-adv-x="1593" d="M99 1082h258l14 -696v-131l27 68l52 123l294 636h301l42 -636l5 -191l53 132l291 695h266l-495 -1082h-297l-43 660l-5 230q-53 -142 -95 -232l-302 -658h-297z" />
<glyph unicode="x" d="M-90 0l508 562l-279 520h292l173 -347l296 347h308l-483 -525l294 -557h-295l-186 383l-327 -383h-301z" />
<glyph unicode="y" d="M-85 -407l38 196q40 -9 87 -9q78 0 137.5 46t118.5 150l28 48l-212 1058h291l71 -497q6 -31 21.5 -178t13.5 -156l17 37l139 293l259 501h300l-654 -1139q-107 -167 -174.5 -235t-141 -100.5t-166.5 -32.5q-97 0 -173 18z" />
<glyph unicode="z" horiz-adv-x="1024" d="M-10 0l38 199l613 680h-440l40 203h769l-39 -201l-610 -676h527l-40 -205h-858z" />
<glyph unicode="{" horiz-adv-x="797" d="M19 433l38 192q231 4 274 227l67 338q29 146 112.5 220t237.5 74h194l-37 -190h-76q-82 0 -125 -46.5t-65 -158.5l-60 -310q-19 -94 -89 -160.5t-167 -86.5l-1 -4q74 -19 118.5 -69.5t44.5 -125.5q0 -29 -5 -52l-65 -334q-9 -42 -9 -76q0 -53 33 -79t89 -26h80l-37 -191 h-183q-119 0 -187.5 60.5t-68.5 162.5q0 44 11 101l61 308q7 35 7 68q0 154 -192 158z" />
<glyph unicode="|" horiz-adv-x="573" d="M191 -425v1909h262v-1909h-262z" />
<glyph unicode="}" horiz-adv-x="797" d="M-155 -425l37 190h76q82 0 125 46.5t65 158.5l60 310q19 95 89 161.5t167 86.5l1 3q-75 19 -119 70.5t-44 125.5q0 29 5 52l65 333q9 45 9 77q0 53 -33 79t-89 26h-80l37 191h183q119 0 187.5 -60.5t68.5 -162.5q0 -46 -11 -101l-61 -308q-7 -33 -7 -68 q0 -77 46.5 -116.5t145.5 -41.5l-38 -192q-118 -2 -185 -58.5t-89 -169.5l-67 -337q-31 -152 -115.5 -223.5t-234.5 -71.5h-194z" />
<glyph unicode="~" horiz-adv-x="1196" d="M118 543v213q113 84 271 84q80 0 156.5 -22t150.5 -48q134 -47 212 -47q134 0 248 92v-219q-64 -44 -122.5 -62t-144.5 -18q-75 0 -147.5 21t-147.5 47q-135 47 -221 47q-71 0 -130.5 -21.5t-124.5 -66.5z" />
<glyph unicode="&#xa1;" horiz-adv-x="682" d="M20 -327l222 981h230l-158 -981h-294zM247 812l53 270h288l-53 -270h-288z" />
<glyph unicode="&#xa2;" d="M76 560q0 105 18 179q56 244 190 374.5t354 141.5l31 154h162l-32 -161q142 -23 227 -116t96 -236l-284 -23q-11 191 -167 191q-107 0 -167.5 -73.5t-109.5 -260.5q-23 -115 -23 -168q0 -234 178 -234q83 0 137 52.5t86 155.5l271 -50q-52 -169 -167.5 -254t-291.5 -96 l-32 -167h-162l32 174q-165 26 -255.5 134t-90.5 283z" />
<glyph unicode="&#xa3;" d="M-51 0l39 205q94 38 151 104.5t78 171.5l25 123h-187l32 170h178l51 260q39 207 149 301.5t307 94.5q176 0 280.5 -79.5t121.5 -220.5l-245 -48q-15 84 -56.5 120.5t-112.5 36.5q-78 0 -120 -46t-62 -151l-53 -268h286l-33 -170h-286l-27 -126q-42 -195 -232 -268h408 q95 0 154.5 45t83.5 147l225 -39q-42 -179 -156 -271t-285 -92h-714z" />
<glyph unicode="&#xa4;" d="M72 328l135 137q-58 99 -58 219t60 221l-133 133l157 156l131 -133q101 59 220 59q121 0 219 -59l135 135l158 -158l-136 -135q60 -99 60 -219q0 -118 -58 -217l134 -133l-158 -160l-133 135q-100 -59 -221 -59q-122 0 -220 57l-135 -137zM375 686q0 -86 61 -147.5 t148 -61.5q85 0 146.5 62t61.5 147q0 86 -61 147.5t-147 61.5t-147.5 -61t-61.5 -148z" />
<glyph unicode="&#xa5;" d="M39 236l28 147h337l32 162h-337l28 146h276l-224 718h284l154 -596l390 596h294l-504 -718h276l-28 -146h-338l-32 -162h338l-28 -147h-338l-46 -236h-272l46 236h-336z" />
<glyph unicode="&#xa6;" horiz-adv-x="573" d="M192 324h262v-749h-262v749zM192 736v748h262v-748h-262z" />
<glyph unicode="&#xa7;" d="M-42 59l244 37q14 -83 72 -119t164 -36q136 0 207 40t71 114q0 48 -25.5 79t-72 52t-202.5 57q-321 71 -321 302q0 209 271 276q-71 39 -108 100t-37 139q0 165 123 246t374 81q204 0 313.5 -70t116.5 -204l-244 -25q-12 68 -68 98.5t-139 30.5q-228 0 -228 -133 q0 -38 26 -66t72 -48.5t155 -46.5q357 -82 357 -295q0 -112 -58 -185t-191 -115q63 -35 97.5 -93t34.5 -133q0 -182 -138.5 -276.5t-398.5 -94.5q-220 0 -334 69.5t-133 218.5zM346 626q0 -42 24.5 -71.5t68 -51t161.5 -49.5q111 9 170.5 45.5t59.5 98.5q0 69 -54.5 108.5 t-204.5 73.5q-103 -6 -164 -45t-61 -109z" />
<glyph unicode="&#xa8;" horiz-adv-x="682" d="M135 1199l42 219h214l-43 -219h-213zM568 1199l43 219h217l-43 -219h-217z" />
<glyph unicode="&#xa9;" horiz-adv-x="1509" d="M62 707q0 193 97 361t265 265t361 97q194 0 362.5 -97.5t264.5 -264.5t96 -361q0 -193 -96.5 -361.5t-265 -265t-361.5 -96.5q-197 0 -366.5 100.5t-263 267t-93.5 355.5zM177 707q0 -163 81.5 -305t222 -224t304.5 -82t306 82t223.5 224t81.5 305t-82 303.5t-224 222.5 t-305 82q-157 0 -297 -78t-225.5 -219.5t-85.5 -310.5zM394 709q0 203 102 309t293 106q130 0 217.5 -56t135.5 -173l-156 -41q-26 61 -74.5 95t-117.5 34q-109 0 -164.5 -70t-55.5 -204q0 -135 59 -209t165 -74q66 0 117 37t79 106l160 -47q-58 -125 -145 -181t-211 -56 q-193 0 -298.5 111t-105.5 313z" />
<glyph unicode="&#xaa;" horiz-adv-x="758" d="M104 884q0 117 83 179t270 65l123 2l5 26q9 36 9 61q0 82 -82 82q-60 0 -90 -23t-42 -68l-171 19q20 88 94 139.5t212 51.5q135 0 197.5 -46.5t62.5 -144.5q0 -13 -2 -28.5t-61 -303.5l-5 -47q0 -43 52 -43q17 0 41 6l-10 -102q-35 -12 -111 -12q-66 0 -101.5 26 t-35.5 72l3 41h-3q-56 -87 -109 -117t-129 -30q-89 0 -144.5 54t-55.5 141zM298 914q0 -51 25.5 -74.5t63.5 -23.5q52 0 96 41t62 112l16 60l-98 -2q-77 -2 -121 -30.5t-44 -82.5z" />
<glyph unicode="&#xab;" d="M72 500l14 71l323 367h239l-6 -41l-329 -366l188 -353l-5 -39h-232zM530 500l14 71l323 367h239l-6 -41l-329 -366l188 -353l-5 -39h-232z" />
<glyph unicode="&#xac;" horiz-adv-x="1196" d="M75 569v224h1027v-652h-224v428h-803z" />
<glyph unicode="&#xad;" horiz-adv-x="682" d="M56 409l47 244h520l-47 -244h-520z" />
<glyph unicode="&#xae;" horiz-adv-x="1509" d="M62 707q0 193 97 361t265 265t361 97q194 0 362.5 -97.5t264.5 -264.5t96 -361q0 -193 -96.5 -361.5t-265 -265t-361.5 -96.5q-197 0 -366.5 100.5t-263 267t-93.5 355.5zM177 707q0 -163 81.5 -305t222 -224t304.5 -82t306 82t223.5 224t81.5 305t-82 303.5t-224 222.5 t-305 82q-157 0 -297 -78t-225.5 -219.5t-85.5 -310.5zM480 297v815h330q153 0 229 -64.5t76 -177.5q0 -94 -48 -153t-126 -84l213 -336h-201l-178 313h-117v-313h-178zM658 739h144q66 0 99.5 35.5t33.5 93.5q0 57 -37.5 87t-106.5 30h-133v-246z" />
<glyph unicode="&#xaf;" horiz-adv-x="1131" d="M-17 1452v94h1165v-94h-1165z" />
<glyph unicode="&#xb0;" horiz-adv-x="819" d="M189 1110q0 86 42.5 159t116 114.5t161.5 41.5q135 0 228 -92.5t93 -222.5t-93.5 -222.5t-227.5 -92.5q-132 0 -226 91t-94 224zM343 1110q0 -69 49 -118.5t117 -49.5q67 0 115 49t48 119t-46.5 118t-116.5 48q-71 0 -118.5 -48.5t-47.5 -117.5z" />
<glyph unicode="&#xb1;" horiz-adv-x="1124" d="M87 0v223h1027v-223h-1027zM87 707v223h401v340h224v-340h402v-223h-402v-341h-224v341h-401z" />
<glyph unicode="&#xb2;" horiz-adv-x="682" d="M71 696l24 120q40 63 104 115t174 114q92 50 130.5 92.5t38.5 93.5q0 29 -22 48.5t-57 19.5q-88 0 -114 -97l-162 34q31 99 100 144.5t192 45.5q115 0 181 -50.5t66 -136.5q0 -60 -25 -104.5t-63.5 -79t-86.5 -61.5t-94 -51.5t-85 -49t-61 -54.5h349l-25 -143h-564z" />
<glyph unicode="&#xb3;" horiz-adv-x="682" d="M96 885l181 25q17 -99 108 -99q46 0 78.5 26.5t32.5 77.5q0 85 -111 85h-68l24 126h60q62 0 100 25t38 70q0 83 -83 83q-90 0 -115 -94l-163 24q26 98 96 145t202 47q118 0 184 -44.5t66 -134.5q0 -71 -50.5 -122t-132.5 -58l-1 -2q64 -12 103 -50.5t39 -101.5 q0 -101 -85 -163t-230 -62q-246 0 -273 197z" />
<glyph unicode="&#xb4;" horiz-adv-x="682" d="M255 1183l6 31l247 288h277l-8 -43l-376 -276h-146z" />
<glyph unicode="&#xb5;" horiz-adv-x="1180" d="M-47 -425l291 1507h281l-118 -605q-11 -59 -13 -119q0 -165 125 -165q81 0 141 80t86 231l112 578h281l-147 -757q-9 -45 -9 -65q0 -69 50 -69q23 0 46 7l-16 -193q-106 -25 -188 -25q-88 0 -126.5 32.5t-38.5 109.5v21l2 21h-4q-42 -87 -95 -135.5t-134 -48.5 q-59 0 -97.5 24.5t-53.5 65.5h-6l-16 -115l-73 -380h-280z" />
<glyph unicode="&#xb6;" d="M106 1049q0 169 98.5 264.5t272.5 95.5h629v-143h-131v-1530h-156v1530h-195v-1530h-155v958q-169 0 -266 92.5t-97 262.5z" />
<glyph unicode="&#xb7;" horiz-adv-x="682" d="M189 531l59 305h288l-59 -305h-288z" />
<glyph unicode="&#xb8;" horiz-adv-x="682" d="M88 -419l29 117q42 -7 82 -7q81 0 118 17.5t37 59.5q0 63 -110 63h-25l-28 -2l98 171h141l-48 -83q70 -1 113.5 -33.5t43.5 -98.5q0 -97 -84 -153.5t-261 -56.5q-50 0 -106 6z" />
<glyph unicode="&#xb9;" horiz-adv-x="682" d="M98 693l23 121h184l91 468l-194 -108l24 122l202 117h175l-116 -599h170l-23 -121h-536z" />
<glyph unicode="&#xba;" horiz-adv-x="748" d="M102 980q0 197 114 317.5t299 120.5q153 0 233 -73.5t80 -202.5q0 -203 -116.5 -328t-302.5 -125q-142 0 -224.5 78.5t-82.5 212.5zM306 987q0 -79 31.5 -120t91.5 -41q50 0 76 12t46.5 37t34 56.5t24 77.5t15.5 119q0 73 -31.5 112.5t-92.5 39.5q-52 0 -86 -19 t-58.5 -58t-37.5 -101.5t-13 -114.5z" />
<glyph unicode="&#xbb;" d="M38 139l6 41l329 366l-188 353l5 39h232l192 -361l-14 -71l-323 -367h-239zM496 139l6 41l329 366l-188 353l5 39h232l192 -361l-14 -71l-323 -367h-239z" />
<glyph unicode="&#xbc;" horiz-adv-x="1708" d="M98 693l23 121h184l91 468l-194 -108l24 122l202 117h175l-116 -599h170l-23 -121h-536zM232 0l1086 1409h199l-1088 -1409h-197zM890 141l28 148l395 432h219l-84 -437h103l-28 -143h-103l-27 -140h-183l27 140h-347zM1063 284h202l62 299l-17 -22q-37 -52 -69 -86z" />
<glyph unicode="&#xbd;" horiz-adv-x="1708" d="M98 693l23 121h184l91 468l-194 -108l24 122l202 117h175l-116 -599h170l-23 -121h-536zM232 0l1086 1409h199l-1088 -1409h-197zM949 1l24 120q40 63 104 115t174 114q92 50 130.5 92.5t38.5 93.5q0 29 -22 48.5t-57 19.5q-88 0 -114 -97l-162 34q31 99 100 144.5 t192 45.5q115 0 181 -50.5t66 -136.5q0 -60 -25 -104.5t-63.5 -79t-86.5 -61.5t-94 -51.5t-85 -49t-61 -54.5h349l-25 -143h-564z" />
<glyph unicode="&#xbe;" horiz-adv-x="1708" d="M110 885l181 25q17 -99 108 -99q46 0 78.5 26.5t32.5 77.5q0 85 -111 85h-68l24 126h60q62 0 100 25t38 70q0 83 -83 83q-90 0 -115 -94l-163 24q26 98 96 145t202 47q118 0 184 -44.5t66 -134.5q0 -71 -50.5 -122t-132.5 -58l-1 -2q64 -12 103 -50.5t39 -101.5 q0 -101 -85 -163t-230 -62q-246 0 -273 197zM232 0l1086 1409h199l-1088 -1409h-197zM890 141l28 148l395 432h219l-84 -437h103l-28 -143h-103l-27 -140h-183l27 140h-347zM1063 284h202l62 299l-17 -22q-37 -52 -69 -86z" />
<glyph unicode="&#xbf;" horiz-adv-x="1251" d="M26 7q0 90 37.5 161t105.5 131.5t225 147.5q83 55 110 81.5t43.5 57t21.5 70.5h267q-14 -77 -45 -134.5t-79.5 -104t-166.5 -119.5q-69 -43 -114.5 -76t-72.5 -63.5t-38 -61.5t-11 -70q0 -63 48 -104.5t149 -41.5q227 0 279 193l266 -40q-117 -382 -561 -382 q-214 0 -339 94t-125 261zM585 812l52 270h289l-52 -270h-289z" />
<glyph unicode="&#xc0;" horiz-adv-x="1479" d="M-42 0l787 1409h348l238 -1409h-292l-55 360h-537l-195 -360h-294zM566 582h395l-67 452q-18 135 -18 158q-21 -64 -98 -212zM650 1765l9 43h238l203 -247l-7 -31h-139z" />
<glyph unicode="&#xc1;" horiz-adv-x="1479" d="M-42 0l787 1409h348l238 -1409h-292l-55 360h-537l-195 -360h-294zM566 582h395l-67 452q-18 135 -18 158q-21 -64 -98 -212zM764 1530l7 31l270 247h267l-9 -43l-386 -235h-149z" />
<glyph unicode="&#xc2;" horiz-adv-x="1479" d="M-42 0l787 1409h348l238 -1409h-292l-55 360h-537l-195 -360h-294zM547 1530l5 29l311 276h229l196 -276l-5 -29h-149l-174 151h-4l-240 -151h-169zM566 582h395l-67 452q-18 135 -18 158q-21 -64 -98 -212z" />
<glyph unicode="&#xc3;" horiz-adv-x="1479" d="M-42 0l787 1409h348l238 -1409h-292l-55 360h-537l-195 -360h-294zM511 1530q39 158 108.5 225.5t172.5 67.5q45 0 86.5 -19t78.5 -42.5t70 -42.5t62 -19q43 0 71 28t52 95h135q-39 -158 -108.5 -225.5t-171.5 -67.5q-44 0 -84.5 19t-78 42.5t-71.5 42.5t-64 19 q-42 0 -69.5 -25.5t-52.5 -97.5h-136zM566 582h395l-67 452q-18 135 -18 158q-21 -64 -98 -212z" />
<glyph unicode="&#xc4;" horiz-adv-x="1479" d="M-42 0l787 1409h348l238 -1409h-292l-55 360h-537l-195 -360h-294zM566 582h395l-67 452q-18 135 -18 158q-21 -64 -98 -212zM607 1530l42 219h214l-43 -219h-213zM1040 1530l43 219h217l-43 -219h-217z" />
<glyph unicode="&#xc5;" horiz-adv-x="1479" d="M-42 0l787 1409h348l238 -1409h-292l-55 360h-537l-195 -360h-294zM566 582h395l-67 452q-18 135 -18 158q-21 -64 -98 -212zM672 1538q0 105 74.5 179.5t179.5 74.5t179.5 -74.5t74.5 -179.5t-73.5 -179.5t-180.5 -74.5t-180.5 74.5t-73.5 179.5zM801 1538q0 -56 37 -92 t88 -36q53 0 90 37t37 91q0 51 -36.5 88t-90.5 37q-51 0 -88 -36t-37 -89z" />
<glyph unicode="&#xc6;" horiz-adv-x="2048" d="M-97 0l965 1409h1231l-45 -227h-701l-69 -355h639l-43 -221h-639l-73 -379h742l-44 -227h-1029l70 360h-450l-242 -360h-312zM602 582h348l118 610h-61l-136 -209z" />
<glyph unicode="&#xc7;" horiz-adv-x="1479" d="M81 569q0 252 105 450.5t293.5 304.5t428.5 106q230 0 377.5 -98.5t198.5 -293.5l-274 -71q-29 107 -111 169t-200 62q-242 0 -379.5 -168t-137.5 -457q0 -173 85.5 -267.5t244.5 -94.5q266 0 418 258l227 -117q-210 -372 -665 -372q-191 0 -329.5 72t-210 205.5 t-71.5 311.5zM437 -419l29 117q42 -7 82 -7q81 0 118 17.5t37 59.5q0 63 -110 63h-25l-28 -2l98 171h141l-48 -83q70 -1 113.5 -33.5t43.5 -98.5q0 -97 -84 -153.5t-261 -56.5q-50 0 -106 6z" />
<glyph unicode="&#xc8;" horiz-adv-x="1366" d="M36 0l273 1409h1108l-44 -228h-813l-69 -354h752l-44 -228h-752l-72 -371h854l-45 -228h-1148zM556 1765l9 43h238l203 -247l-7 -31h-139z" />
<glyph unicode="&#xc9;" horiz-adv-x="1366" d="M36 0l273 1409h1108l-44 -228h-813l-69 -354h752l-44 -228h-752l-72 -371h854l-45 -228h-1148zM714 1530l7 31l270 247h267l-9 -43l-386 -235h-149z" />
<glyph unicode="&#xca;" horiz-adv-x="1366" d="M36 0l273 1409h1108l-44 -228h-813l-69 -354h752l-44 -228h-752l-72 -371h854l-45 -228h-1148zM513 1530l5 29l311 276h229l196 -276l-5 -29h-149l-174 151h-4l-240 -151h-169z" />
<glyph unicode="&#xcb;" horiz-adv-x="1366" d="M36 0l273 1409h1108l-44 -228h-813l-69 -354h752l-44 -228h-752l-72 -371h854l-45 -228h-1148zM562 1530l42 219h214l-43 -219h-213zM995 1530l43 219h217l-43 -219h-217z" />
<glyph unicode="&#xcc;" horiz-adv-x="569" d="M36 0l273 1409h295l-274 -1409h-294zM178 1765l9 43h238l203 -247l-7 -31h-139z" />
<glyph unicode="&#xcd;" horiz-adv-x="569" d="M36 0l273 1409h295l-274 -1409h-294zM326 1530l7 31l270 247h267l-9 -43l-386 -235h-149z" />
<glyph unicode="&#xce;" horiz-adv-x="569" d="M36 0l273 1409h295l-274 -1409h-294zM105 1530l5 29l311 276h229l196 -276l-5 -29h-149l-174 151h-4l-240 -151h-169z" />
<glyph unicode="&#xcf;" horiz-adv-x="569" d="M36 0l273 1409h295l-274 -1409h-294zM151 1530l42 219h214l-43 -219h-213zM584 1530l43 219h217l-43 -219h-217z" />
<glyph unicode="&#xd0;" horiz-adv-x="1479" d="M23 594l42 219h129l116 596h424q333 0 510 -155t177 -447q0 -236 -99 -417t-287 -285.5t-421 -104.5h-578l115 594h-128zM375 228h230q160 0 283.5 68.5t190 197.5t66.5 300q0 189 -105.5 288t-303.5 99h-176l-72 -368h357l-44 -219h-355z" />
<glyph unicode="&#xd1;" horiz-adv-x="1479" d="M36 0l274 1409h350l377 -1141l12 82q11 83 29 174l174 885h262l-274 -1409h-356l-374 1131q-23 -162 -38 -239l-174 -892h-262zM544 1530q39 158 108.5 225.5t172.5 67.5q45 0 86.5 -19t78.5 -42.5t70 -42.5t62 -19q43 0 71 28t52 95h135q-39 -158 -108.5 -225.5 t-171.5 -67.5q-44 0 -84.5 19t-78 42.5t-71.5 42.5t-64 19q-42 0 -69.5 -25.5t-52.5 -97.5h-136z" />
<glyph unicode="&#xd2;" horiz-adv-x="1593" d="M100 573q0 235 105.5 438.5t292.5 311t430 107.5q293 0 462 -155.5t169 -423.5q0 -247 -105.5 -450.5t-294.5 -312t-432 -108.5q-193 0 -335.5 72t-217 206.5t-74.5 314.5zM400 581q0 -184 90 -276.5t251 -92.5t275 75t176.5 223t62.5 317q0 176 -87.5 273t-253.5 97 q-162 0 -276 -75t-176 -226t-62 -315zM684 1765l9 43h238l203 -247l-7 -31h-139z" />
<glyph unicode="&#xd3;" horiz-adv-x="1593" d="M100 573q0 235 105.5 438.5t292.5 311t430 107.5q293 0 462 -155.5t169 -423.5q0 -247 -105.5 -450.5t-294.5 -312t-432 -108.5q-193 0 -335.5 72t-217 206.5t-74.5 314.5zM400 581q0 -184 90 -276.5t251 -92.5t275 75t176.5 223t62.5 317q0 176 -87.5 273t-253.5 97 q-162 0 -276 -75t-176 -226t-62 -315zM857 1530l7 31l270 247h267l-9 -43l-386 -235h-149z" />
<glyph unicode="&#xd4;" horiz-adv-x="1593" d="M100 573q0 235 105.5 438.5t292.5 311t430 107.5q293 0 462 -155.5t169 -423.5q0 -247 -105.5 -450.5t-294.5 -312t-432 -108.5q-193 0 -335.5 72t-217 206.5t-74.5 314.5zM400 581q0 -184 90 -276.5t251 -92.5t275 75t176.5 223t62.5 317q0 176 -87.5 273t-253.5 97 q-162 0 -276 -75t-176 -226t-62 -315zM576 1530l5 29l311 276h229l196 -276l-5 -29h-149l-174 151h-4l-240 -151h-169z" />
<glyph unicode="&#xd5;" horiz-adv-x="1593" d="M100 573q0 235 105.5 438.5t292.5 311t430 107.5q293 0 462 -155.5t169 -423.5q0 -247 -105.5 -450.5t-294.5 -312t-432 -108.5q-193 0 -335.5 72t-217 206.5t-74.5 314.5zM400 581q0 -184 90 -276.5t251 -92.5t275 75t176.5 223t62.5 317q0 176 -87.5 273t-253.5 97 q-162 0 -276 -75t-176 -226t-62 -315zM580 1530q39 158 108.5 225.5t172.5 67.5q45 0 86.5 -19t78.5 -42.5t70 -42.5t62 -19q43 0 71 28t52 95h135q-39 -158 -108.5 -225.5t-171.5 -67.5q-44 0 -84.5 19t-78 42.5t-71.5 42.5t-64 19q-42 0 -69.5 -25.5t-52.5 -97.5h-136z " />
<glyph unicode="&#xd6;" horiz-adv-x="1593" d="M100 573q0 235 105.5 438.5t292.5 311t430 107.5q293 0 462 -155.5t169 -423.5q0 -247 -105.5 -450.5t-294.5 -312t-432 -108.5q-193 0 -335.5 72t-217 206.5t-74.5 314.5zM400 581q0 -184 90 -276.5t251 -92.5t275 75t176.5 223t62.5 317q0 176 -87.5 273t-253.5 97 q-162 0 -276 -75t-176 -226t-62 -315zM649 1530l42 219h214l-43 -219h-213zM1082 1530l43 219h217l-43 -219h-217z" />
<glyph unicode="&#xd7;" horiz-adv-x="1196" d="M126 326l356 358l-352 352l158 156l352 -350l352 352l158 -158l-352 -354l352 -350l-158 -160l-352 354l-356 -358z" />
<glyph unicode="&#xd8;" horiz-adv-x="1593" d="M35 -53l205 220q-140 158 -140 406q0 235 105.5 438.5t292.5 311t430 107.5q237 0 396 -104l131 140h203l-223 -239q124 -148 124 -376q0 -247 -105.5 -450.5t-294.5 -312t-432 -108.5q-222 0 -370 91l-115 -124h-207zM400 581q0 -121 39 -202l699 748q-87 70 -224 70 q-162 0 -276 -75t-176 -226t-62 -315zM538 264q79 -52 203 -52q161 0 275 75t176.5 223t62.5 317q0 100 -29 175z" />
<glyph unicode="&#xd9;" horiz-adv-x="1479" d="M119 431q0 44 7.5 105.5t15.5 98.5l148 774h295l-153 -810q-18 -87 -18 -172q0 -103 73 -159.5t201 -56.5q165 0 250.5 76t119.5 254l168 868h295l-171 -879q-55 -281 -220 -415.5t-458 -134.5q-264 0 -408.5 117.5t-144.5 333.5zM623 1765l9 43h238l203 -247l-7 -31 h-139z" />
<glyph unicode="&#xda;" horiz-adv-x="1479" d="M119 431q0 44 7.5 105.5t15.5 98.5l148 774h295l-153 -810q-18 -87 -18 -172q0 -103 73 -159.5t201 -56.5q165 0 250.5 76t119.5 254l168 868h295l-171 -879q-55 -281 -220 -415.5t-458 -134.5q-264 0 -408.5 117.5t-144.5 333.5zM789 1530l7 31l270 247h267l-9 -43 l-386 -235h-149z" />
<glyph unicode="&#xdb;" horiz-adv-x="1479" d="M119 431q0 44 7.5 105.5t15.5 98.5l148 774h295l-153 -810q-18 -87 -18 -172q0 -103 73 -159.5t201 -56.5q165 0 250.5 76t119.5 254l168 868h295l-171 -879q-55 -281 -220 -415.5t-458 -134.5q-264 0 -408.5 117.5t-144.5 333.5zM549 1530l5 29l311 276h229l196 -276 l-5 -29h-149l-174 151h-4l-240 -151h-169z" />
<glyph unicode="&#xdc;" horiz-adv-x="1479" d="M119 431q0 44 7.5 105.5t15.5 98.5l148 774h295l-153 -810q-18 -87 -18 -172q0 -103 73 -159.5t201 -56.5q165 0 250.5 76t119.5 254l168 868h295l-171 -879q-55 -281 -220 -415.5t-458 -134.5q-264 0 -408.5 117.5t-144.5 333.5zM600 1530l42 219h214l-43 -219h-213z M1033 1530l43 219h217l-43 -219h-217z" />
<glyph unicode="&#xdd;" horiz-adv-x="1366" d="M172 1409h292l259 -605l474 605h323l-684 -831l-112 -578h-294l112 578zM716 1530l7 31l270 247h267l-9 -43l-386 -235h-149z" />
<glyph unicode="&#xde;" horiz-adv-x="1366" d="M36 0l274 1409h295l-44 -225h246q246 0 382.5 -112t136.5 -310q0 -225 -153.5 -358t-410.5 -133h-378l-53 -271h-295zM428 498h289q155 0 232.5 58t77.5 190q0 102 -64 155.5t-184 53.5h-262z" />
<glyph unicode="&#xdf;" horiz-adv-x="1251" d="M35 0l200 1027q50 237 188.5 347t373.5 110q181 0 285.5 -77t104.5 -211q0 -165 -143 -272q-86 -64 -115 -96t-29 -69q0 -40 27 -72.5t99 -85.5q126 -94 126 -256q0 -167 -110.5 -266t-292.5 -99q-203 0 -321 57l68 186q78 -36 126 -46.5t98 -10.5q80 0 121.5 42 t41.5 114q0 51 -28 90.5t-94 88.5q-64 46 -93.5 97.5t-29.5 119.5t34.5 122.5t112.5 112.5q78 59 112 108t34 107q0 53 -36.5 83t-106.5 30q-116 0 -182.5 -64t-92.5 -196l-197 -1021h-281z" />
<glyph unicode="&#xe0;" d="M10 278q0 185 127.5 279.5t413.5 99.5l191 3q21 95 21 131q0 128 -127 128q-94 0 -140 -36.5t-63 -105.5l-263 31q34 144 153.5 219t317.5 75q207 0 303.5 -73t96.5 -222q0 -37 -24 -157l-71 -353q-8 -45 -8 -72q0 -24 10 -37t23 -19t26 -7.5t20 -1.5q30 0 62 7l-14 -155 q-42 -16 -85 -19t-88 -3q-100 0 -154 42t-54 111q0 37 5 64h-6q-84 -130 -166 -178.5t-200 -48.5q-140 0 -223.5 83.5t-83.5 214.5zM297 325q0 -70 39.5 -109.5t106.5 -39.5q83 0 151 64.5t95 170.5l22 92h-162q-117 -2 -184.5 -48t-67.5 -130zM393 1459l8 43h258l195 -288 l-6 -31h-148z" />
<glyph unicode="&#xe1;" d="M10 278q0 185 127.5 279.5t413.5 99.5l191 3q21 95 21 131q0 128 -127 128q-94 0 -140 -36.5t-63 -105.5l-263 31q34 144 153.5 219t317.5 75q207 0 303.5 -73t96.5 -222q0 -37 -24 -157l-71 -353q-8 -45 -8 -72q0 -24 10 -37t23 -19t26 -7.5t20 -1.5q30 0 62 7l-14 -155 q-42 -16 -85 -19t-88 -3q-100 0 -154 42t-54 111q0 37 5 64h-6q-84 -130 -166 -178.5t-200 -48.5q-140 0 -223.5 83.5t-83.5 214.5zM297 325q0 -70 39.5 -109.5t106.5 -39.5q83 0 151 64.5t95 170.5l22 92h-162q-117 -2 -184.5 -48t-67.5 -130zM542 1183l6 31l247 288h277 l-8 -43l-376 -276h-146z" />
<glyph unicode="&#xe2;" d="M10 278q0 185 127.5 279.5t413.5 99.5l191 3q21 95 21 131q0 128 -127 128q-94 0 -140 -36.5t-63 -105.5l-263 31q34 144 153.5 219t317.5 75q207 0 303.5 -73t96.5 -222q0 -37 -24 -157l-71 -353q-8 -45 -8 -72q0 -24 10 -37t23 -19t26 -7.5t20 -1.5q30 0 62 7l-14 -155 q-42 -16 -85 -19t-88 -3q-100 0 -154 42t-54 111q0 37 5 64h-6q-84 -130 -166 -178.5t-200 -48.5q-140 0 -223.5 83.5t-83.5 214.5zM297 325q0 -70 39.5 -109.5t106.5 -39.5q83 0 151 64.5t95 170.5l22 92h-162q-117 -2 -184.5 -48t-67.5 -130zM307 1183l5 28l320 318h229 l188 -318l-5 -28h-150l-166 192h-4l-248 -192h-169z" />
<glyph unicode="&#xe3;" d="M10 278q0 185 127.5 279.5t413.5 99.5l191 3q21 95 21 131q0 128 -127 128q-94 0 -140 -36.5t-63 -105.5l-263 31q34 144 153.5 219t317.5 75q207 0 303.5 -73t96.5 -222q0 -37 -24 -157l-71 -353q-8 -45 -8 -72q0 -24 10 -37t23 -19t26 -7.5t20 -1.5q30 0 62 7l-14 -155 q-42 -16 -85 -19t-88 -3q-100 0 -154 42t-54 111q0 37 5 64h-6q-84 -130 -166 -178.5t-200 -48.5q-140 0 -223.5 83.5t-83.5 214.5zM272 1183q39 158 108.5 225.5t172.5 67.5q45 0 86.5 -19t78.5 -42.5t70 -42.5t62 -19q43 0 71 28t52 95h135q-39 -158 -108.5 -225.5 t-171.5 -67.5q-44 0 -84.5 19t-78 42.5t-71.5 42.5t-64 19q-42 0 -69.5 -25.5t-52.5 -97.5h-136zM297 325q0 -70 39.5 -109.5t106.5 -39.5q83 0 151 64.5t95 170.5l22 92h-162q-117 -2 -184.5 -48t-67.5 -130z" />
<glyph unicode="&#xe4;" d="M10 278q0 185 127.5 279.5t413.5 99.5l191 3q21 95 21 131q0 128 -127 128q-94 0 -140 -36.5t-63 -105.5l-263 31q34 144 153.5 219t317.5 75q207 0 303.5 -73t96.5 -222q0 -37 -24 -157l-71 -353q-8 -45 -8 -72q0 -24 10 -37t23 -19t26 -7.5t20 -1.5q30 0 62 7l-14 -155 q-42 -16 -85 -19t-88 -3q-100 0 -154 42t-54 111q0 37 5 64h-6q-84 -130 -166 -178.5t-200 -48.5q-140 0 -223.5 83.5t-83.5 214.5zM297 325q0 -70 39.5 -109.5t106.5 -39.5q83 0 151 64.5t95 170.5l22 92h-162q-117 -2 -184.5 -48t-67.5 -130zM351 1199l42 219h214 l-43 -219h-213zM784 1199l43 219h217l-43 -219h-217z" />
<glyph unicode="&#xe5;" d="M10 278q0 185 127.5 279.5t413.5 99.5l191 3q21 95 21 131q0 128 -127 128q-94 0 -140 -36.5t-63 -105.5l-263 31q34 144 153.5 219t317.5 75q207 0 303.5 -73t96.5 -222q0 -37 -24 -157l-71 -353q-8 -45 -8 -72q0 -24 10 -37t23 -19t26 -7.5t20 -1.5q30 0 62 7l-14 -155 q-42 -16 -85 -19t-88 -3q-100 0 -154 42t-54 111q0 37 5 64h-6q-84 -130 -166 -178.5t-200 -48.5q-140 0 -223.5 83.5t-83.5 214.5zM297 325q0 -70 39.5 -109.5t106.5 -39.5q83 0 151 64.5t95 170.5l22 92h-162q-117 -2 -184.5 -48t-67.5 -130zM453 1431q0 105 74.5 179.5 t179.5 74.5t179.5 -74.5t74.5 -179.5t-73.5 -179.5t-180.5 -74.5t-180.5 74.5t-73.5 179.5zM582 1431q0 -56 37 -92t88 -36q53 0 90 37t37 91q0 51 -36.5 88t-90.5 37q-51 0 -88 -36t-37 -89z" />
<glyph unicode="&#xe6;" horiz-adv-x="1821" d="M42 278q0 382 541 382h191q21 95 21 131q0 128 -127 128q-94 0 -140 -36.5t-63 -105.5l-263 31q34 144 153.5 219t317.5 75q207 0 300 -113q140 113 342 113q209 0 322.5 -107.5t113.5 -303.5q0 -99 -24 -215h-700q-7 -38 -7 -89q0 -106 46.5 -162.5t137.5 -56.5 q147 0 213 169l245 -74q-75 -159 -186 -221t-291 -62q-297 0 -394 219q-51 -80 -113.5 -127.5t-136 -69.5t-192.5 -22q-140 0 -223.5 83.5t-83.5 214.5zM341 325q0 -72 34.5 -110.5t99.5 -38.5q83 0 151 64.5t95 170.5l22 89h-161q-113 0 -177 -46t-64 -129zM1060 663h431 l3 56q0 107 -49.5 156t-129.5 49q-96 0 -161.5 -66.5t-93.5 -194.5z" />
<glyph unicode="&#xe7;" d="M63 405q0 195 79 366t210.5 251t327.5 80q189 0 302 -95.5t127 -265.5l-284 -23q-11 191 -167 191q-107 0 -167.5 -73.5t-109.5 -260.5q-23 -115 -23 -168q0 -234 178 -234q83 0 137 52.5t86 155.5l271 -50q-107 -351 -510 -351q-220 0 -338.5 112.5t-118.5 312.5z M280 -419l29 117q42 -7 82 -7q81 0 118 17.5t37 59.5q0 63 -110 63h-25l-28 -2l98 171h141l-48 -83q70 -1 113.5 -33.5t43.5 -98.5q0 -97 -84 -153.5t-261 -56.5q-50 0 -106 6z" />
<glyph unicode="&#xe8;" d="M63 418q0 207 72 362.5t204.5 238.5t306.5 83q209 0 322.5 -107.5t113.5 -303.5q0 -99 -24 -215h-700q-7 -38 -7 -89q0 -106 46.5 -162.5t137.5 -56.5q147 0 213 169l245 -74q-75 -159 -186 -221t-291 -62q-213 0 -333 115.5t-120 322.5zM391 663h431l3 56 q0 107 -49.5 156t-129.5 49q-96 0 -161.5 -66.5t-93.5 -194.5zM408 1459l8 43h258l195 -288l-6 -31h-148z" />
<glyph unicode="&#xe9;" d="M63 418q0 207 72 362.5t204.5 238.5t306.5 83q209 0 322.5 -107.5t113.5 -303.5q0 -99 -24 -215h-700q-7 -38 -7 -89q0 -106 46.5 -162.5t137.5 -56.5q147 0 213 169l245 -74q-75 -159 -186 -221t-291 -62q-213 0 -333 115.5t-120 322.5zM391 663h431l3 56 q0 107 -49.5 156t-129.5 49q-96 0 -161.5 -66.5t-93.5 -194.5zM524 1183l6 31l247 288h277l-8 -43l-376 -276h-146z" />
<glyph unicode="&#xea;" d="M63 418q0 207 72 362.5t204.5 238.5t306.5 83q209 0 322.5 -107.5t113.5 -303.5q0 -99 -24 -215h-700q-7 -38 -7 -89q0 -106 46.5 -162.5t137.5 -56.5q147 0 213 169l245 -74q-75 -159 -186 -221t-291 -62q-213 0 -333 115.5t-120 322.5zM307 1183l5 28l320 318h229 l188 -318l-5 -28h-150l-166 192h-4l-248 -192h-169zM391 663h431l3 56q0 107 -49.5 156t-129.5 49q-96 0 -161.5 -66.5t-93.5 -194.5z" />
<glyph unicode="&#xeb;" d="M63 418q0 207 72 362.5t204.5 238.5t306.5 83q209 0 322.5 -107.5t113.5 -303.5q0 -99 -24 -215h-700q-7 -38 -7 -89q0 -106 46.5 -162.5t137.5 -56.5q147 0 213 169l245 -74q-75 -159 -186 -221t-291 -62q-213 0 -333 115.5t-120 322.5zM362 1199l42 219h214l-43 -219 h-213zM391 663h431l3 56q0 107 -49.5 156t-129.5 49q-96 0 -161.5 -66.5t-93.5 -194.5zM795 1199l43 219h217l-43 -219h-217z" />
<glyph unicode="&#xec;" horiz-adv-x="569" d="M35 0l210 1082h281l-211 -1082h-280zM98 1459l8 43h258l195 -288l-6 -31h-148z" />
<glyph unicode="&#xed;" horiz-adv-x="569" d="M35 0l210 1082h281l-211 -1082h-280zM258 1183l6 31l247 288h277l-8 -43l-376 -276h-146z" />
<glyph unicode="&#xee;" horiz-adv-x="569" d="M27 1183l5 28l320 318h229l188 -318l-5 -28h-150l-166 192h-4l-248 -192h-169zM35 0l210 1082h281l-211 -1082h-280z" />
<glyph unicode="&#xef;" horiz-adv-x="569" d="M35 0l210 1082h281l-211 -1082h-280zM81 1199l42 219h214l-43 -219h-213zM514 1199l43 219h217l-43 -219h-217z" />
<glyph unicode="&#xf0;" horiz-adv-x="1251" d="M58 410q0 258 159 413.5t432 155.5q61 0 128 -18.5t104 -44.5q-32 140 -125 264l-277 -111l33 179l149 57q-124 121 -222 179h293q72 -38 141 -94l295 109l-32 -176l-145 -54q95 -123 138 -251.5t43 -289.5q0 -354 -171 -551t-474 -197q-219 0 -344 115.5t-125 314.5z M352 395q0 -102 55 -162.5t148 -60.5q87 0 159.5 57.5t113 158t40.5 218.5q0 85 -53 133t-157 48q-138 0 -222 -108t-84 -284z" />
<glyph unicode="&#xf1;" horiz-adv-x="1251" d="M35 0l166 851q16 79 38 231h268q0 -9 -9.5 -84t-14.5 -101h3q75 104 165.5 154t207.5 50q152 0 229 -73t77 -211q0 -25 -7 -79.5t-14 -84.5l-127 -653h-279l118 595q26 124 26 165q0 129 -152 129q-101 0 -187 -82t-108 -201l-118 -606h-282zM363 1183 q39 158 108.5 225.5t172.5 67.5q45 0 86.5 -19t78.5 -42.5t70 -42.5t62 -19q43 0 71 28t52 95h135q-39 -158 -108.5 -225.5t-171.5 -67.5q-44 0 -84.5 19t-78 42.5t-71.5 42.5t-64 19q-42 0 -69.5 -25.5t-52.5 -97.5h-136z" />
<glyph unicode="&#xf2;" horiz-adv-x="1251" d="M63 419q0 201 79.5 356t226.5 240.5t335 85.5q235 0 358 -109.5t123 -308.5q0 -207 -81.5 -368t-231 -248t-337.5 -87q-218 0 -345 117.5t-127 321.5zM358 431q0 -259 208 -259q112 0 177.5 56.5t103 171.5t44.5 262q0 247 -208 247q-114 0 -181.5 -60t-105.5 -182.5 t-38 -235.5zM432 1459l8 43h258l195 -288l-6 -31h-148z" />
<glyph unicode="&#xf3;" horiz-adv-x="1251" d="M63 419q0 201 79.5 356t226.5 240.5t335 85.5q235 0 358 -109.5t123 -308.5q0 -207 -81.5 -368t-231 -248t-337.5 -87q-218 0 -345 117.5t-127 321.5zM358 431q0 -259 208 -259q112 0 177.5 56.5t103 171.5t44.5 262q0 247 -208 247q-114 0 -181.5 -60t-105.5 -182.5 t-38 -235.5zM619 1183l6 31l247 288h277l-8 -43l-376 -276h-146z" />
<glyph unicode="&#xf4;" horiz-adv-x="1251" d="M63 419q0 201 79.5 356t226.5 240.5t335 85.5q235 0 358 -109.5t123 -308.5q0 -207 -81.5 -368t-231 -248t-337.5 -87q-218 0 -345 117.5t-127 321.5zM358 431q0 -259 208 -259q112 0 177.5 56.5t103 171.5t44.5 262q0 247 -208 247q-114 0 -181.5 -60t-105.5 -182.5 t-38 -235.5zM360 1183l5 28l320 318h229l188 -318l-5 -28h-150l-166 192h-4l-248 -192h-169z" />
<glyph unicode="&#xf5;" horiz-adv-x="1251" d="M63 419q0 201 79.5 356t226.5 240.5t335 85.5q235 0 358 -109.5t123 -308.5q0 -207 -81.5 -368t-231 -248t-337.5 -87q-218 0 -345 117.5t-127 321.5zM336 1183q39 158 108.5 225.5t172.5 67.5q45 0 86.5 -19t78.5 -42.5t70 -42.5t62 -19q43 0 71 28t52 95h135 q-39 -158 -108.5 -225.5t-171.5 -67.5q-44 0 -84.5 19t-78 42.5t-71.5 42.5t-64 19q-42 0 -69.5 -25.5t-52.5 -97.5h-136zM358 431q0 -259 208 -259q112 0 177.5 56.5t103 171.5t44.5 262q0 247 -208 247q-114 0 -181.5 -60t-105.5 -182.5t-38 -235.5z" />
<glyph unicode="&#xf6;" horiz-adv-x="1251" d="M63 419q0 201 79.5 356t226.5 240.5t335 85.5q235 0 358 -109.5t123 -308.5q0 -207 -81.5 -368t-231 -248t-337.5 -87q-218 0 -345 117.5t-127 321.5zM358 431q0 -259 208 -259q112 0 177.5 56.5t103 171.5t44.5 262q0 247 -208 247q-114 0 -181.5 -60t-105.5 -182.5 t-38 -235.5zM425 1199l42 219h214l-43 -219h-213zM858 1199l43 219h217l-43 -219h-217z" />
<glyph unicode="&#xf7;" horiz-adv-x="1124" d="M69 569v224h1027v-224h-1027zM462 170v233h238v-233h-238zM462 961v233h238v-233h-238z" />
<glyph unicode="&#xf8;" horiz-adv-x="1251" d="M42 -38l131 152q-110 114 -110 305q0 201 79.5 356t226.5 240.5t335 85.5q159 0 273 -54l60 69h189l-134 -156q93 -105 93 -277q0 -207 -81.5 -368t-231 -248t-337.5 -87q-138 0 -244 49l-58 -67h-191zM358 431q0 -50 8 -93l455 527q-50 44 -138 44q-114 0 -181.5 -60 t-105.5 -182.5t-38 -235.5zM443 206q49 -34 123 -34q112 0 177.5 56.5t103 171.5t44.5 262q0 32 -4 60z" />
<glyph unicode="&#xf9;" horiz-adv-x="1251" d="M85 265q0 25 7 80.5t14 83.5l127 653h279l-118 -595q-26 -123 -26 -165q0 -129 152 -129q101 0 186.5 81t108.5 202l118 606h282l-166 -851q-16 -79 -38 -231h-268q0 9 9.5 84t14.5 101h-3q-76 -107 -166.5 -155.5t-206.5 -48.5q-152 0 -229 73t-77 211zM426 1459l8 43 h258l195 -288l-6 -31h-148z" />
<glyph unicode="&#xfa;" horiz-adv-x="1251" d="M85 265q0 25 7 80.5t14 83.5l127 653h279l-118 -595q-26 -123 -26 -165q0 -129 152 -129q101 0 186.5 81t108.5 202l118 606h282l-166 -851q-16 -79 -38 -231h-268q0 9 9.5 84t14.5 101h-3q-76 -107 -166.5 -155.5t-206.5 -48.5q-152 0 -229 73t-77 211zM604 1183l6 31 l247 288h277l-8 -43l-376 -276h-146z" />
<glyph unicode="&#xfb;" horiz-adv-x="1251" d="M85 265q0 25 7 80.5t14 83.5l127 653h279l-118 -595q-26 -123 -26 -165q0 -129 152 -129q101 0 186.5 81t108.5 202l118 606h282l-166 -851q-16 -79 -38 -231h-268q0 9 9.5 84t14.5 101h-3q-76 -107 -166.5 -155.5t-206.5 -48.5q-152 0 -229 73t-77 211zM369 1183l5 28 l320 318h229l188 -318l-5 -28h-150l-166 192h-4l-248 -192h-169z" />
<glyph unicode="&#xfc;" horiz-adv-x="1251" d="M85 265q0 25 7 80.5t14 83.5l127 653h279l-118 -595q-26 -123 -26 -165q0 -129 152 -129q101 0 186.5 81t108.5 202l118 606h282l-166 -851q-16 -79 -38 -231h-268q0 9 9.5 84t14.5 101h-3q-76 -107 -166.5 -155.5t-206.5 -48.5q-152 0 -229 73t-77 211zM420 1199l42 219 h214l-43 -219h-213zM853 1199l43 219h217l-43 -219h-217z" />
<glyph unicode="&#xfd;" d="M-85 -407l38 196q40 -9 87 -9q78 0 137.5 46t118.5 150l28 48l-212 1058h291l71 -497q6 -31 21.5 -178t13.5 -156l17 37l139 293l259 501h300l-654 -1139q-107 -167 -174.5 -235t-141 -100.5t-166.5 -32.5q-97 0 -173 18zM527 1183l6 31l247 288h277l-8 -43l-376 -276 h-146z" />
<glyph unicode="&#xfe;" horiz-adv-x="1251" d="M-46 -425l369 1909h281l-83 -427q-18 -92 -34 -144h6q72 100 154.5 144.5t200.5 44.5q159 0 248 -94.5t89 -259.5q0 -202 -62 -393.5t-174.5 -283t-286.5 -91.5q-125 0 -203 52t-110 146h-2l-14 -90l-18 -98l-81 -415h-280zM400 401q0 -107 53 -167.5t148 -60.5 q102 0 161 64t93 206t34 251q0 106 -38.5 159.5t-122.5 53.5q-126 0 -201.5 -88t-109.5 -265q-17 -93 -17 -153z" />
<glyph unicode="&#xff;" d="M-67 -407l38 196q40 -9 87 -9q78 0 137.5 46t118.5 150l28 48l-212 1058h291l71 -497q6 -31 21.5 -178t13.5 -156l17 37l139 293l259 501h300l-654 -1139q-107 -167 -174.5 -235t-141 -100.5t-166.5 -32.5q-97 0 -173 18zM374 1196l42 219h214l-43 -219h-213zM807 1196 l43 219h217l-43 -219h-217z" />
<glyph unicode="&#x2c6;" horiz-adv-x="682" d="M76 1183l5 28l320 318h229l188 -318l-5 -28h-150l-166 192h-4l-248 -192h-169z" />
<glyph unicode="&#x2dc;" horiz-adv-x="682" d="M68 1183q39 158 108.5 225.5t172.5 67.5q45 0 86.5 -19t78.5 -42.5t70 -42.5t62 -19q43 0 71 28t52 95h135q-39 -158 -108.5 -225.5t-171.5 -67.5q-44 0 -84.5 19t-78 42.5t-71.5 42.5t-64 19q-42 0 -69.5 -25.5t-52.5 -97.5h-136z" />
<glyph unicode="&#x2000;" horiz-adv-x="917" />
<glyph unicode="&#x2001;" horiz-adv-x="1835" />
<glyph unicode="&#x2002;" horiz-adv-x="917" />
<glyph unicode="&#x2003;" horiz-adv-x="1835" />
<glyph unicode="&#x2004;" horiz-adv-x="611" />
<glyph unicode="&#x2005;" horiz-adv-x="458" />
<glyph unicode="&#x2006;" horiz-adv-x="305" />
<glyph unicode="&#x2007;" horiz-adv-x="305" />
<glyph unicode="&#x2008;" horiz-adv-x="229" />
<glyph unicode="&#x2009;" horiz-adv-x="367" />
<glyph unicode="&#x200a;" horiz-adv-x="101" />
<glyph unicode="&#x2010;" horiz-adv-x="682" d="M56 409l47 244h520l-47 -244h-520z" />
<glyph unicode="&#x2011;" horiz-adv-x="682" d="M56 409l47 244h520l-47 -244h-520z" />
<glyph unicode="&#x2012;" horiz-adv-x="682" d="M56 409l47 244h520l-47 -244h-520z" />
<glyph unicode="&#x2013;" d="M44 448l32 203h1014l-32 -203h-1014z" />
<glyph unicode="&#x2014;" horiz-adv-x="2048" d="M-19 448l38 203h2048l-39 -203h-2047z" />
<glyph unicode="&#x2018;" horiz-adv-x="569" d="M189 831l38 195q24 123 68 214.5t115 168.5h183q-76 -76 -127 -159.5t-66 -157.5h127l-51 -261h-287z" />
<glyph unicode="&#x2019;" horiz-adv-x="569" d="M189 831q163 168 193 318h-127l51 260h287l-38 -195q-23 -117 -65.5 -208t-118.5 -175h-182z" />
<glyph unicode="&#x201a;" horiz-adv-x="569" d="M-18 -317q79 79 130.5 163t64.5 154h-129l51 260h288l-38 -194q-23 -120 -66 -211.5t-116 -171.5h-185z" />
<glyph unicode="&#x201c;" horiz-adv-x="1024" d="M189 831l38 195q24 123 68 214.5t115 168.5h183q-76 -76 -127 -159.5t-66 -157.5h127l-51 -261h-287zM617 831l38 195q23 117 66.5 209.5t119.5 173.5h182q-76 -76 -127 -159.5t-66 -157.5h127l-51 -261h-289z" />
<glyph unicode="&#x201d;" horiz-adv-x="1024" d="M189 831q163 168 193 318h-127l51 260h287l-38 -192q-23 -121 -65 -211.5t-119 -174.5h-182zM617 831q164 164 195 318h-127l51 260h287l-38 -192q-24 -126 -68.5 -217t-115.5 -169h-184z" />
<glyph unicode="&#x201e;" horiz-adv-x="1024" d="M-10 -317q78 78 129 163t63 154h-127l51 260h287l-38 -194q-23 -119 -66 -212t-117 -171h-182zM418 -317q81 81 132 166t62 151h-127l51 260h287l-38 -194q-23 -120 -65.5 -211t-117.5 -172h-184z" />
<glyph unicode="&#x2022;" horiz-adv-x="717" d="M90 676q0 122 85.5 207.5t205.5 85.5q122 0 208.5 -85.5t86.5 -207.5q0 -121 -87 -208t-208 -87q-119 0 -205 86.5t-86 208.5z" />
<glyph unicode="&#x202f;" horiz-adv-x="367" />
<glyph unicode="&#x2039;" horiz-adv-x="682" d="M73 500l14 71l323 367h239l-6 -41l-329 -366l188 -353l-5 -39h-232z" />
<glyph unicode="&#x203a;" horiz-adv-x="682" d="M33 139l6 41l329 366l-188 353l5 39h232l192 -361l-14 -71l-323 -367h-239z" />
<glyph unicode="&#x205f;" horiz-adv-x="458" />
<glyph unicode="&#xe000;" horiz-adv-x="1080" d="M0 0v1080h1080v-1080h-1080z" />
</font>
</defs></svg> 